%!PS-Adobe-2.0 EPSF-2.0
%%Title: 100vort-vort-vel-pdf.eps
%%Creator: gnuplot 4.4 patchlevel 3
%%CreationDate: Fri Jun 28 10:10:53 2013
%%DocumentFonts: (atend)
%%BoundingBox: 50 50 625 481
%%EndComments
%%BeginProlog
/gnudict 256 dict def
gnudict begin
%
% The following true/false flags may be edited by hand if desired.
% The unit line width and grayscale image gamma correction may also be changed.
%
/Color true def
/Blacktext false def
/Solid true def
/Dashlength 1 def
/Landscape false def
/Level1 false def
/Rounded false def
/ClipToBoundingBox false def
/TransparentPatterns false def
/gnulinewidth 5.000 def
/userlinewidth gnulinewidth def
/Gamma 1.0 def
%
/vshift -46 def
/dl1 {
  10.0 Dashlength mul mul
  Rounded { currentlinewidth 0.75 mul sub dup 0 le { pop 0.01 } if } if
} def
/dl2 {
  10.0 Dashlength mul mul
  Rounded { currentlinewidth 0.75 mul add } if
} def
/hpt_ 31.5 def
/vpt_ 31.5 def
/hpt hpt_ def
/vpt vpt_ def
Level1 {} {
/SDict 10 dict def
systemdict /pdfmark known not {
  userdict /pdfmark systemdict /cleartomark get put
} if
SDict begin [
  /Title (100vort-vort-vel-pdf.eps)
  /Subject (gnuplot plot)
  /Creator (gnuplot 4.4 patchlevel 3)
  /Author (nev6)
%  /Producer (gnuplot)
%  /Keywords ()
  /CreationDate (Fri Jun 28 10:10:53 2013)
  /DOCINFO pdfmark
end
} ifelse
/doclip {
  ClipToBoundingBox {
    newpath 50 50 moveto 625 50 lineto 625 481 lineto 50 481 lineto closepath
    clip
  } if
} def
%
% Gnuplot Prolog Version 4.4 (August 2010)
%
%/SuppressPDFMark true def
%
/M {moveto} bind def
/L {lineto} bind def
/R {rmoveto} bind def
/V {rlineto} bind def
/N {newpath moveto} bind def
/Z {closepath} bind def
/C {setrgbcolor} bind def
/f {rlineto fill} bind def
/g {setgray} bind def
/Gshow {show} def   % May be redefined later in the file to support UTF-8
/vpt2 vpt 2 mul def
/hpt2 hpt 2 mul def
/Lshow {currentpoint stroke M 0 vshift R 
	Blacktext {gsave 0 setgray show grestore} {show} ifelse} def
/Rshow {currentpoint stroke M dup stringwidth pop neg vshift R
	Blacktext {gsave 0 setgray show grestore} {show} ifelse} def
/Cshow {currentpoint stroke M dup stringwidth pop -2 div vshift R 
	Blacktext {gsave 0 setgray show grestore} {show} ifelse} def
/UP {dup vpt_ mul /vpt exch def hpt_ mul /hpt exch def
  /hpt2 hpt 2 mul def /vpt2 vpt 2 mul def} def
/DL {Color {setrgbcolor Solid {pop []} if 0 setdash}
 {pop pop pop 0 setgray Solid {pop []} if 0 setdash} ifelse} def
/BL {stroke userlinewidth 2 mul setlinewidth
	Rounded {1 setlinejoin 1 setlinecap} if} def
/AL {stroke userlinewidth 2 div setlinewidth
	Rounded {1 setlinejoin 1 setlinecap} if} def
/UL {dup gnulinewidth mul /userlinewidth exch def
	dup 1 lt {pop 1} if 10 mul /udl exch def} def
/PL {stroke userlinewidth setlinewidth
	Rounded {1 setlinejoin 1 setlinecap} if} def
3.8 setmiterlimit
% Default Line colors
/LCw {1 1 1} def
/LCb {0 0 0} def
/LCa {0 0 0} def
/LC0 {1 0 0} def
/LC1 {0 1 0} def
/LC2 {0 0 1} def
/LC3 {1 0 1} def
/LC4 {0 1 1} def
/LC5 {1 1 0} def
/LC6 {0 0 0} def
/LC7 {1 0.3 0} def
/LC8 {0.5 0.5 0.5} def
% Default Line Types
/LTw {PL [] 1 setgray} def
/LTb {BL [] LCb DL} def
/LTa {AL [1 udl mul 2 udl mul] 0 setdash LCa setrgbcolor} def
/LT0 {PL [] LC0 DL} def
/LT1 {PL [4 dl1 2 dl2] LC1 DL} def
/LT2 {PL [2 dl1 3 dl2] LC2 DL} def
/LT3 {PL [1 dl1 1.5 dl2] LC3 DL} def
/LT4 {PL [6 dl1 2 dl2 1 dl1 2 dl2] LC4 DL} def
/LT5 {PL [3 dl1 3 dl2 1 dl1 3 dl2] LC5 DL} def
/LT6 {PL [2 dl1 2 dl2 2 dl1 6 dl2] LC6 DL} def
/LT7 {PL [1 dl1 2 dl2 6 dl1 2 dl2 1 dl1 2 dl2] LC7 DL} def
/LT8 {PL [2 dl1 2 dl2 2 dl1 2 dl2 2 dl1 2 dl2 2 dl1 4 dl2] LC8 DL} def
/Pnt {stroke [] 0 setdash gsave 1 setlinecap M 0 0 V stroke grestore} def
/Dia {stroke [] 0 setdash 2 copy vpt add M
  hpt neg vpt neg V hpt vpt neg V
  hpt vpt V hpt neg vpt V closepath stroke
  Pnt} def
/Pls {stroke [] 0 setdash vpt sub M 0 vpt2 V
  currentpoint stroke M
  hpt neg vpt neg R hpt2 0 V stroke
 } def
/Box {stroke [] 0 setdash 2 copy exch hpt sub exch vpt add M
  0 vpt2 neg V hpt2 0 V 0 vpt2 V
  hpt2 neg 0 V closepath stroke
  Pnt} def
/Crs {stroke [] 0 setdash exch hpt sub exch vpt add M
  hpt2 vpt2 neg V currentpoint stroke M
  hpt2 neg 0 R hpt2 vpt2 V stroke} def
/TriU {stroke [] 0 setdash 2 copy vpt 1.12 mul add M
  hpt neg vpt -1.62 mul V
  hpt 2 mul 0 V
  hpt neg vpt 1.62 mul V closepath stroke
  Pnt} def
/Star {2 copy Pls Crs} def
/BoxF {stroke [] 0 setdash exch hpt sub exch vpt add M
  0 vpt2 neg V hpt2 0 V 0 vpt2 V
  hpt2 neg 0 V closepath fill} def
/TriUF {stroke [] 0 setdash vpt 1.12 mul add M
  hpt neg vpt -1.62 mul V
  hpt 2 mul 0 V
  hpt neg vpt 1.62 mul V closepath fill} def
/TriD {stroke [] 0 setdash 2 copy vpt 1.12 mul sub M
  hpt neg vpt 1.62 mul V
  hpt 2 mul 0 V
  hpt neg vpt -1.62 mul V closepath stroke
  Pnt} def
/TriDF {stroke [] 0 setdash vpt 1.12 mul sub M
  hpt neg vpt 1.62 mul V
  hpt 2 mul 0 V
  hpt neg vpt -1.62 mul V closepath fill} def
/DiaF {stroke [] 0 setdash vpt add M
  hpt neg vpt neg V hpt vpt neg V
  hpt vpt V hpt neg vpt V closepath fill} def
/Pent {stroke [] 0 setdash 2 copy gsave
  translate 0 hpt M 4 {72 rotate 0 hpt L} repeat
  closepath stroke grestore Pnt} def
/PentF {stroke [] 0 setdash gsave
  translate 0 hpt M 4 {72 rotate 0 hpt L} repeat
  closepath fill grestore} def
/Circle {stroke [] 0 setdash 2 copy
  hpt 0 360 arc stroke Pnt} def
/CircleF {stroke [] 0 setdash hpt 0 360 arc fill} def
/C0 {BL [] 0 setdash 2 copy moveto vpt 90 450 arc} bind def
/C1 {BL [] 0 setdash 2 copy moveto
	2 copy vpt 0 90 arc closepath fill
	vpt 0 360 arc closepath} bind def
/C2 {BL [] 0 setdash 2 copy moveto
	2 copy vpt 90 180 arc closepath fill
	vpt 0 360 arc closepath} bind def
/C3 {BL [] 0 setdash 2 copy moveto
	2 copy vpt 0 180 arc closepath fill
	vpt 0 360 arc closepath} bind def
/C4 {BL [] 0 setdash 2 copy moveto
	2 copy vpt 180 270 arc closepath fill
	vpt 0 360 arc closepath} bind def
/C5 {BL [] 0 setdash 2 copy moveto
	2 copy vpt 0 90 arc
	2 copy moveto
	2 copy vpt 180 270 arc closepath fill
	vpt 0 360 arc} bind def
/C6 {BL [] 0 setdash 2 copy moveto
	2 copy vpt 90 270 arc closepath fill
	vpt 0 360 arc closepath} bind def
/C7 {BL [] 0 setdash 2 copy moveto
	2 copy vpt 0 270 arc closepath fill
	vpt 0 360 arc closepath} bind def
/C8 {BL [] 0 setdash 2 copy moveto
	2 copy vpt 270 360 arc closepath fill
	vpt 0 360 arc closepath} bind def
/C9 {BL [] 0 setdash 2 copy moveto
	2 copy vpt 270 450 arc closepath fill
	vpt 0 360 arc closepath} bind def
/C10 {BL [] 0 setdash 2 copy 2 copy moveto vpt 270 360 arc closepath fill
	2 copy moveto
	2 copy vpt 90 180 arc closepath fill
	vpt 0 360 arc closepath} bind def
/C11 {BL [] 0 setdash 2 copy moveto
	2 copy vpt 0 180 arc closepath fill
	2 copy moveto
	2 copy vpt 270 360 arc closepath fill
	vpt 0 360 arc closepath} bind def
/C12 {BL [] 0 setdash 2 copy moveto
	2 copy vpt 180 360 arc closepath fill
	vpt 0 360 arc closepath} bind def
/C13 {BL [] 0 setdash 2 copy moveto
	2 copy vpt 0 90 arc closepath fill
	2 copy moveto
	2 copy vpt 180 360 arc closepath fill
	vpt 0 360 arc closepath} bind def
/C14 {BL [] 0 setdash 2 copy moveto
	2 copy vpt 90 360 arc closepath fill
	vpt 0 360 arc} bind def
/C15 {BL [] 0 setdash 2 copy vpt 0 360 arc closepath fill
	vpt 0 360 arc closepath} bind def
/Rec {newpath 4 2 roll moveto 1 index 0 rlineto 0 exch rlineto
	neg 0 rlineto closepath} bind def
/Square {dup Rec} bind def
/Bsquare {vpt sub exch vpt sub exch vpt2 Square} bind def
/S0 {BL [] 0 setdash 2 copy moveto 0 vpt rlineto BL Bsquare} bind def
/S1 {BL [] 0 setdash 2 copy vpt Square fill Bsquare} bind def
/S2 {BL [] 0 setdash 2 copy exch vpt sub exch vpt Square fill Bsquare} bind def
/S3 {BL [] 0 setdash 2 copy exch vpt sub exch vpt2 vpt Rec fill Bsquare} bind def
/S4 {BL [] 0 setdash 2 copy exch vpt sub exch vpt sub vpt Square fill Bsquare} bind def
/S5 {BL [] 0 setdash 2 copy 2 copy vpt Square fill
	exch vpt sub exch vpt sub vpt Square fill Bsquare} bind def
/S6 {BL [] 0 setdash 2 copy exch vpt sub exch vpt sub vpt vpt2 Rec fill Bsquare} bind def
/S7 {BL [] 0 setdash 2 copy exch vpt sub exch vpt sub vpt vpt2 Rec fill
	2 copy vpt Square fill Bsquare} bind def
/S8 {BL [] 0 setdash 2 copy vpt sub vpt Square fill Bsquare} bind def
/S9 {BL [] 0 setdash 2 copy vpt sub vpt vpt2 Rec fill Bsquare} bind def
/S10 {BL [] 0 setdash 2 copy vpt sub vpt Square fill 2 copy exch vpt sub exch vpt Square fill
	Bsquare} bind def
/S11 {BL [] 0 setdash 2 copy vpt sub vpt Square fill 2 copy exch vpt sub exch vpt2 vpt Rec fill
	Bsquare} bind def
/S12 {BL [] 0 setdash 2 copy exch vpt sub exch vpt sub vpt2 vpt Rec fill Bsquare} bind def
/S13 {BL [] 0 setdash 2 copy exch vpt sub exch vpt sub vpt2 vpt Rec fill
	2 copy vpt Square fill Bsquare} bind def
/S14 {BL [] 0 setdash 2 copy exch vpt sub exch vpt sub vpt2 vpt Rec fill
	2 copy exch vpt sub exch vpt Square fill Bsquare} bind def
/S15 {BL [] 0 setdash 2 copy Bsquare fill Bsquare} bind def
/D0 {gsave translate 45 rotate 0 0 S0 stroke grestore} bind def
/D1 {gsave translate 45 rotate 0 0 S1 stroke grestore} bind def
/D2 {gsave translate 45 rotate 0 0 S2 stroke grestore} bind def
/D3 {gsave translate 45 rotate 0 0 S3 stroke grestore} bind def
/D4 {gsave translate 45 rotate 0 0 S4 stroke grestore} bind def
/D5 {gsave translate 45 rotate 0 0 S5 stroke grestore} bind def
/D6 {gsave translate 45 rotate 0 0 S6 stroke grestore} bind def
/D7 {gsave translate 45 rotate 0 0 S7 stroke grestore} bind def
/D8 {gsave translate 45 rotate 0 0 S8 stroke grestore} bind def
/D9 {gsave translate 45 rotate 0 0 S9 stroke grestore} bind def
/D10 {gsave translate 45 rotate 0 0 S10 stroke grestore} bind def
/D11 {gsave translate 45 rotate 0 0 S11 stroke grestore} bind def
/D12 {gsave translate 45 rotate 0 0 S12 stroke grestore} bind def
/D13 {gsave translate 45 rotate 0 0 S13 stroke grestore} bind def
/D14 {gsave translate 45 rotate 0 0 S14 stroke grestore} bind def
/D15 {gsave translate 45 rotate 0 0 S15 stroke grestore} bind def
/DiaE {stroke [] 0 setdash vpt add M
  hpt neg vpt neg V hpt vpt neg V
  hpt vpt V hpt neg vpt V closepath stroke} def
/BoxE {stroke [] 0 setdash exch hpt sub exch vpt add M
  0 vpt2 neg V hpt2 0 V 0 vpt2 V
  hpt2 neg 0 V closepath stroke} def
/TriUE {stroke [] 0 setdash vpt 1.12 mul add M
  hpt neg vpt -1.62 mul V
  hpt 2 mul 0 V
  hpt neg vpt 1.62 mul V closepath stroke} def
/TriDE {stroke [] 0 setdash vpt 1.12 mul sub M
  hpt neg vpt 1.62 mul V
  hpt 2 mul 0 V
  hpt neg vpt -1.62 mul V closepath stroke} def
/PentE {stroke [] 0 setdash gsave
  translate 0 hpt M 4 {72 rotate 0 hpt L} repeat
  closepath stroke grestore} def
/CircE {stroke [] 0 setdash 
  hpt 0 360 arc stroke} def
/Opaque {gsave closepath 1 setgray fill grestore 0 setgray closepath} def
/DiaW {stroke [] 0 setdash vpt add M
  hpt neg vpt neg V hpt vpt neg V
  hpt vpt V hpt neg vpt V Opaque stroke} def
/BoxW {stroke [] 0 setdash exch hpt sub exch vpt add M
  0 vpt2 neg V hpt2 0 V 0 vpt2 V
  hpt2 neg 0 V Opaque stroke} def
/TriUW {stroke [] 0 setdash vpt 1.12 mul add M
  hpt neg vpt -1.62 mul V
  hpt 2 mul 0 V
  hpt neg vpt 1.62 mul V Opaque stroke} def
/TriDW {stroke [] 0 setdash vpt 1.12 mul sub M
  hpt neg vpt 1.62 mul V
  hpt 2 mul 0 V
  hpt neg vpt -1.62 mul V Opaque stroke} def
/PentW {stroke [] 0 setdash gsave
  translate 0 hpt M 4 {72 rotate 0 hpt L} repeat
  Opaque stroke grestore} def
/CircW {stroke [] 0 setdash 
  hpt 0 360 arc Opaque stroke} def
/BoxFill {gsave Rec 1 setgray fill grestore} def
/Density {
  /Fillden exch def
  currentrgbcolor
  /ColB exch def /ColG exch def /ColR exch def
  /ColR ColR Fillden mul Fillden sub 1 add def
  /ColG ColG Fillden mul Fillden sub 1 add def
  /ColB ColB Fillden mul Fillden sub 1 add def
  ColR ColG ColB setrgbcolor} def
/BoxColFill {gsave Rec PolyFill} def
/PolyFill {gsave Density fill grestore grestore} def
/h {rlineto rlineto rlineto gsave closepath fill grestore} bind def
%
% PostScript Level 1 Pattern Fill routine for rectangles
% Usage: x y w h s a XX PatternFill
%	x,y = lower left corner of box to be filled
%	w,h = width and height of box
%	  a = angle in degrees between lines and x-axis
%	 XX = 0/1 for no/yes cross-hatch
%
/PatternFill {gsave /PFa [ 9 2 roll ] def
  PFa 0 get PFa 2 get 2 div add PFa 1 get PFa 3 get 2 div add translate
  PFa 2 get -2 div PFa 3 get -2 div PFa 2 get PFa 3 get Rec
  gsave 1 setgray fill grestore clip
  currentlinewidth 0.5 mul setlinewidth
  /PFs PFa 2 get dup mul PFa 3 get dup mul add sqrt def
  0 0 M PFa 5 get rotate PFs -2 div dup translate
  0 1 PFs PFa 4 get div 1 add floor cvi
	{PFa 4 get mul 0 M 0 PFs V} for
  0 PFa 6 get ne {
	0 1 PFs PFa 4 get div 1 add floor cvi
	{PFa 4 get mul 0 2 1 roll M PFs 0 V} for
 } if
  stroke grestore} def
%
/languagelevel where
 {pop languagelevel} {1} ifelse
 2 lt
	{/InterpretLevel1 true def}
	{/InterpretLevel1 Level1 def}
 ifelse
%
% PostScript level 2 pattern fill definitions
%
/Level2PatternFill {
/Tile8x8 {/PaintType 2 /PatternType 1 /TilingType 1 /BBox [0 0 8 8] /XStep 8 /YStep 8}
	bind def
/KeepColor {currentrgbcolor [/Pattern /DeviceRGB] setcolorspace} bind def
<< Tile8x8
 /PaintProc {0.5 setlinewidth pop 0 0 M 8 8 L 0 8 M 8 0 L stroke} 
>> matrix makepattern
/Pat1 exch def
<< Tile8x8
 /PaintProc {0.5 setlinewidth pop 0 0 M 8 8 L 0 8 M 8 0 L stroke
	0 4 M 4 8 L 8 4 L 4 0 L 0 4 L stroke}
>> matrix makepattern
/Pat2 exch def
<< Tile8x8
 /PaintProc {0.5 setlinewidth pop 0 0 M 0 8 L
	8 8 L 8 0 L 0 0 L fill}
>> matrix makepattern
/Pat3 exch def
<< Tile8x8
 /PaintProc {0.5 setlinewidth pop -4 8 M 8 -4 L
	0 12 M 12 0 L stroke}
>> matrix makepattern
/Pat4 exch def
<< Tile8x8
 /PaintProc {0.5 setlinewidth pop -4 0 M 8 12 L
	0 -4 M 12 8 L stroke}
>> matrix makepattern
/Pat5 exch def
<< Tile8x8
 /PaintProc {0.5 setlinewidth pop -2 8 M 4 -4 L
	0 12 M 8 -4 L 4 12 M 10 0 L stroke}
>> matrix makepattern
/Pat6 exch def
<< Tile8x8
 /PaintProc {0.5 setlinewidth pop -2 0 M 4 12 L
	0 -4 M 8 12 L 4 -4 M 10 8 L stroke}
>> matrix makepattern
/Pat7 exch def
<< Tile8x8
 /PaintProc {0.5 setlinewidth pop 8 -2 M -4 4 L
	12 0 M -4 8 L 12 4 M 0 10 L stroke}
>> matrix makepattern
/Pat8 exch def
<< Tile8x8
 /PaintProc {0.5 setlinewidth pop 0 -2 M 12 4 L
	-4 0 M 12 8 L -4 4 M 8 10 L stroke}
>> matrix makepattern
/Pat9 exch def
/Pattern1 {PatternBgnd KeepColor Pat1 setpattern} bind def
/Pattern2 {PatternBgnd KeepColor Pat2 setpattern} bind def
/Pattern3 {PatternBgnd KeepColor Pat3 setpattern} bind def
/Pattern4 {PatternBgnd KeepColor Landscape {Pat5} {Pat4} ifelse setpattern} bind def
/Pattern5 {PatternBgnd KeepColor Landscape {Pat4} {Pat5} ifelse setpattern} bind def
/Pattern6 {PatternBgnd KeepColor Landscape {Pat9} {Pat6} ifelse setpattern} bind def
/Pattern7 {PatternBgnd KeepColor Landscape {Pat8} {Pat7} ifelse setpattern} bind def
} def
%
%
%End of PostScript Level 2 code
%
/PatternBgnd {
  TransparentPatterns {} {gsave 1 setgray fill grestore} ifelse
} def
%
% Substitute for Level 2 pattern fill codes with
% grayscale if Level 2 support is not selected.
%
/Level1PatternFill {
/Pattern1 {0.250 Density} bind def
/Pattern2 {0.500 Density} bind def
/Pattern3 {0.750 Density} bind def
/Pattern4 {0.125 Density} bind def
/Pattern5 {0.375 Density} bind def
/Pattern6 {0.625 Density} bind def
/Pattern7 {0.875 Density} bind def
} def
%
% Now test for support of Level 2 code
%
Level1 {Level1PatternFill} {Level2PatternFill} ifelse
%
/Symbol-Oblique /Symbol findfont [1 0 .167 1 0 0] makefont
dup length dict begin {1 index /FID eq {pop pop} {def} ifelse} forall
currentdict end definefont pop
/MFshow {
   { dup 5 get 3 ge
     { 5 get 3 eq {gsave} {grestore} ifelse }
     {dup dup 0 get findfont exch 1 get scalefont setfont
     [ currentpoint ] exch dup 2 get 0 exch R dup 5 get 2 ne {dup dup 6
     get exch 4 get {Gshow} {stringwidth pop 0 R} ifelse }if dup 5 get 0 eq
     {dup 3 get {2 get neg 0 exch R pop} {pop aload pop M} ifelse} {dup 5
     get 1 eq {dup 2 get exch dup 3 get exch 6 get stringwidth pop -2 div
     dup 0 R} {dup 6 get stringwidth pop -2 div 0 R 6 get
     show 2 index {aload pop M neg 3 -1 roll neg R pop pop} {pop pop pop
     pop aload pop M} ifelse }ifelse }ifelse }
     ifelse }
   forall} def
/Gswidth {dup type /stringtype eq {stringwidth} {pop (n) stringwidth} ifelse} def
/MFwidth {0 exch { dup 5 get 3 ge { 5 get 3 eq { 0 } { pop } ifelse }
 {dup 3 get{dup dup 0 get findfont exch 1 get scalefont setfont
     6 get Gswidth pop add} {pop} ifelse} ifelse} forall} def
/MLshow { currentpoint stroke M
  0 exch R
  Blacktext {gsave 0 setgray MFshow grestore} {MFshow} ifelse } bind def
/MRshow { currentpoint stroke M
  exch dup MFwidth neg 3 -1 roll R
  Blacktext {gsave 0 setgray MFshow grestore} {MFshow} ifelse } bind def
/MCshow { currentpoint stroke M
  exch dup MFwidth -2 div 3 -1 roll R
  Blacktext {gsave 0 setgray MFshow grestore} {MFshow} ifelse } bind def
/XYsave    { [( ) 1 2 true false 3 ()] } bind def
/XYrestore { [( ) 1 2 true false 4 ()] } bind def
end
%%EndProlog
gnudict begin
gsave
doclip
50 50 translate
0.050 0.050 scale
0 setgray
newpath
(Helvetica) findfont 140 scalefont setfont
gsave % colour palette begin
/maxcolors 64 def
/HSV2RGB {  exch dup 0.0 eq {pop exch pop dup dup} % achromatic gray
  { /HSVs exch def /HSVv exch def 6.0 mul dup floor dup 3 1 roll sub
     /HSVf exch def /HSVi exch cvi def /HSVp HSVv 1.0 HSVs sub mul def
	 /HSVq HSVv 1.0 HSVs HSVf mul sub mul def 
	 /HSVt HSVv 1.0 HSVs 1.0 HSVf sub mul sub mul def
	 /HSVi HSVi 6 mod def 0 HSVi eq {HSVv HSVt HSVp}
	 {1 HSVi eq {HSVq HSVv HSVp}{2 HSVi eq {HSVp HSVv HSVt}
	 {3 HSVi eq {HSVp HSVq HSVv}{4 HSVi eq {HSVt HSVp HSVv}
	 {HSVv HSVp HSVq} ifelse} ifelse} ifelse} ifelse} ifelse
  } ifelse} def
/Constrain {
  dup 0 lt {0 exch pop}{dup 1 gt {1 exch pop} if} ifelse} def
/YIQ2RGB {
  3 copy -1.702 mul exch -1.105 mul add add Constrain 4 1 roll
  3 copy -0.647 mul exch -0.272 mul add add Constrain 5 1 roll
  0.621 mul exch -0.956 mul add add Constrain 3 1 roll } def
/CMY2RGB {  1 exch sub exch 1 exch sub 3 2 roll 1 exch sub 3 1 roll exch } def
/XYZ2RGB {  3 copy -0.9017 mul exch -0.1187 mul add exch 0.0585 mul exch add
  Constrain 4 1 roll 3 copy -0.0279 mul exch 1.999 mul add exch
  -0.9844 mul add Constrain 5 1 roll -0.2891 mul exch -0.5338 mul add
  exch 1.91 mul exch add Constrain 3 1 roll} def
/SelectSpace {ColorSpace (HSV) eq {HSV2RGB}{ColorSpace (XYZ) eq {
  XYZ2RGB}{ColorSpace (CMY) eq {CMY2RGB}{ColorSpace (YIQ) eq {YIQ2RGB}
  if} ifelse} ifelse} ifelse} def
/InterpolatedColor true def
/grayindex {/gidx 0 def
  {GrayA gidx get grayv ge {exit} if /gidx gidx 1 add def} loop} def
/dgdx {grayv GrayA gidx get sub GrayA gidx 1 sub get
  GrayA gidx get sub div} def 
/redvalue {RedA gidx get RedA gidx 1 sub get
  RedA gidx get sub dgdxval mul add} def
/greenvalue {GreenA gidx get GreenA gidx 1 sub get
  GreenA gidx get sub dgdxval mul add} def
/bluevalue {BlueA gidx get BlueA gidx 1 sub get
  BlueA gidx get sub dgdxval mul add} def
/interpolate {
  grayindex grayv GrayA gidx get sub abs 1e-5 le
    {RedA gidx get GreenA gidx get BlueA gidx get}
    {/dgdxval dgdx def redvalue greenvalue bluevalue} ifelse} def
/GrayA [0 .0159 .0317 .0476 .0635 .0794 .0952 .1111 .127 .1429 .1587 .1746 
  .1905 .2063 .2222 .2381 .254 .2698 .2857 .3016 .3175 .3333 .3492 .3651 
  .381 .3968 .4127 .4286 .4444 .4603 .4762 .4921 .5079 .5238 .5397 .5556 
  .5714 .5873 .6032 .619 .6349 .6508 .6667 .6825 .6984 .7143 .7302 .746 
  .7619 .7778 .7937 .8095 .8254 .8413 .8571 .873 .8889 .9048 .9206 .9365 
  .9524 .9683 .9841 1 ] def
/RedA [0 0 0 0 0 0 0 0 0 0 0 0 0 0 0 0 0 0 0 0 0 0 0 0 .0238 .0873 .1508 
  .2143 .2778 .3413 .4048 .4683 .5317 .5952 .6587 .7222 .7857 .8492 .9127 
  .9762 1 1 1 1 1 1 1 1 1 1 1 1 1 1 1 1 .9444 .881 .8175 .754 .6905 .627 
  .5635 .5 ] def
/GreenA [0 0 0 0 0 0 0 0 .0079 .0714 .1349 .1984 .2619 .3254 .3889 .4524 
  .5159 .5794 .6429 .7063 .7698 .8333 .8968 .9603 1 1 1 1 1 1 1 1 1 1 1 1 1 
  1 1 1 .9603 .8968 .8333 .7698 .7063 .6429 .5794 .5159 .4524 .3889 .3254 
  .2619 .1984 .1349 .0714 .0079 0 0 0 0 0 0 0 0 ] def
/BlueA [.5 .5635 .627 .6905 .754 .8175 .881 .9444 1 1 1 1 1 1 1 1 1 1 1 1 1 
  1 1 1 .9762 .9127 .8492 .7857 .7222 .6587 .5952 .5317 .4683 .4048 .3413 
  .2778 .2143 .1508 .0873 .0238 0 0 0 0 0 0 0 0 0 0 0 0 0 0 0 0 0 0 0 0 0 0 
  0 0 ] def
/pm3dround {maxcolors 0 gt {dup 1 ge
	{pop 1} {maxcolors mul floor maxcolors 1 sub div} ifelse} if} def
/pm3dGamma 1.0 1.5 Gamma mul div def
/ColorSpace (RGB) def
Color InterpolatedColor or { % COLOUR vs. GRAY map
  InterpolatedColor { %% Interpolation vs. RGB-Formula
    /g {stroke pm3dround /grayv exch def interpolate
        SelectSpace setrgbcolor} bind def
  }{
  /g {stroke pm3dround dup cF7 Constrain exch dup cF5 Constrain exch cF15 Constrain 
       SelectSpace setrgbcolor} bind def
  } ifelse
}{
  /g {stroke pm3dround pm3dGamma exp setgray} bind def
} ifelse
0.500 UL
LTb
1475 928 M
88 0 V
8833 0 R
-88 0 V
stroke
0.00 0.00 0.00 C 1391 928 M
[ [(Helvetica) 120.0 0.0 true true 0 (-15)]
] -40.0 MRshow
0.500 UL
LTb
1475 2335 M
88 0 V
8833 0 R
-88 0 V
stroke
0.00 0.00 0.00 C 1391 2335 M
[ [(Helvetica) 120.0 0.0 true true 0 (-10)]
] -40.0 MRshow
0.500 UL
LTb
1475 3742 M
88 0 V
8833 0 R
-88 0 V
stroke
0.00 0.00 0.00 C 1391 3742 M
[ [(Helvetica) 120.0 0.0 true true 0 (-5)]
] -40.0 MRshow
0.500 UL
LTb
1475 5148 M
88 0 V
8833 0 R
-88 0 V
stroke
0.00 0.00 0.00 C 1391 5148 M
[ [(Helvetica) 120.0 0.0 true true 0 (0)]
] -40.0 MRshow
0.500 UL
LTb
1475 6555 M
88 0 V
8833 0 R
-88 0 V
stroke
0.00 0.00 0.00 C 1391 6555 M
[ [(Helvetica) 120.0 0.0 true true 0 (5)]
] -40.0 MRshow
0.500 UL
LTb
1475 7962 M
88 0 V
8833 0 R
-88 0 V
stroke
0.00 0.00 0.00 C 1391 7962 M
[ [(Helvetica) 120.0 0.0 true true 0 (10)]
] -40.0 MRshow
0.500 UL
LTb
1475 928 M
0 88 V
0 6946 R
0 -88 V
stroke
0.00 0.00 0.00 C 1475 788 M
[ [(Helvetica) 120.0 0.0 true true 0 (-4)]
] -40.0 MCshow
0.500 UL
LTb
2749 928 M
0 88 V
0 6946 R
0 -88 V
stroke
0.00 0.00 0.00 C 2749 788 M
[ [(Helvetica) 120.0 0.0 true true 0 (-3)]
] -40.0 MCshow
0.500 UL
LTb
4024 928 M
0 88 V
0 6946 R
0 -88 V
stroke
0.00 0.00 0.00 C 4024 788 M
[ [(Helvetica) 120.0 0.0 true true 0 (-2)]
] -40.0 MCshow
0.500 UL
LTb
5298 928 M
0 88 V
0 6946 R
0 -88 V
stroke
0.00 0.00 0.00 C 5298 788 M
[ [(Helvetica) 120.0 0.0 true true 0 (-1)]
] -40.0 MCshow
0.500 UL
LTb
6573 928 M
0 88 V
0 6946 R
0 -88 V
stroke
0.00 0.00 0.00 C 6573 788 M
[ [(Helvetica) 120.0 0.0 true true 0 (0)]
] -40.0 MCshow
0.500 UL
LTb
7847 928 M
0 88 V
0 6946 R
0 -88 V
stroke
0.00 0.00 0.00 C 7847 788 M
[ [(Helvetica) 120.0 0.0 true true 0 (1)]
] -40.0 MCshow
0.500 UL
LTb
9122 928 M
0 88 V
0 6946 R
0 -88 V
stroke
0.00 0.00 0.00 C 9122 788 M
[ [(Helvetica) 120.0 0.0 true true 0 (2)]
] -40.0 MCshow
0.500 UL
LTb
10396 928 M
0 88 V
0 6946 R
0 -88 V
stroke
0.00 0.00 0.00 C 10396 788 M
[ [(Helvetica) 120.0 0.0 true true 0 (3)]
] -40.0 MCshow
0.500 UL
LTb
0.500 UL
LTb
1475 7962 N
0 -7034 V
8921 0 V
0 7034 V
-8921 0 V
Z stroke
0.00 0.00 0.00 C 985 4445 M
currentpoint gsave translate 90 rotate 0 0 moveto
[ [(Helvetica) 120.0 0.0 true true 0 (log\(p.d.f\(v/v)]
[(Helvetica) 96.0 -36.0 true true 0 (sd)]
[(Helvetica) 120.0 0.0 true true 0 (\)\))]
] -28.0 MCshow
grestore
LTb
0.00 0.00 0.00 C 5935 578 M
[ [(Helvetica) 120.0 0.0 true true 0 (log\(v/v)]
[(Helvetica) 96.0 -36.0 true true 0 (sd)]
[(Helvetica) 120.0 0.0 true true 0 (\))]
] -28.0 MCshow
LTb
5935 8172 M
[ [(Helvetica) 120.0 0.0 true true 0 (\(lagrangian\) velocity statistics of 100 vortices)]
] -40.0 MCshow
1.000 UP
0.500 UL
LTb
% Begin plot #1
0.500 UL
LT0
0.00 0.00 1.00 C LCb setrgbcolor
9745 7829 M
[ [(Helvetica) 120.0 0.0 true true 0 (v)]
[(Helvetica) 96.0 -36.0 true true 0 (y)]
[(Helvetica) 120.0 0.0 true true 0 ( - mean\(v)]
[(Helvetica) 96.0 -36.0 true true 0 (y)]
[(Helvetica) 120.0 0.0 true true 0 (\))]
] -28.0 MRshow
LT0
0.00 0.00 1.00 C 9829 7829 M
399 0 V
2790 4587 M
1568 -24 V
586 1 V
471 -52 V
289 -4 V
281 -87 V
192 -25 V
200 -104 V
144 -18 V
156 -106 V
115 -59 V
127 -72 V
96 -68 V
108 -41 V
82 -90 V
93 -34 V
72 -133 V
82 16 V
64 -86 V
74 3 V
57 -77 V
67 12 V
52 -117 V
61 41 V
48 -130 V
56 26 V
44 -70 V
52 -15 V
41 -39 V
48 109 V
39 -32 V
45 -90 V
36 -29 V
42 -101 V
34 -129 V
40 -22 V
32 0 V
38 -167 V
30 144 V
36 -34 V
29 -110 V
34 -114 V
27 86 V
33 54 V
26 -297 V
31 258 V
25 -81 V
30 35 V
24 -407 V
28 504 V
23 -585 V
28 488 V
22 -488 V
26 390 V
21 -390 V
26 309 V
20 -71 V
25 0 V
20 -238 V
23 0 V
20 0 V
23 -114 V
18 352 V
22 -157 V
18 63 V
22 -63 V
17 -81 V
21 81 V
17 114 V
20 0 V
17 -114 V
19 0 V
16 -81 V
20 195 V
15 -114 V
19 228 V
15 -71 V
18 101 V
15 -101 V
17 -157 V
15 114 V
17 -309 V
14 390 V
17 -132 V
14 94 V
16 152 V
14 -81 V
16 -71 V
13 -94 V
15 165 V
13 -71 V
16 -43 V
12 144 V
15 -258 V
12 63 V
15 0 V
26 -258 V
26 114 V
26 81 V
24 -81 V
% End plot #1
% Begin plot #2
stroke
LT1
0.00 0.50 0.00 C LCb setrgbcolor
9745 7689 M
[ [(Helvetica) 120.0 0.0 true true 0 (v)]
[(Helvetica) 96.0 -36.0 true true 0 (x)]
] -28.0 MRshow
LT1
0.00 0.50 0.00 C 9829 7689 M
399 0 V
1931 4596 M
2663 -21 V
282 -3 V
678 -62 V
141 4 V
400 -92 V
94 -13 V
285 -111 V
70 -48 V
222 -81 V
56 -100 V
181 -48 V
47 -110 V
153 -21 V
40 -99 V
132 -10 V
35 -72 V
117 -43 V
32 -42 V
104 -53 V
28 -74 V
95 -29 V
26 -15 V
86 -114 V
23 -12 V
80 -29 V
22 -50 V
73 -40 V
20 37 V
69 -140 V
18 16 V
65 -66 V
17 -66 V
60 -71 V
17 -53 V
57 -42 V
15 95 V
54 0 V
15 -84 V
51 21 V
14 55 V
48 -212 V
14 33 V
46 -309 V
13 339 V
44 -339 V
12 170 V
42 -170 V
12 144 V
41 -63 V
11 -38 V
39 38 V
11 0 V
37 -132 V
10 94 V
37 71 V
10 -33 V
34 63 V
10 -195 V
34 246 V
9 0 V
33 -81 V
9 -33 V
31 0 V
9 33 V
31 -114 V
8 43 V
30 -157 V
8 -195 V
29 258 V
8 51 V
28 0 V
8 43 V
27 -547 V
8 585 V
26 -195 V
7 114 V
26 81 V
7 -390 V
26 352 V
7 101 V
24 -101 V
7 38 V
24 -195 V
7 258 V
23 -144 V
7 144 V
22 -30 V
7 -228 V
22 195 V
6 -38 V
22 -157 V
6 63 V
22 51 V
6 -195 V
21 0 V
5 -309 V
21 0 V
6 195 V
20 0 V
% End plot #2
% Begin plot #3
stroke
LT2
1.00 0.00 0.00 C LCb setrgbcolor
9745 7549 M
[ [(Helvetica) 120.0 0.0 true true 0 (-2.8817 power law)]
] -40.0 MRshow
LT2
1.00 0.00 0.00 C 9829 7549 M
399 0 V
2790 6520 M
4358 5523 L
586 -373 V
471 -299 V
289 -185 V
281 -178 V
192 -122 V
200 -128 V
144 -91 V
156 -99 V
115 -74 V
127 -80 V
96 -62 V
108 -68 V
82 -52 V
93 -60 V
72 -45 V
82 -53 V
64 -40 V
74 -47 V
57 -37 V
67 -42 V
52 -34 V
61 -38 V
48 -31 V
56 -35 V
44 -28 V
52 -33 V
41 -27 V
48 -30 V
39 -25 V
45 -28 V
36 -23 V
42 -27 V
34 -22 V
40 -25 V
32 -20 V
38 -24 V
30 -20 V
36 -23 V
29 -18 V
34 -22 V
27 -17 V
33 -21 V
26 -16 V
31 -20 V
25 -16 V
30 -19 V
24 -15 V
28 -18 V
23 -15 V
28 -17 V
22 -14 V
26 -17 V
21 -14 V
26 -16 V
20 -13 V
25 -16 V
20 -12 V
23 -15 V
20 -13 V
23 -14 V
18 -12 V
22 -14 V
18 -12 V
22 -13 V
17 -11 V
21 -14 V
17 -10 V
20 -13 V
17 -11 V
19 -12 V
16 -10 V
20 -13 V
15 -9 V
19 -12 V
15 -10 V
18 -11 V
15 -10 V
17 -11 V
15 -9 V
17 -11 V
14 -9 V
17 -11 V
14 -9 V
16 -10 V
14 -9 V
16 -10 V
13 -8 V
15 -10 V
13 -8 V
16 -10 V
12 -8 V
15 -10 V
12 -7 V
15 -10 V
26 -17 V
26 -16 V
26 -16 V
24 -16 V
% End plot #3
% Begin plot #4
stroke
LT3
0.00 0.00 0.00 C LCb setrgbcolor
9745 7409 M
[ [(Helvetica) 120.0 0.0 true true 0 (-3 power law)]
] -40.0 MRshow
LT3
0.00 0.00 0.00 C 9829 7409 M
399 0 V
2790 6619 M
4358 5581 L
586 -389 V
471 -311 V
289 -192 V
281 -186 V
192 -127 V
200 -132 V
144 -96 V
156 -103 V
115 -76 V
127 -84 V
96 -64 V
108 -71 V
82 -55 V
93 -61 V
72 -48 V
82 -55 V
64 -42 V
74 -49 V
57 -38 V
67 -44 V
52 -35 V
61 -40 V
48 -32 V
56 -37 V
44 -29 V
52 -34 V
41 -28 V
48 -31 V
39 -26 V
45 -30 V
36 -24 V
42 -28 V
34 -22 V
40 -27 V
32 -21 V
38 -25 V
30 -20 V
36 -24 V
29 -19 V
34 -22 V
27 -18 V
33 -22 V
26 -17 V
31 -21 V
25 -16 V
30 -20 V
24 -16 V
28 -19 V
23 -15 V
28 -18 V
22 -15 V
26 -17 V
21 -14 V
26 -17 V
20 -14 V
25 -16 V
20 -13 V
23 -16 V
20 -13 V
23 -15 V
18 -12 V
22 -15 V
18 -12 V
22 -14 V
17 -12 V
21 -13 V
17 -12 V
20 -13 V
17 -11 V
19 -13 V
16 -11 V
20 -12 V
15 -11 V
19 -12 V
15 -10 V
18 -12 V
15 -10 V
17 -11 V
15 -10 V
17 -11 V
14 -10 V
17 -11 V
14 -9 V
16 -11 V
14 -9 V
16 -10 V
13 -9 V
15 -10 V
13 -9 V
16 -10 V
12 -8 V
15 -10 V
12 -8 V
15 -10 V
26 -18 V
26 -17 V
26 -17 V
24 -16 V
% End plot #4
1.000 UP
stroke
LTb
grestore % colour palette end
stroke
grestore
end
showpage
%%Trailer
%%DocumentFonts: Helvetica
