%!PS-Adobe-3.0 EPSF-3.0
%%BoundingBox: 0 0 819 569
%%LanguageLevel: 2
%%Creator: OriginLab Corporation
%%Title: (E:\emil\vortex-points\vortex-points\notes\experiment_comparison\figures\T175meanV.eps)
%%CreationDate: Tue Sep 17 09:02:36 2013
%%EndComments

/OriginLab::PSL1 128 dict dup begin def
/Save0 save def
%%BeginResource: procset OriginLab::PSL1
/wd{1 index where{pop pop pop}{bind def}ifelse}bind def
/setcmykcolor{1 sub 4 1 roll 3{3 index add neg dup 0 lt{pop 0}if 3 1 roll}repeat setrgbcolor pop}wd
/selectfont{dup type/arraytype eq{exch findfont exch makefont setfont}{exch findfont exch scalefont setfont}ifelse}wd
/xshow{1 index length 0 le{}{currentpoint exch 3 index length 1 sub 0 exch 1 exch{dup 5 index exch 1 getinterval show 3 index exch get add 2 copy exch moveto}for pop pop}ifelse pop pop}wd
/glyphshow{matrix currentmatrix exch currentfont dup/FontMatrix get concat currentpoint translate
 dup/Metrics get 2 index get 0 4 2 roll gsave/CharProcs get exch 2 copy known not{pop/.notdef}if
 get exec fill grestore moveto setmatrix}wd
/grayimage/image load def/rgbtogray{cvx exec dup length 3 idiv 1 sub 0 exch 1 exch{dup 3 mul dup 3 index exch get 255 div .3 mul exch
 1 add dup 4 index exch get 255 div .59 mul exch 1 add 4 index exch get 255 div .11 mul add add
 255 mul dup 255 gt{255}if round cvi 2 index 3 1 roll put}for dup length 3 idiv 0 exch getinterval}bind def
/colorimage{0 setgray pop pop cvlit/rgbtogray cvx 2 packedarray cvx grayimage}wd
/bd{bind def}bind def/ld{load def}bd/ed{exch def}bd/xd{cvx def}bd
/np/newpath ld/a/arc ld/m/moveto ld/l/lineto ld/c/curveto ld/rm/rmoveto ld/rl/rlineto ld/rc/rcurveto ld/cp/closepath ld/cpt/currentpoint ld
/tr/translate ld/sc/scale ld/ro/rotate ld/t/transform ld/it/itransform ld/dt/dtransform ld/idt/idtransform ld
/mtx/matrix ld/cmtx/currentmatrix ld/dmtx/defaultmatrix ld/smtx/setmatrix ld/catmtx/concatmatrix ld
/sw/setlinewidth ld/scap/setlinecap ld/sj/setlinejoin ld/sm/setmiterlimit ld/sd/setdash ld/rgb/setrgbcolor ld/crgb/currentrgbcolor ld/cmyk/setcmykcolor ld/gs/gsave ld/gr/grestore ld
/st/stroke ld/fi/fill ld/eofi/eofill ld/cl/clip ld/eocl/eoclip ld
/df/definefont ld/ff/findfont ld/sf/setfont ld/scf/scalefont ld/self/selectfont ld/cf/currentfont ld
/s/show ld/xs/xshow ld/gls/glyphshow ld/xgls{cpt 3 1 roll add exch 3 -1 roll gls m}bd
/cd/currentdict ld/i/index ld
/DrawBox{4 2 roll m 1 index 0 rl 0 exch rl neg 0 rl cp}bd
/plus.re { 6 { 3 index } repeat moveto 0 exch rlineto 0 rlineto pop pop neg 0 exch rlineto pop lineto closepath } def
/DrawBcc{4 2 roll m 2 copy 0 lt exch 0 lt xor{dup 0 exch rl exch 0 rl neg 0 exch rl}{exch dup 0 rl exch 0 exch rl neg 0 rl}ifelse cp}bd
/rectline{dup type/arraytype eq{dup length 0 exch 4 exch 4 sub{0 1 3{3 copy add get 4 1 roll pop}for pop 5 1 roll DrawBox}for pop}{DrawBox}ifelse}bd
/rectpath{dup type/arraytype eq{dup length 0 exch 4 exch 4 sub{0 1 3{3 copy add get 4 1 roll pop}for pop 5 1 roll DrawBcc}for pop}{DrawBcc}ifelse}bd
/pathproc{[{/m cvx}{/l cvx}{/c cvx}{/cp cvx}pathforall]cvx}bd
/L1img/image ld/L1idx[{0}
 {dup 7 and 3 1 roll -3 bitshift get exch 7 sub 1 mul bitshift  1 and}bind 1 index dup
 {dup 1 and 3 1 roll -1 bitshift get exch 1 sub 4 mul bitshift 15 and}bind 1 index dup dup
 {get}bind]def
/image{dup type/dicttype eq {dup/ImgCS get 0 get/Indexed eq}{false}ifelse
 {begin Width Height 8 ImageMatrix {rgb_string rgb_lookup
 cd/DataSource get dup type/filetype eq
 {mystring readstring pop}{exec}ifelse
 dup length 0 ne
 {L1idx BitsPerComponent get 0 1 Width 1 sub
 {3 copy exch exec exch 3 mul exch
 3 mul dup 5 index exch get exch 1 add dup 6 index exch get exch 1 add 6 index exch get
 7 index exch 4 index 2 add exch put 6 index exch 3 index 1 add exch put 5 index exch 2 index exch put pop
 }for pop pop pop }{pop pop pop ()}ifelse }false 3 colorimage end} {dup type/dicttype eq
 {{dup mark exch L1img pop pop}stopped{cleartomark begin Width Height BitsPerComponent ImageMatrix
 {cd/DataSource get dup type/filetype eq {mystring readstring pop}{exec}ifelse
 }false 3 colorimage end} if}{L1img}ifelse}ifelse
 }bd
/L1imgmask/imagemask ld/imagemask{dup type/dicttype eq
 {{dup mark exch L1imgmask pop pop}stopped {cleartomark begin Width Height polarityflag ImageMatrix
 {cd/DataSource get dup type/filetype eq {mystring readstring pop}{exec}ifelse
 }L1imgmask end}if}{L1imgmask}ifelse
 }bd
% Gradient function
/GradientStep 1 150 div def
/GradientStartRGB { /R1 exch def /G1 exch def /B1 exch def } def
/GradientEndRGB { /R2 exch def /G2 exch def /B2 exch def
/GradientSteps GradientLength GradientStep div def
/GradientRStep R2 R1 sub GradientSteps div def
/GradientGStep G2 G1 sub GradientSteps div def
/GradientBStep B2 B1 sub GradientSteps div def
} def
/GradientStepRGB { /R1 R1 GradientRStep add def
/G1 G1 GradientGStep add def
/B1 B1 GradientBStep add def
R1 G1 B1 setrgbcolor
} def
%%EndResource
/rectclip{np rectpath clip np}wd
/rectfill{gs np rectpath fi gr}wd
/rectstroke{gs np dup type/arraytype eq{dup length 6 eq}{false}ifelse{1 index type/arraytype eq{exch}{5 1 roll}ifelse rectline concat st}{rectline st}ifelse gr}wd
%%BeginResource: procset OriginLab::Image
/OriginLab::Image 32 dict dup begin
/BinProc{[currentfile mystring /readstring cvx /pop cvx] cvx bind}bd
/HexProc{[currentfile mystring /readhexstring cvx /pop cvx] cvx bind}bd
/Ascii85Proc{currentfile /ASCII85Decode filter}bd
/LZWA85{currentfile /ASCII85Decode filter /LZWDecode filter}bd
/ImgProcArray[/BinProc /HexProc /Ascii85Proc /LZWA85]def
/ImgDict{/ImgDict 16 dict def ImgDict dup begin /ImageType 1 def /MultipleDataSource false def end}bd
/L2Dec{{[1 0]}{[0 1]}ifelse}bd
/BegImg{ /Img_sv save def
 /ImgDir ed ImgProcArray exch get /ImgProc exch ld
 dup /polarityflag ed L2Dec /polarity ed /smoothflag ed
 tr /dx 2 index def /dy 1 index abs def sc
 string /mystring ed /bpc ed /ih ed /iw ed
 }bd
/EndImg {Img_sv restore}bd
/DoXImg{ /rgb_lookup ed /hival ed ImgDict dup begin
 [/Indexed /DeviceRGB hival rgb_lookup] /L1img where{pop/ImgCS ed}{setcolorspace}ifelse
 /rgb_string iw 3 mul string def
 /Width iw def
 /Height ih def
 /Decode [0 1 bpc{2 mul}repeat 1 sub] def
 /ImageMatrix
  ImgDir 0 eq{[iw 0 0 ih 0 0]}if
  ImgDir 1 eq{[iw neg 0 0 ih iw 0]}if
  ImgDir 2 eq{[iw 0 0 ih neg 0 ih]}if
  ImgDir 3 eq{[iw neg 0 0 ih neg iw ih]}if
  def
 /DataSource ImgProc def
 /BitsPerComponent bpc def
 /Interpolate smoothflag def
 end image}bd
/DoImg{ ImgDict dup begin
 [/DeviceRGB] /L1img where{pop/ImgCS ed}{setcolorspace}ifelse
 /rgb_string iw 3 mul string def
 /Width iw def
 /Height ih def
 /Decode [0 1 0 1 0 1] def
 /ImageMatrix
  ImgDir 0 eq{[iw 0 0 ih 0 0]}if
  ImgDir 1 eq{[iw neg 0 0 ih iw 0]}if
  ImgDir 2 eq{[iw 0 0 ih neg 0 ih]}if
  ImgDir 3 eq{[iw neg 0 0 ih neg iw ih]}if
  def
 /DataSource ImgProc def
 /BitsPerComponent 8 def
 /Interpolate smoothflag def
 end image}bd
end def
%%EndResource
%%BeginFont: /MC1_Arial
12 dict begin
/FontInfo 8 dict dup begin
/ItalicAngle 0 def
/UnderlinePosition -217.00 def
/UnderlineThickness 150.00 def
/StrikeoutPosition 530.00 def
/StrikeoutThickness 102.00 def
/isFixedPitch false def
end readonly def
/FontName /MC1_Arial def
/FontType 3 def
/FontMatrix [1 2048 div 0 0 1 2048 div 0 0] def
/FontBBox [-1361 -665 4096 2060] def
/Encoding 256 array def 0 1 255{Encoding exch/.notdef put}for
Encoding 32/s32 put
Encoding 48/s48 put
Encoding 50/s50 put
Encoding 52/s52 put
Encoding 53/s53 put
Encoding 54/s54 put
Encoding 55/s55 put
/BoundingBoxes 8 dict def
BoundingBoxes begin
/s32 [0 -434 569 1854] def
/s48 [0 -434 1139 1854] def
/s50 [0 -434 1139 1854] def
/s52 [0 -434 1139 1854] def
/s53 [0 -434 1139 1854] def
/s54 [0 -434 1139 1854] def
/s55 [0 -434 1139 1854] def
end
/Metrics 8 dict def
 Metrics begin
/s32 569 def
/s48 1139 def
/s50 1139 def
/s52 1139 def
/s53 1139 def
/s54 1139 def
/s55 1139 def
end
/CharProcs 8 dict def
CharProcs begin
/.notdef {} def
/s48 {
85 723 m
85 896.33 102.83 1035.83 138.5 1141.5 c
174.17 1247.17 227.17 1328.67 297.5 1386 c
367.83 1443.33 456.33 1472 563 1472 c
641.67 1472 710.67 1456.17 770 1424.5 c
829.33 1392.83 878.33 1347.17 917 1287.5 c
955.67 1227.83 986 1155.17 1008 1069.5 c
1030 983.83 1041 868.33 1041 723 c
1041 551 1023.33 412.17 988 306.5 c
952.67 200.83 899.83 119.17 829.5 61.5 c
759.17 3.83 670.33 -25 563 -25 c
421.67 -25 310.67 25.67 230 127 c
133.33 249 85 447.67 85 723 c
closepath 270 723 m
270 482.33 298.17 322.17 354.5 242.5 c
410.83 162.83 480.33 123 563 123 c
645.67 123 715.17 163 771.5 243 c
827.83 323 856 483 856 723 c
856 964.33 827.83 1124.67 771.5 1204 c
715.17 1283.33 645 1323 561 1323 c
478.33 1323 412.33 1288 363 1218 c
301 1128.67 270 963.67 270 723 c
closepath } bind def
/s50 {
1031 173 m
1031 0 1031 173 1031 0 c
62 0 1031 0 62 0 c
60.67 43.33 67.67 85 83 125 c
107.67 191 147.17 256 201.5 320 c
255.83 384 334.33 458 437 542 c
596.33 672.67 704 776.17 760 852.5 c
816 928.83 844 1001 844 1069 c
844 1140.33 818.5 1200.5 767.5 1249.5 c
716.5 1298.5 650 1323 568 1323 c
481.33 1323 412 1297 360 1245 c
308 1193 281.67 1121 281 1029 c
96 1048 281 1029 96 1048 c
108.67 1186 156.33 1291.17 239 1363.5 c
321.67 1435.83 432.67 1472 572 1472 c
712.67 1472 824 1433 906 1355 c
988 1277 1029 1180.33 1029 1065 c
1029 1006.33 1017 948.67 993 892 c
969 835.33 929.17 775.67 873.5 713 c
817.83 650.33 725.33 564.33 596 455 c
488 364.33 418.67 302.83 388 270.5 c
357.33 238.17 332 205.67 312 173 c
1031 173 312 173 1031 173 c
closepath } bind def
/s52 {
662 0 m
662 351 662 0 662 351 c
26 351 662 351 26 351 c
26 516 26 351 26 516 c
695 1466 26 516 695 1466 c
842 1466 695 1466 842 1466 c
842 516 842 1466 842 516 c
1040 516 842 516 1040 516 c
1040 351 1040 516 1040 351 c
842 351 1040 351 842 351 c
842 0 842 351 842 0 c
662 0 842 0 662 0 c
closepath 662 516 m
662 1177 662 516 662 1177 c
203 516 662 1177 203 516 c
662 516 203 516 662 516 c
closepath } bind def
/s53 {
85 384 m
274 400 85 384 274 400 c
288 308 320.5 238.83 371.5 192.5 c
422.5 146.17 484 123 556 123 c
642.67 123 716 155.67 776 221 c
836 286.33 866 373 866 481 c
866 583.67 837.17 664.67 779.5 724 c
721.83 783.33 646.33 813 553 813 c
495 813 442.67 799.83 396 773.5 c
349.33 747.17 312.67 713 286 671 c
117 693 286 671 117 693 c
259 1446 117 693 259 1446 c
988 1446 259 1446 988 1446 c
988 1274 988 1446 988 1274 c
403 1274 988 1274 403 1274 c
324 880 403 1274 324 880 c
412 941.33 504.33 972 601 972 c
729 972 837 927.67 925 839 c
1013 750.33 1057 636.33 1057 497 c
1057 364.33 1018.33 249.67 941 153 c
847 34.33 718.67 -25 556 -25 c
422.67 -25 313.83 12.33 229.5 87 c
145.17 161.67 97 260.67 85 384 c
closepath } bind def
/s54 {
1019 1107 m
840 1093 1019 1107 840 1093 c
824 1163.67 801.33 1215 772 1247 c
723.33 1298.33 663.33 1324 592 1324 c
534.67 1324 484.33 1308 441 1276 c
384.33 1234.67 339.67 1174.33 307 1095 c
274.33 1015.67 257.33 902.67 256 756 c
299.33 822 352.33 871 415 903 c
477.67 935 543.33 951 612 951 c
732 951 834.17 906.83 918.5 818.5 c
1002.83 730.17 1045 616 1045 476 c
1045 384 1025.17 298.5 985.5 219.5 c
945.83 140.5 891.33 80 822 38 c
752.67 -4 674 -25 586 -25 c
436 -25 313.67 30.17 219 140.5 c
124.33 250.83 77 432.67 77 686 c
77 969.33 129.33 1175.33 234 1304 c
325.33 1416 448.33 1472 603 1472 c
718.33 1472 812.83 1439.67 886.5 1375 c
960.17 1310.33 1004.33 1221 1019 1107 c
closepath 284 475 m
284 413 297.17 353.67 323.5 297 c
349.83 240.33 386.67 197.17 434 167.5 c
481.33 137.83 531 123 583 123 c
659 123 724.33 153.67 779 215 c
833.67 276.33 861 359.67 861 465 c
861 566.33 834 646.17 780 704.5 c
726 762.83 658 792 576 792 c
494.67 792 425.67 762.83 369 704.5 c
312.33 646.17 284 569.67 284 475 c
closepath } bind def
/s55 {
97 1274 m
97 1447 97 1274 97 1447 c
1046 1447 97 1447 1046 1447 c
1046 1307 1046 1447 1046 1307 c
952.67 1207.67 860.17 1075.67 768.5 911 c
676.83 746.33 606 577 556 403 c
520 280.33 497 146 487 0 c
302 0 487 0 302 0 c
304 115.33 326.67 254.67 370 418 c
413.33 581.33 475.5 738.83 556.5 890.5 c
637.5 1042.17 723.67 1170 815 1274 c
97 1274 815 1274 97 1274 c
closepath } bind def
end
/BuildGlyph {
 exch dup /Metrics get 2 index get 0 setcharwidth
/CharProcs get exch 2 copy known not{pop/.notdef}if get exec fill}bind def
/BuildChar {
1 index /Encoding get exch get
1 index /BuildGlyph get exec
} bind def
currentdict end /MC1_Arial exch definefont pop
%%EndFont
%%BeginFont: /MC2_Arial
12 dict begin
/FontInfo 8 dict dup begin
/ItalicAngle 0 def
/UnderlinePosition -217.00 def
/UnderlineThickness 150.00 def
/StrikeoutPosition 530.00 def
/StrikeoutThickness 102.00 def
/isFixedPitch false def
end readonly def
/FontName /MC2_Arial def
/FontType 3 def
/FontMatrix [1 2048 div 0 0 1 2048 div 0 0] def
/FontBBox [-1361 -665 4096 2060] def
/Encoding 256 array def 0 1 255{Encoding exch/.notdef put}for
Encoding 32/s32 put
Encoding 40/s40 put
Encoding 41/s41 put
Encoding 47/s47 put
Encoding 99/s99 put
Encoding 101/s101 put
Encoding 105/s105 put
Encoding 108/s108 put
Encoding 109/s109 put
Encoding 111/s111 put
Encoding 115/s115 put
Encoding 116/s116 put
Encoding 118/s118 put
Encoding 121/s121 put
/BoundingBoxes 15 dict def
BoundingBoxes begin
/s32 [0 -434 569 1854] def
/s40 [0 -434 682 1854] def
/s41 [0 -434 682 1854] def
/s47 [0 -434 569 1854] def
/s99 [0 -434 1024 1854] def
/s101 [0 -434 1139 1854] def
/s105 [0 -434 455 1854] def
/s108 [0 -434 455 1854] def
/s109 [0 -434 1706 1854] def
/s111 [0 -434 1139 1854] def
/s115 [0 -434 1024 1854] def
/s116 [0 -434 569 1854] def
/s118 [0 -434 1024 1854] def
/s121 [0 -434 1024 1854] def
end
/Metrics 15 dict def
 Metrics begin
/s32 569 def
/s40 682 def
/s41 682 def
/s47 569 def
/s99 1024 def
/s101 1139 def
/s105 455 def
/s108 455 def
/s109 1706 def
/s111 1139 def
/s115 1024 def
/s116 569 def
/s118 1024 def
/s121 1024 def
end
/CharProcs 15 dict def
CharProcs begin
/.notdef {} def
/s40 {
479 -431 m
379.67 -305.67 295.67 -159 227 9 c
158.33 177 124 351 124 531 c
124 689.67 149.67 841.67 201 987 c
261 1155.67 353.67 1323.67 479 1491 c
608 1491 479 1491 608 1491 c
527.33 1352.33 474 1253.33 448 1194 c
407.33 1102 375.33 1006 352 906 c
323.33 781.33 309 656 309 530 c
309 209.33 408.67 -111 608 -431 c
479 -431 608 -431 479 -431 c
closepath } bind def
/s41 {
253 -431 m
124 -431 253 -431 124 -431 c
323.33 -111 423 209.33 423 530 c
423 655.33 408.67 779.67 380 903 c
357.33 1003 325.67 1099 285 1191 c
259 1251 205.33 1351 124 1491 c
253 1491 124 1491 253 1491 c
378.33 1323.67 471 1155.67 531 987 c
582.33 841.67 608 689.67 608 531 c
608 351 573.5 177 504.5 9 c
435.5 -159 351.67 -305.67 253 -431 c
closepath } bind def
/s47 {
0 -25 m
425 1491 0 -25 425 1491 c
569 1491 425 1491 569 1491 c
145 -25 569 1491 145 -25 c
0 -25 145 -25 0 -25 c
closepath } bind def
/s99 {
828 389 m
1005 366 828 389 1005 366 c
985.67 244 936.17 148.5 856.5 79.5 c
776.83 10.5 679 -24 563 -24 c
417.67 -24 300.83 23.5 212.5 118.5 c
124.17 213.5 80 349.67 80 527 c
80 641.67 99 742 137 828 c
175 914 232.83 978.5 310.5 1021.5 c
388.17 1064.5 472.67 1086 564 1086 c
679.33 1086 773.67 1056.83 847 998.5 c
920.33 940.17 967.33 857.33 988 750 c
813 723 988 750 813 723 c
796.33 794.33 766.83 848 724.5 884 c
682.17 920 631 938 571 938 c
480.33 938 406.67 905.5 350 840.5 c
293.33 775.5 265 672.67 265 532 c
265 389.33 292.33 285.67 347 221 c
401.67 156.33 473 124 561 124 c
631.67 124 690.67 145.67 738 189 c
785.33 232.33 815.33 299 828 389 c
closepath } bind def
/s101 {
862 342 m
1048 319 862 342 1048 319 c
1018.67 210.33 964.33 126 885 66 c
805.67 6 704.33 -24 581 -24 c
425.67 -24 302.5 23.83 211.5 119.5 c
120.5 215.17 75 349.33 75 522 c
75 700.67 121 839.33 213 938 c
305 1036.67 424.33 1086 571 1086 c
713 1086 829 1037.67 919 941 c
1009 844.33 1054 708.33 1054 533 c
1054 522.33 1053.67 506.33 1053 485 c
261 485 1053 485 261 485 c
267.67 368.33 300.67 279 360 217 c
419.33 155 493.33 124 582 124 c
648 124 704.33 141.33 751 176 c
797.67 210.67 834.67 266 862 342 c
closepath 271 633 m
864 633 271 633 864 633 c
856 722.33 833.33 789.33 796 834 c
738.67 903.33 664.33 938 573 938 c
490.33 938 420.83 910.33 364.5 855 c
308.17 799.67 277 725.67 271 633 c
closepath } bind def
/s105 {
136 1259 m
136 1466 136 1259 136 1466 c
316 1466 136 1466 316 1466 c
316 1259 316 1466 316 1259 c
136 1259 316 1259 136 1259 c
closepath 136 0 m
136 1062 136 0 136 1062 c
316 1062 136 1062 316 1062 c
316 0 316 1062 316 0 c
136 0 316 0 136 0 c
closepath } bind def
/s108 {
131 0 m
131 1466 131 0 131 1466 c
311 1466 131 1466 311 1466 c
311 0 311 1466 311 0 c
131 0 311 0 131 0 c
closepath } bind def
/s109 {
135 0 m
135 1062 135 0 135 1062 c
296 1062 135 1062 296 1062 c
296 913 296 1062 296 913 c
329.33 965 373.67 1006.83 429 1038.5 c
484.33 1070.17 547.33 1086 618 1086 c
696.67 1086 761.17 1069.67 811.5 1037 c
861.83 1004.33 897.33 958.67 918 900 c
1002 1024 1111.33 1086 1246 1086 c
1351.33 1086 1432.33 1056.83 1489 998.5 c
1545.67 940.17 1574 850.33 1574 729 c
1574 0 1574 729 1574 0 c
1395 0 1574 0 1395 0 c
1395 669 1395 0 1395 669 c
1395 741 1389.17 792.83 1377.5 824.5 c
1365.83 856.17 1344.67 881.67 1314 901 c
1283.33 920.33 1247.33 930 1206 930 c
1131.33 930 1069.33 905.17 1020 855.5 c
970.67 805.83 946 726.33 946 617 c
946 0 946 617 946 0 c
766 0 946 0 766 0 c
766 690 766 0 766 690 c
766 770 751.33 830 722 870 c
692.67 910 644.67 930 578 930 c
527.33 930 480.5 916.67 437.5 890 c
394.5 863.33 363.33 824.33 344 773 c
324.67 721.67 315 647.67 315 551 c
315 0 315 551 315 0 c
135 0 315 0 135 0 c
closepath } bind def
/s111 {
68 531 m
68 727.67 122.67 873.33 232 968 c
323.33 1046.67 434.67 1086 566 1086 c
712 1086 831.33 1038.17 924 942.5 c
1016.67 846.83 1063 714.67 1063 546 c
1063 409.33 1042.5 301.83 1001.5 223.5 c
960.5 145.17 900.83 84.33 822.5 41 c
744.17 -2.33 658.67 -24 566 -24 c
417.33 -24 297.17 23.67 205.5 119 c
113.83 214.33 68 351.67 68 531 c
closepath 253 531 m
253 395 282.67 293.17 342 225.5 c
401.33 157.83 476 124 566 124 c
655.33 124 729.67 158 789 226 c
848.33 294 878 397.67 878 537 c
878 668.33 848.17 767.83 788.5 835.5 c
728.83 903.17 654.67 937 566 937 c
476 937 401.33 903.33 342 836 c
282.67 768.67 253 667 253 531 c
closepath } bind def
/s115 {
63 317 m
241 345 63 317 241 345 c
251 273.67 278.83 219 324.5 181 c
370.17 143 434 124 516 124 c
598.67 124 660 140.83 700 174.5 c
740 208.17 760 247.67 760 293 c
760 333.67 742.33 365.67 707 389 c
682.33 405 621 425.33 523 450 c
391 483.33 299.5 512.17 248.5 536.5 c
197.5 560.83 158.83 594.5 132.5 637.5 c
106.17 680.5 93 728 93 780 c
93 827.33 103.83 871.17 125.5 911.5 c
147.17 951.83 176.67 985.33 214 1012 c
242 1032.67 280.17 1050.17 328.5 1064.5 c
376.83 1078.83 428.67 1086 484 1086 c
567.33 1086 640.5 1074 703.5 1050 c
766.5 1026 813 993.5 843 952.5 c
873 911.5 893.67 856.67 905 788 c
729 764 905 788 729 764 c
721 818.67 697.83 861.33 659.5 892 c
621.17 922.67 567 938 497 938 c
414.33 938 355.33 924.33 320 897 c
284.67 869.67 267 837.67 267 801 c
267 777.67 274.33 756.67 289 738 c
303.67 718.67 326.67 702.67 358 690 c
376 683.33 429 668 517 644 c
644.33 610 733.17 582.17 783.5 560.5 c
833.83 538.83 873.33 507.33 902 466 c
930.67 424.67 945 373.33 945 312 c
945 252 927.5 195.5 892.5 142.5 c
857.5 89.5 807 48.5 741 19.5 c
675 -9.5 600.33 -24 517 -24 c
379 -24 273.83 4.67 201.5 62 c
129.17 119.33 83 204.33 63 317 c
closepath } bind def
/s116 {
528 161 m
554 2 528 161 554 2 c
503.33 -8.67 458 -14 418 -14 c
352.67 -14 302 -3.67 266 17 c
230 37.67 204.67 64.83 190 98.5 c
175.33 132.17 168 203 168 311 c
168 922 168 311 168 922 c
36 922 168 922 36 922 c
36 1062 36 922 36 1062 c
168 1062 36 1062 168 1062 c
168 1325 168 1062 168 1325 c
347 1433 168 1325 347 1433 c
347 1062 347 1433 347 1062 c
528 1062 347 1062 528 1062 c
528 922 528 1062 528 922 c
347 922 528 922 347 922 c
347 301 347 922 347 301 c
347 249.67 350.17 216.67 356.5 202 c
362.83 187.33 373.17 175.67 387.5 167 c
401.83 158.33 422.33 154 449 154 c
469 154 495.33 156.33 528 161 c
closepath } bind def
/s118 {
430 0 m
26 1062 430 0 26 1062 c
216 1062 26 1062 216 1062 c
444 426 216 1062 444 426 c
468.67 357.33 491.33 286 512 212 c
528 268 550.33 335.33 579 414 c
815 1062 579 414 815 1062 c
1000 1062 815 1062 1000 1062 c
598 0 1000 1062 598 0 c
430 0 598 0 430 0 c
closepath } bind def
/s121 {
127 -409 m
107 -240 127 -409 107 -240 c
146.33 -250.67 180.67 -256 210 -256 c
250 -256 282 -249.33 306 -236 c
330 -222.67 349.67 -204 365 -180 c
376.33 -162 394.67 -117.33 420 -46 c
423.33 -36 428.67 -21.33 436 -2 c
33 1062 436 -2 33 1062 c
227 1062 33 1062 227 1062 c
448 447 227 1062 448 447 c
476.67 369 502.33 287 525 201 c
545.67 283.67 570.33 364.33 599 443 c
826 1062 599 443 826 1062 c
1006 1062 826 1062 1006 1062 c
602 -18 1006 1062 602 -18 c
558.67 -134.67 525 -215 501 -259 c
469 -318.33 432.33 -361.83 391 -389.5 c
349.67 -417.17 300.33 -431 243 -431 c
208.33 -431 169.67 -423.67 127 -409 c
closepath } bind def
end
/BuildGlyph {
 exch dup /Metrics get 2 index get 0 setcharwidth
/CharProcs get exch 2 copy known not{pop/.notdef}if get exec fill}bind def
/BuildChar {
1 index /Encoding get exch get
1 index /BuildGlyph get exec
} bind def
currentdict end /MC2_Arial exch definefont pop
%%EndFont
%%BeginFont: /MC3_Arial
12 dict begin
/FontInfo 8 dict dup begin
/ItalicAngle 0 def
/UnderlinePosition -217.00 def
/UnderlineThickness 150.00 def
/StrikeoutPosition 530.00 def
/StrikeoutThickness 102.00 def
/isFixedPitch false def
end readonly def
/FontName /MC3_Arial def
/FontType 3 def
/FontMatrix [1 2048 div 0 0 1 2048 div 0 0] def
/FontBBox [-1361 -665 4096 2060] def
/Encoding 256 array def 0 1 255{Encoding exch/.notdef put}for
Encoding 32/s32 put
Encoding 40/s40 put
Encoding 41/s41 put
Encoding 47/s47 put
Encoding 50/s50 put
Encoding 87/s87 put
Encoding 97/s97 put
Encoding 101/s101 put
Encoding 104/s104 put
Encoding 109/s109 put
Encoding 110/s110 put
Encoding 111/s111 put
Encoding 112/s112 put
Encoding 114/s114 put
Encoding 115/s115 put
Encoding 116/s116 put
Encoding 118/s118 put
Encoding 119/s119 put
Encoding 120/s120 put
Encoding 121/s121 put
/BoundingBoxes 21 dict def
BoundingBoxes begin
/s32 [0 -434 569 1854] def
/s40 [0 -434 682 1854] def
/s41 [0 -434 682 1854] def
/s47 [0 -434 569 1854] def
/s50 [0 -434 1139 1854] def
/s87 [0 -434 1933 1854] def
/s97 [0 -434 1139 1854] def
/s101 [0 -434 1139 1854] def
/s104 [0 -434 1139 1854] def
/s109 [0 -434 1706 1854] def
/s110 [0 -434 1139 1854] def
/s111 [0 -434 1139 1854] def
/s112 [0 -434 1139 1854] def
/s114 [0 -434 682 1854] def
/s115 [0 -434 1024 1854] def
/s116 [0 -434 569 1854] def
/s118 [0 -434 1024 1854] def
/s119 [0 -434 1479 1854] def
/s120 [0 -434 1024 1854] def
/s121 [0 -434 1024 1854] def
end
/Metrics 21 dict def
 Metrics begin
/s32 569 def
/s40 682 def
/s41 682 def
/s47 569 def
/s50 1139 def
/s87 1933 def
/s97 1139 def
/s101 1139 def
/s104 1139 def
/s109 1706 def
/s110 1139 def
/s111 1139 def
/s112 1139 def
/s114 682 def
/s115 1024 def
/s116 569 def
/s118 1024 def
/s119 1479 def
/s120 1024 def
/s121 1024 def
end
/CharProcs 21 dict def
CharProcs begin
/.notdef {} def
/s40 {
479 -431 m
379.67 -305.67 295.67 -159 227 9 c
158.33 177 124 351 124 531 c
124 689.67 149.67 841.67 201 987 c
261 1155.67 353.67 1323.67 479 1491 c
608 1491 479 1491 608 1491 c
527.33 1352.33 474 1253.33 448 1194 c
407.33 1102 375.33 1006 352 906 c
323.33 781.33 309 656 309 530 c
309 209.33 408.67 -111 608 -431 c
479 -431 608 -431 479 -431 c
closepath } bind def
/s41 {
253 -431 m
124 -431 253 -431 124 -431 c
323.33 -111 423 209.33 423 530 c
423 655.33 408.67 779.67 380 903 c
357.33 1003 325.67 1099 285 1191 c
259 1251 205.33 1351 124 1491 c
253 1491 124 1491 253 1491 c
378.33 1323.67 471 1155.67 531 987 c
582.33 841.67 608 689.67 608 531 c
608 351 573.5 177 504.5 9 c
435.5 -159 351.67 -305.67 253 -431 c
closepath } bind def
/s47 {
0 -25 m
425 1491 0 -25 425 1491 c
569 1491 425 1491 569 1491 c
145 -25 569 1491 145 -25 c
0 -25 145 -25 0 -25 c
closepath } bind def
/s50 {
1031 173 m
1031 0 1031 173 1031 0 c
62 0 1031 0 62 0 c
60.67 43.33 67.67 85 83 125 c
107.67 191 147.17 256 201.5 320 c
255.83 384 334.33 458 437 542 c
596.33 672.67 704 776.17 760 852.5 c
816 928.83 844 1001 844 1069 c
844 1140.33 818.5 1200.5 767.5 1249.5 c
716.5 1298.5 650 1323 568 1323 c
481.33 1323 412 1297 360 1245 c
308 1193 281.67 1121 281 1029 c
96 1048 281 1029 96 1048 c
108.67 1186 156.33 1291.17 239 1363.5 c
321.67 1435.83 432.67 1472 572 1472 c
712.67 1472 824 1433 906 1355 c
988 1277 1029 1180.33 1029 1065 c
1029 1006.33 1017 948.67 993 892 c
969 835.33 929.17 775.67 873.5 713 c
817.83 650.33 725.33 564.33 596 455 c
488 364.33 418.67 302.83 388 270.5 c
357.33 238.17 332 205.67 312 173 c
1031 173 312 173 1031 173 c
closepath } bind def
/s87 {
414 0 m
25 1466 414 0 25 1466 c
224 1466 25 1466 224 1466 c
447 505 224 1466 447 505 c
471 404.33 491.67 304.33 509 205 c
546.33 361.67 568.33 452 575 476 c
854 1466 575 476 854 1466 c
1088 1466 854 1466 1088 1466 c
1298 724 1088 1466 1298 724 c
1350.67 540 1388.67 367 1412 205 c
1430.67 297.67 1455 404 1485 524 c
1715 1466 1485 524 1715 1466 c
1910 1466 1715 1466 1910 1466 c
1508 0 1910 1466 1508 0 c
1321 0 1508 0 1321 0 c
1012 1117 1321 0 1012 1117 c
986 1210.33 970.67 1267.67 966 1289 c
950.67 1221.67 936.33 1164.33 923 1117 c
612 0 923 1117 612 0 c
414 0 612 0 414 0 c
closepath } bind def
/s97 {
828 131 m
761.33 74.33 697.17 34.33 635.5 11 c
573.83 -12.33 507.67 -24 437 -24 c
320.33 -24 230.67 4.5 168 61.5 c
105.33 118.5 74 191.33 74 280 c
74 332 85.83 379.5 109.5 422.5 c
133.17 465.5 164.17 500 202.5 526 c
240.83 552 284 571.67 332 585 c
367.33 594.33 420.67 603.33 492 612 c
637.33 629.33 744.33 650 813 674 c
813.67 698.67 814 714.33 814 721 c
814 794.33 797 846 763 876 c
717 916.67 648.67 937 558 937 c
473.33 937 410.83 922.17 370.5 892.5 c
330.17 862.83 300.33 810.33 281 735 c
105 759 281 735 105 759 c
121 834.33 147.33 895.17 184 941.5 c
220.67 987.83 273.67 1023.5 343 1048.5 c
412.33 1073.5 492.67 1086 584 1086 c
674.67 1086 748.33 1075.33 805 1054 c
861.67 1032.67 903.33 1005.83 930 973.5 c
956.67 941.17 975.33 900.33 986 851 c
992 820.33 995 765 995 685 c
995 445 995 685 995 445 c
995 277.67 998.83 171.83 1006.5 127.5 c
1014.17 83.17 1029.33 40.67 1052 0 c
864 0 1052 0 864 0 c
845.33 37.33 833.33 81 828 131 c
closepath 813 533 m
747.67 506.33 649.67 483.67 519 465 c
445 454.33 392.67 442.33 362 429 c
331.33 415.67 307.67 396.17 291 370.5 c
274.33 344.83 266 316.33 266 285 c
266 237 284.17 197 320.5 165 c
356.83 133 410 117 480 117 c
549.33 117 611 132.17 665 162.5 c
719 192.83 758.67 234.33 784 287 c
803.33 327.67 813 387.67 813 467 c
813 533 813 467 813 533 c
closepath } bind def
/s101 {
862 342 m
1048 319 862 342 1048 319 c
1018.67 210.33 964.33 126 885 66 c
805.67 6 704.33 -24 581 -24 c
425.67 -24 302.5 23.83 211.5 119.5 c
120.5 215.17 75 349.33 75 522 c
75 700.67 121 839.33 213 938 c
305 1036.67 424.33 1086 571 1086 c
713 1086 829 1037.67 919 941 c
1009 844.33 1054 708.33 1054 533 c
1054 522.33 1053.67 506.33 1053 485 c
261 485 1053 485 261 485 c
267.67 368.33 300.67 279 360 217 c
419.33 155 493.33 124 582 124 c
648 124 704.33 141.33 751 176 c
797.67 210.67 834.67 266 862 342 c
closepath 271 633 m
864 633 271 633 864 633 c
856 722.33 833.33 789.33 796 834 c
738.67 903.33 664.33 938 573 938 c
490.33 938 420.83 910.33 364.5 855 c
308.17 799.67 277 725.67 271 633 c
closepath } bind def
/s104 {
135 0 m
135 1466 135 0 135 1466 c
315 1466 135 1466 315 1466 c
315 940 315 1466 315 940 c
399 1037.33 505 1086 633 1086 c
711.67 1086 780 1070.5 838 1039.5 c
896 1008.5 937.5 965.67 962.5 911 c
987.5 856.33 1000 777 1000 673 c
1000 0 1000 673 1000 0 c
820 0 1000 0 820 0 c
820 673 820 0 820 673 c
820 763 800.5 828.5 761.5 869.5 c
722.5 910.5 667.33 931 596 931 c
542.67 931 492.5 917.17 445.5 889.5 c
398.5 861.83 365 824.33 345 777 c
325 729.67 315 664.33 315 581 c
315 0 315 581 315 0 c
135 0 315 0 135 0 c
closepath } bind def
/s109 {
135 0 m
135 1062 135 0 135 1062 c
296 1062 135 1062 296 1062 c
296 913 296 1062 296 913 c
329.33 965 373.67 1006.83 429 1038.5 c
484.33 1070.17 547.33 1086 618 1086 c
696.67 1086 761.17 1069.67 811.5 1037 c
861.83 1004.33 897.33 958.67 918 900 c
1002 1024 1111.33 1086 1246 1086 c
1351.33 1086 1432.33 1056.83 1489 998.5 c
1545.67 940.17 1574 850.33 1574 729 c
1574 0 1574 729 1574 0 c
1395 0 1574 0 1395 0 c
1395 669 1395 0 1395 669 c
1395 741 1389.17 792.83 1377.5 824.5 c
1365.83 856.17 1344.67 881.67 1314 901 c
1283.33 920.33 1247.33 930 1206 930 c
1131.33 930 1069.33 905.17 1020 855.5 c
970.67 805.83 946 726.33 946 617 c
946 0 946 617 946 0 c
766 0 946 0 766 0 c
766 690 766 0 766 690 c
766 770 751.33 830 722 870 c
692.67 910 644.67 930 578 930 c
527.33 930 480.5 916.67 437.5 890 c
394.5 863.33 363.33 824.33 344 773 c
324.67 721.67 315 647.67 315 551 c
315 0 315 551 315 0 c
135 0 315 0 135 0 c
closepath } bind def
/s110 {
135 0 m
135 1062 135 0 135 1062 c
297 1062 135 1062 297 1062 c
297 911 297 1062 297 911 c
375 1027.67 487.67 1086 635 1086 c
699 1086 757.83 1074.5 811.5 1051.5 c
865.17 1028.5 905.33 998.33 932 961 c
958.67 923.67 977.33 879.33 988 828 c
994.67 794.67 998 736.33 998 653 c
998 0 998 653 998 0 c
818 0 998 0 818 0 c
818 646 818 0 818 646 c
818 719.33 811 774.17 797 810.5 c
783 846.83 758.17 875.83 722.5 897.5 c
686.83 919.17 645 930 597 930 c
520.33 930 454.17 905.67 398.5 857 c
342.83 808.33 315 716 315 580 c
315 0 315 580 315 0 c
135 0 315 0 135 0 c
closepath } bind def
/s111 {
68 531 m
68 727.67 122.67 873.33 232 968 c
323.33 1046.67 434.67 1086 566 1086 c
712 1086 831.33 1038.17 924 942.5 c
1016.67 846.83 1063 714.67 1063 546 c
1063 409.33 1042.5 301.83 1001.5 223.5 c
960.5 145.17 900.83 84.33 822.5 41 c
744.17 -2.33 658.67 -24 566 -24 c
417.33 -24 297.17 23.67 205.5 119 c
113.83 214.33 68 351.67 68 531 c
closepath 253 531 m
253 395 282.67 293.17 342 225.5 c
401.33 157.83 476 124 566 124 c
655.33 124 729.67 158 789 226 c
848.33 294 878 397.67 878 537 c
878 668.33 848.17 767.83 788.5 835.5 c
728.83 903.17 654.67 937 566 937 c
476 937 401.33 903.33 342 836 c
282.67 768.67 253 667 253 531 c
closepath } bind def
/s112 {
135 -407 m
135 1062 135 -407 135 1062 c
299 1062 135 1062 299 1062 c
299 924 299 1062 299 924 c
337.67 978 381.33 1018.5 430 1045.5 c
478.67 1072.5 537.67 1086 607 1086 c
697.67 1086 777.67 1062.67 847 1016 c
916.33 969.33 968.67 903.5 1004 818.5 c
1039.33 733.5 1057 640.33 1057 539 c
1057 430.33 1037.5 332.5 998.5 245.5 c
959.5 158.5 902.83 91.83 828.5 45.5 c
754.17 -0.83 676 -24 594 -24 c
534 -24 480.17 -11.33 432.5 14 c
384.83 39.33 345.67 71.33 315 110 c
315 -407 315 110 315 -407 c
135 -407 315 -407 135 -407 c
closepath 298 525 m
298 388.33 325.67 287.33 381 222 c
436.33 156.67 503.33 124 582 124 c
662 124 730.5 157.83 787.5 225.5 c
844.5 293.17 873 398 873 540 c
873 675.33 845.17 776.67 789.5 844 c
733.83 911.33 667.33 945 590 945 c
513.33 945 445.5 909.17 386.5 837.5 c
327.5 765.83 298 661.67 298 525 c
closepath } bind def
/s114 {
133 0 m
133 1062 133 0 133 1062 c
295 1062 133 1062 295 1062 c
295 901 295 1062 295 901 c
336.33 976.33 374.5 1026 409.5 1050 c
444.5 1074 483 1086 525 1086 c
585.67 1086 647.33 1066.67 710 1028 c
648 861 710 1028 648 861 c
604 887 560 900 516 900 c
476.67 900 441.33 888.17 410 864.5 c
378.67 840.83 356.33 808 343 766 c
323 702 313 632 313 556 c
313 0 313 556 313 0 c
133 0 313 0 133 0 c
closepath } bind def
/s115 {
63 317 m
241 345 63 317 241 345 c
251 273.67 278.83 219 324.5 181 c
370.17 143 434 124 516 124 c
598.67 124 660 140.83 700 174.5 c
740 208.17 760 247.67 760 293 c
760 333.67 742.33 365.67 707 389 c
682.33 405 621 425.33 523 450 c
391 483.33 299.5 512.17 248.5 536.5 c
197.5 560.83 158.83 594.5 132.5 637.5 c
106.17 680.5 93 728 93 780 c
93 827.33 103.83 871.17 125.5 911.5 c
147.17 951.83 176.67 985.33 214 1012 c
242 1032.67 280.17 1050.17 328.5 1064.5 c
376.83 1078.83 428.67 1086 484 1086 c
567.33 1086 640.5 1074 703.5 1050 c
766.5 1026 813 993.5 843 952.5 c
873 911.5 893.67 856.67 905 788 c
729 764 905 788 729 764 c
721 818.67 697.83 861.33 659.5 892 c
621.17 922.67 567 938 497 938 c
414.33 938 355.33 924.33 320 897 c
284.67 869.67 267 837.67 267 801 c
267 777.67 274.33 756.67 289 738 c
303.67 718.67 326.67 702.67 358 690 c
376 683.33 429 668 517 644 c
644.33 610 733.17 582.17 783.5 560.5 c
833.83 538.83 873.33 507.33 902 466 c
930.67 424.67 945 373.33 945 312 c
945 252 927.5 195.5 892.5 142.5 c
857.5 89.5 807 48.5 741 19.5 c
675 -9.5 600.33 -24 517 -24 c
379 -24 273.83 4.67 201.5 62 c
129.17 119.33 83 204.33 63 317 c
closepath } bind def
/s116 {
528 161 m
554 2 528 161 554 2 c
503.33 -8.67 458 -14 418 -14 c
352.67 -14 302 -3.67 266 17 c
230 37.67 204.67 64.83 190 98.5 c
175.33 132.17 168 203 168 311 c
168 922 168 311 168 922 c
36 922 168 922 36 922 c
36 1062 36 922 36 1062 c
168 1062 36 1062 168 1062 c
168 1325 168 1062 168 1325 c
347 1433 168 1325 347 1433 c
347 1062 347 1433 347 1062 c
528 1062 347 1062 528 1062 c
528 922 528 1062 528 922 c
347 922 528 922 347 922 c
347 301 347 922 347 301 c
347 249.67 350.17 216.67 356.5 202 c
362.83 187.33 373.17 175.67 387.5 167 c
401.83 158.33 422.33 154 449 154 c
469 154 495.33 156.33 528 161 c
closepath } bind def
/s118 {
430 0 m
26 1062 430 0 26 1062 c
216 1062 26 1062 216 1062 c
444 426 216 1062 444 426 c
468.67 357.33 491.33 286 512 212 c
528 268 550.33 335.33 579 414 c
815 1062 579 414 815 1062 c
1000 1062 815 1062 1000 1062 c
598 0 1000 1062 598 0 c
430 0 598 0 430 0 c
closepath } bind def
/s119 {
331 0 m
6 1062 331 0 6 1062 c
192 1062 6 1062 192 1062 c
361 449 192 1062 361 449 c
424 221 361 449 424 221 c
426.67 232.33 445 305.33 479 440 c
648 1062 479 440 648 1062 c
833 1062 648 1062 833 1062 c
992 446 833 1062 992 446 c
1045 243 992 446 1045 243 c
1106 448 1045 243 1106 448 c
1288 1062 1106 448 1288 1062 c
1463 1062 1288 1062 1463 1062 c
1131 0 1463 1062 1131 0 c
944 0 1131 0 944 0 c
775 636 944 0 775 636 c
734 817 775 636 734 817 c
519 0 734 817 519 0 c
331 0 519 0 331 0 c
closepath } bind def
/s120 {
15 0 m
403 552 15 0 403 552 c
44 1062 403 552 44 1062 c
269 1062 44 1062 269 1062 c
432 813 269 1062 432 813 c
462.67 765.67 487.33 726 506 694 c
535.33 738 562.33 777 587 811 c
766 1062 587 811 766 1062 c
981 1062 766 1062 981 1062 c
614 562 981 1062 614 562 c
1009 0 614 562 1009 0 c
788 0 1009 0 788 0 c
570 330 788 0 570 330 c
512 419 570 330 512 419 c
233 0 512 419 233 0 c
15 0 233 0 15 0 c
closepath } bind def
/s121 {
127 -409 m
107 -240 127 -409 107 -240 c
146.33 -250.67 180.67 -256 210 -256 c
250 -256 282 -249.33 306 -236 c
330 -222.67 349.67 -204 365 -180 c
376.33 -162 394.67 -117.33 420 -46 c
423.33 -36 428.67 -21.33 436 -2 c
33 1062 436 -2 33 1062 c
227 1062 33 1062 227 1062 c
448 447 227 1062 448 447 c
476.67 369 502.33 287 525 201 c
545.67 283.67 570.33 364.33 599 443 c
826 1062 599 443 826 1062 c
1006 1062 826 1062 1006 1062 c
602 -18 1006 1062 602 -18 c
558.67 -134.67 525 -215 501 -259 c
469 -318.33 432.33 -361.83 391 -389.5 c
349.67 -417.17 300.33 -431 243 -431 c
208.33 -431 169.67 -423.67 127 -409 c
closepath } bind def
end
/BuildGlyph {
 exch dup /Metrics get 2 index get 0 setcharwidth
/CharProcs get exch 2 copy known not{pop/.notdef}if get exec fill}bind def
/BuildChar {
1 index /Encoding get exch get
1 index /BuildGlyph get exec
} bind def
currentdict end /MC3_Arial exch definefont pop
%%EndFont
/clipproc{clippath{[{/m cvx}{/l cvx}{/c cvx}{/cp cvx}pathforall}stopped
{cleartomark[pathbbox exch 3 i sub exch 2 i sub/rectpath cvx}if]np}bd
/iclmtx mtx cmtx def/iclpath clipproc xd/clinit{pathproc initclip np iclpath cl np exec}bd
/clmove{pathproc 3 1 roll clippath pathproc 2 i neg 2 i neg tr initclip np exec cl tr np exec}bd
/clrect[gs np iclpath{pathbbox}stopped{0 0 818.87 568.32 }if gr]def
/cloper{mtx cmtx iclmtx smtx exch exec smtx}bd
/cland{{exch cvx exec}cloper}bd
/clcopy{{exch clinit cvx exec}cloper}bd
/cldiff{{exch pathbbox 4 -1 roll clrect 0 get 2 copy gt{exch}if pop 4 1 roll
 3 -1 roll clrect 1 get 2 copy gt{exch}if pop 3 1 roll
 2 -1 roll clrect 2 get 2 copy lt{exch}if pop 2 1 roll
 1 -1 roll clrect 3 get 2 copy lt{exch}if pop 1 1 roll
 exch 3 i sub exch 2 i sub rectpath cvx exec}cloper}bd
/icl{{clinit}cloper}bd
0.240117 0.240188 sc

/initmtx mtx cmtx def
[0.999508 -0 0 -0.999213 0 2366.14] concat
gs
gs
1 -1 sc
/MC1_Arial 75 self 714 -2091 m
(400)[42 42 42 ] xs
1 -1 sc
gr
gs
1 -1 sc
/MC1_Arial 75 self 1047 -2091 m
(450)[42 42 42 ] xs
1 -1 sc
gr
gs
1 -1 sc
/MC1_Arial 75 self 1379 -2091 m
(500)[42 42 42 ] xs
1 -1 sc
gr
gs
1 -1 sc
/MC1_Arial 75 self 1712 -2091 m
(550)[42 42 42 ] xs
1 -1 sc
gr
gs
1 -1 sc
/MC1_Arial 75 self 2044 -2091 m
(600)[42 42 42 ] xs
1 -1 sc
gr
gs
1 -1 sc
/MC1_Arial 75 self 2376 -2091 m
(650)[42 42 42 ] xs
1 -1 sc
gr
gs
1 -1 sc
/MC1_Arial 75 self 2709 -2091 m
(700)[42 42 42 ] xs
1 -1 sc
gr
gs
1 -1 sc
/MC1_Arial 75 self 512 -1783 m
(0)[42 ] xs
1 -1 sc
gr
gs
1 -1 sc
/MC1_Arial 75 self 512 -1358 m
(2)[42 ] xs
1 -1 sc
gr
gs
1 -1 sc
/MC1_Arial 75 self 512 -933 m
(4)[42 ] xs
1 -1 sc
gr
gs
1 -1 sc
/MC1_Arial 75 self 512 -508 m
(6)[42 ] xs
1 -1 sc
gr
611 1992 m
611 1975 l
7 sw
1 sj
1 scap
st
777 2009 m
777 1975 l
st
943 1992 m
943 1975 l
st
1110 2009 m
1110 1975 l
st
1276 1992 m
1276 1975 l
st
1442 2009 m
1442 1975 l
st
1608 1992 m
1608 1975 l
st
1775 2009 m
1775 1975 l
st
1941 1992 m
1941 1975 l
st
2107 2009 m
2107 1975 l
st
2273 1992 m
2273 1975 l
st
2439 2009 m
2439 1975 l
st
2606 1992 m
2606 1975 l
st
2772 2009 m
2772 1975 l
st
2938 1992 m
2938 1975 l
st
611 1975 m
2938 1975 l
st
594 1975 m
611 1975 l
st
577 1763 m
611 1763 l
st
594 1550 m
611 1550 l
st
577 1338 m
611 1338 l
st
594 1125 m
611 1125 l
st
577 913 m
611 913 l
st
594 700 m
611 700 l
st
577 488 m
611 488 l
st
594 275 m
611 275 l
st
611 1975 m
611 275 l
st
gs
pathproc 611 275 2328 1701 np rectpath
/eocl cland
np exec
870 1015 m
870 1015 m
2040 697 l
2160 664 l
2712 514 l
st
gr
gs
pathproc 611 275 2328 1701 np rectpath
/eocl cland
np exec
870 1489 m
870 1489 m
2040 1372 l
2160 1360 l
2712 1306 l
1 0 0 rgb
st
gr
gs
pathproc 611 275 2328 1701 np rectpath
/eocl cland
np exec
852 1362 36 36 rectfill
611 275 m
3 sw
852 1362 36 36 rectstroke
2022 1211 36 36 rectfill
2022 1211 36 36 rectstroke
2142 1189 36 36 rectfill
2142 1189 36 36 rectstroke
2694 1143 36 36 rectfill
2694 1143 36 36 rectstroke
gr
gs
pathproc 611 275 2328 1701 np rectpath
/eocl cland
np exec
np
870 1758 21 0 360  a
cp
gs
1 0 0 rgb
eofi
gr
3 sw
1 0 0 rgb
st
np
2040 1754 21 0 360  a
cp
gs
eofi
gr
st
np
2160 1750 21 0 360  a
cp
gs
eofi
gr
st
np
2712 1771 21 0 360  a
cp
gs
eofi
gr
st
gr
gs
pathproc 611 275 2328 1701 np rectpath
/eocl cland
np exec
870 1615 m
894 1657 l
845 1657 l
cp
gs
0 1 0 rgb
eofi
gr
3 sw
0 1 0 rgb
st
2040 1553 m
2064 1595 l
2015 1595 l
cp
gs
eofi
gr
st
2160 1554 m
2184 1596 l
2135 1596 l
cp
gs
eofi
gr
st
2712 1497 m
2736 1539 l
2687 1539 l
cp
gs
eofi
gr
st
gr
gs
pathproc 611 275 2328 1701 np rectpath
/eocl cland
np exec
gr
gs
gs
1 -1 sc
375 -1460 tr
90 ro
/MC2_Arial 91 self 0 0 m
(velocity \(mm/s\))[46 51 20 51 46 20 25 46 25 30 76 76 25 46 30 ] xs
1 -1 sc
gr
gr
gs
1 -1 sc
/MC3_Arial 91 self 1354 -2248 m
(heater power \(W/m)[51 51 51 25 51 30 25 51 51 65 51 30 25 30 91 25 76 ] xs
1 -1 sc
1 -1 sc
/MC3_Arial 55 self 2133 -2203 m
(2)[31 ] xs
1 -1 sc
1 -1 sc
/MC3_Arial 91 self 2164 -2248 m
(\))[30 ] xs
1 -1 sc
gr
674 66 m
1133 66 l
1133 593 l
674 593 l
cp
gs
1 1 1 rgb
eofi
gr
3 sw
st
gs
gs
gs
709 133 m
859 133 l
7 sw
st
gr
gr
1 -1 sc
/MC3_Arial 67 self 859 -156 m
( v)[19 33 ] xs
1 -1 sc
1 -1 sc
/MC3_Arial 40 self 911 -179 m
(n)[21 ] xs
1 -1 sc
gs
gs
709 234 m
859 234 l
7 sw
1 0 0 rgb
st
gr
gr
1 -1 sc
/MC3_Arial 67 self 859 -257 m
( v)[19 33 ] xs
1 -1 sc
1 -1 sc
/MC3_Arial 40 self 911 -280 m
(s)[19 ] xs
1 -1 sc
gs
766 318 36 36 rectfill
766 318 36 36 rectstroke
gr
1 -1 sc
/MC3_Arial 67 self 859 -358 m
( mean )[19 57 37 37 37 19 ] xs
1 -1 sc
1 -1 sc
/MC3_Arial 40 self 1065 -381 m
( )[11 ] xs
1 -1 sc
1 -1 sc
/MC3_Arial 67 self 1076 -358 m
(v)[33 ] xs
1 -1 sc
gs
np
784 437 20 0 360  a
cp
gs
1 0 0 rgb
eofi
gr
1 0 0 rgb
st
gr
1 -1 sc
859 -459 m
( mean v)[19 57 37 37 37 19 33 ] xs
1 -1 sc
1 -1 sc
/MC3_Arial 40 self 1098 -482 m
(x)[18 ] xs
1 -1 sc
gs
784 510 m
808 552 l
759 552 l
cp
gs
0 1 0 rgb
eofi
gr
0 1 0 rgb
st
gr
1 -1 sc
/MC3_Arial 67 self 859 -560 m
( mean v)[19 57 37 37 37 19 33 ] xs
1 -1 sc
1 -1 sc
/MC3_Arial 40 self 1098 -583 m
(y)[19 ] xs
1 -1 sc
gr
gr
Save0 restore end
showpage
%%EOF
