%!PS-Adobe-3.0 EPSF-3.0
%%BoundingBox: 0 0 819 569
%%LanguageLevel: 2
%%Creator: OriginLab Corporation
%%Title: (H:\plots\T175A.eps)
%%CreationDate: Tue Sep 03 12:25:38 2013
%%EndComments

/OriginLab::PSL1 128 dict dup begin def
/Save0 save def
%%BeginResource: procset OriginLab::PSL1
/wd{1 index where{pop pop pop}{bind def}ifelse}bind def
/setcmykcolor{1 sub 4 1 roll 3{3 index add neg dup 0 lt{pop 0}if 3 1 roll}repeat setrgbcolor pop}wd
/selectfont{dup type/arraytype eq{exch findfont exch makefont setfont}{exch findfont exch scalefont setfont}ifelse}wd
/xshow{1 index length 0 le{}{currentpoint exch 3 index length 1 sub 0 exch 1 exch{dup 5 index exch 1 getinterval show 3 index exch get add 2 copy exch moveto}for pop pop}ifelse pop pop}wd
/glyphshow{matrix currentmatrix exch currentfont dup/FontMatrix get concat currentpoint translate
 dup/Metrics get 2 index get 0 4 2 roll gsave/CharProcs get exch 2 copy known not{pop/.notdef}if
 get exec fill grestore moveto setmatrix}wd
/grayimage/image load def/rgbtogray{cvx exec dup length 3 idiv 1 sub 0 exch 1 exch{dup 3 mul dup 3 index exch get 255 div .3 mul exch
 1 add dup 4 index exch get 255 div .59 mul exch 1 add 4 index exch get 255 div .11 mul add add
 255 mul dup 255 gt{255}if round cvi 2 index 3 1 roll put}for dup length 3 idiv 0 exch getinterval}bind def
/colorimage{0 setgray pop pop cvlit/rgbtogray cvx 2 packedarray cvx grayimage}wd
/bd{bind def}bind def/ld{load def}bd/ed{exch def}bd/xd{cvx def}bd
/np/newpath ld/a/arc ld/m/moveto ld/l/lineto ld/c/curveto ld/rm/rmoveto ld/rl/rlineto ld/rc/rcurveto ld/cp/closepath ld/cpt/currentpoint ld
/tr/translate ld/sc/scale ld/ro/rotate ld/t/transform ld/it/itransform ld/dt/dtransform ld/idt/idtransform ld
/mtx/matrix ld/cmtx/currentmatrix ld/dmtx/defaultmatrix ld/smtx/setmatrix ld/catmtx/concatmatrix ld
/sw/setlinewidth ld/scap/setlinecap ld/sj/setlinejoin ld/sm/setmiterlimit ld/sd/setdash ld/rgb/setrgbcolor ld/crgb/currentrgbcolor ld/cmyk/setcmykcolor ld/gs/gsave ld/gr/grestore ld
/st/stroke ld/fi/fill ld/eofi/eofill ld/cl/clip ld/eocl/eoclip ld
/df/definefont ld/ff/findfont ld/sf/setfont ld/scf/scalefont ld/self/selectfont ld/cf/currentfont ld
/s/show ld/xs/xshow ld/gls/glyphshow ld/xgls{cpt 3 1 roll add exch 3 -1 roll gls m}bd
/cd/currentdict ld/i/index ld
/DrawBox{4 2 roll m 1 index 0 rl 0 exch rl neg 0 rl cp}bd
/plus.re { 6 { 3 index } repeat moveto 0 exch rlineto 0 rlineto pop pop neg 0 exch rlineto pop lineto closepath } def
/DrawBcc{4 2 roll m 2 copy 0 lt exch 0 lt xor{dup 0 exch rl exch 0 rl neg 0 exch rl}{exch dup 0 rl exch 0 exch rl neg 0 rl}ifelse cp}bd
/rectline{dup type/arraytype eq{dup length 0 exch 4 exch 4 sub{0 1 3{3 copy add get 4 1 roll pop}for pop 5 1 roll DrawBox}for pop}{DrawBox}ifelse}bd
/rectpath{dup type/arraytype eq{dup length 0 exch 4 exch 4 sub{0 1 3{3 copy add get 4 1 roll pop}for pop 5 1 roll DrawBcc}for pop}{DrawBcc}ifelse}bd
/pathproc{[{/m cvx}{/l cvx}{/c cvx}{/cp cvx}pathforall]cvx}bd
/L1img/image ld/L1idx[{0}
 {dup 7 and 3 1 roll -3 bitshift get exch 7 sub 1 mul bitshift  1 and}bind 1 index dup
 {dup 1 and 3 1 roll -1 bitshift get exch 1 sub 4 mul bitshift 15 and}bind 1 index dup dup
 {get}bind]def
/image{dup type/dicttype eq {dup/ImgCS get 0 get/Indexed eq}{false}ifelse
 {begin Width Height 8 ImageMatrix {rgb_string rgb_lookup
 cd/DataSource get dup type/filetype eq
 {mystring readstring pop}{exec}ifelse
 dup length 0 ne
 {L1idx BitsPerComponent get 0 1 Width 1 sub
 {3 copy exch exec exch 3 mul exch
 3 mul dup 5 index exch get exch 1 add dup 6 index exch get exch 1 add 6 index exch get
 7 index exch 4 index 2 add exch put 6 index exch 3 index 1 add exch put 5 index exch 2 index exch put pop
 }for pop pop pop }{pop pop pop ()}ifelse }false 3 colorimage end} {dup type/dicttype eq
 {{dup mark exch L1img pop pop}stopped{cleartomark begin Width Height BitsPerComponent ImageMatrix
 {cd/DataSource get dup type/filetype eq {mystring readstring pop}{exec}ifelse
 }false 3 colorimage end} if}{L1img}ifelse}ifelse
 }bd
/L1imgmask/imagemask ld/imagemask{dup type/dicttype eq
 {{dup mark exch L1imgmask pop pop}stopped {cleartomark begin Width Height polarityflag ImageMatrix
 {cd/DataSource get dup type/filetype eq {mystring readstring pop}{exec}ifelse
 }L1imgmask end}if}{L1imgmask}ifelse
 }bd
% Gradient function
/GradientStep 1 150 div def
/GradientStartRGB { /R1 exch def /G1 exch def /B1 exch def } def
/GradientEndRGB { /R2 exch def /G2 exch def /B2 exch def
/GradientSteps GradientLength GradientStep div def
/GradientRStep R2 R1 sub GradientSteps div def
/GradientGStep G2 G1 sub GradientSteps div def
/GradientBStep B2 B1 sub GradientSteps div def
} def
/GradientStepRGB { /R1 R1 GradientRStep add def
/G1 G1 GradientGStep add def
/B1 B1 GradientBStep add def
R1 G1 B1 setrgbcolor
} def
%%EndResource
/rectclip{np rectpath clip np}wd
/rectfill{gs np rectpath fi gr}wd
/rectstroke{gs np dup type/arraytype eq{dup length 6 eq}{false}ifelse{1 index type/arraytype eq{exch}{5 1 roll}ifelse rectline concat st}{rectline st}ifelse gr}wd
%%BeginResource: procset OriginLab::Image
/OriginLab::Image 32 dict dup begin
/BinProc{[currentfile mystring /readstring cvx /pop cvx] cvx bind}bd
/HexProc{[currentfile mystring /readhexstring cvx /pop cvx] cvx bind}bd
/Ascii85Proc{currentfile /ASCII85Decode filter}bd
/LZWA85{currentfile /ASCII85Decode filter /LZWDecode filter}bd
/ImgProcArray[/BinProc /HexProc /Ascii85Proc /LZWA85]def
/ImgDict{/ImgDict 16 dict def ImgDict dup begin /ImageType 1 def /MultipleDataSource false def end}bd
/L2Dec{{[1 0]}{[0 1]}ifelse}bd
/BegImg{ /Img_sv save def
 /ImgDir ed ImgProcArray exch get /ImgProc exch ld
 dup /polarityflag ed L2Dec /polarity ed /smoothflag ed
 tr /dx 2 index def /dy 1 index abs def sc
 string /mystring ed /bpc ed /ih ed /iw ed
 }bd
/EndImg {Img_sv restore}bd
/DoXImg{ /rgb_lookup ed /hival ed ImgDict dup begin
 [/Indexed /DeviceRGB hival rgb_lookup] /L1img where{pop/ImgCS ed}{setcolorspace}ifelse
 /rgb_string iw 3 mul string def
 /Width iw def
 /Height ih def
 /Decode [0 1 bpc{2 mul}repeat 1 sub] def
 /ImageMatrix
  ImgDir 0 eq{[iw 0 0 ih 0 0]}if
  ImgDir 1 eq{[iw neg 0 0 ih iw 0]}if
  ImgDir 2 eq{[iw 0 0 ih neg 0 ih]}if
  ImgDir 3 eq{[iw neg 0 0 ih neg iw ih]}if
  def
 /DataSource ImgProc def
 /BitsPerComponent bpc def
 /Interpolate smoothflag def
 end image}bd
/DoImg{ ImgDict dup begin
 [/DeviceRGB] /L1img where{pop/ImgCS ed}{setcolorspace}ifelse
 /rgb_string iw 3 mul string def
 /Width iw def
 /Height ih def
 /Decode [0 1 0 1 0 1] def
 /ImageMatrix
  ImgDir 0 eq{[iw 0 0 ih 0 0]}if
  ImgDir 1 eq{[iw neg 0 0 ih iw 0]}if
  ImgDir 2 eq{[iw 0 0 ih neg 0 ih]}if
  ImgDir 3 eq{[iw neg 0 0 ih neg iw ih]}if
  def
 /DataSource ImgProc def
 /BitsPerComponent 8 def
 /Interpolate smoothflag def
 end image}bd
end def
%%EndResource
%%BeginFont: /MC1_Arial
12 dict begin
/FontInfo 8 dict dup begin
/ItalicAngle 0 def
/UnderlinePosition -217.00 def
/UnderlineThickness 150.00 def
/StrikeoutPosition 530.00 def
/StrikeoutThickness 102.00 def
/isFixedPitch false def
end readonly def
/FontName /MC1_Arial def
/FontType 3 def
/FontMatrix [1 2048 div 0 0 1 2048 div 0 0] def
/FontBBox [-1361 -665 4096 2060] def
/Encoding 256 array def 0 1 255{Encoding exch/.notdef put}for
Encoding 32/s32 put
Encoding 48/s48 put
Encoding 49/s49 put
Encoding 52/s52 put
Encoding 53/s53 put
Encoding 54/s54 put
Encoding 55/s55 put
/BoundingBoxes 8 dict def
BoundingBoxes begin
/s32 [0 -434 569 1854] def
/s48 [0 -434 1139 1854] def
/s49 [0 -434 1139 1854] def
/s52 [0 -434 1139 1854] def
/s53 [0 -434 1139 1854] def
/s54 [0 -434 1139 1854] def
/s55 [0 -434 1139 1854] def
end
/Metrics 8 dict def
 Metrics begin
/s32 569 def
/s48 1139 def
/s49 1139 def
/s52 1139 def
/s53 1139 def
/s54 1139 def
/s55 1139 def
end
/CharProcs 8 dict def
CharProcs begin
/.notdef {} def
/s48 {
85 723 m
85 896.33 102.83 1035.83 138.5 1141.5 c
174.17 1247.17 227.17 1328.67 297.5 1386 c
367.83 1443.33 456.33 1472 563 1472 c
641.67 1472 710.67 1456.17 770 1424.5 c
829.33 1392.83 878.33 1347.17 917 1287.5 c
955.67 1227.83 986 1155.17 1008 1069.5 c
1030 983.83 1041 868.33 1041 723 c
1041 551 1023.33 412.17 988 306.5 c
952.67 200.83 899.83 119.17 829.5 61.5 c
759.17 3.83 670.33 -25 563 -25 c
421.67 -25 310.67 25.67 230 127 c
133.33 249 85 447.67 85 723 c
closepath 270 723 m
270 482.33 298.17 322.17 354.5 242.5 c
410.83 162.83 480.33 123 563 123 c
645.67 123 715.17 163 771.5 243 c
827.83 323 856 483 856 723 c
856 964.33 827.83 1124.67 771.5 1204 c
715.17 1283.33 645 1323 561 1323 c
478.33 1323 412.33 1288 363 1218 c
301 1128.67 270 963.67 270 723 c
closepath } bind def
/s49 {
763 0 m
583 0 763 0 583 0 c
583 1147 583 0 583 1147 c
539.67 1105.67 482.83 1064.33 412.5 1023 c
342.17 981.67 279 950.67 223 930 c
223 1104 223 930 223 1104 c
323.67 1151.33 411.67 1208.67 487 1276 c
562.33 1343.33 615.67 1408.67 647 1472 c
763 1472 647 1472 763 1472 c
763 0 763 1472 763 0 c
closepath } bind def
/s52 {
662 0 m
662 351 662 0 662 351 c
26 351 662 351 26 351 c
26 516 26 351 26 516 c
695 1466 26 516 695 1466 c
842 1466 695 1466 842 1466 c
842 516 842 1466 842 516 c
1040 516 842 516 1040 516 c
1040 351 1040 516 1040 351 c
842 351 1040 351 842 351 c
842 0 842 351 842 0 c
662 0 842 0 662 0 c
closepath 662 516 m
662 1177 662 516 662 1177 c
203 516 662 1177 203 516 c
662 516 203 516 662 516 c
closepath } bind def
/s53 {
85 384 m
274 400 85 384 274 400 c
288 308 320.5 238.83 371.5 192.5 c
422.5 146.17 484 123 556 123 c
642.67 123 716 155.67 776 221 c
836 286.33 866 373 866 481 c
866 583.67 837.17 664.67 779.5 724 c
721.83 783.33 646.33 813 553 813 c
495 813 442.67 799.83 396 773.5 c
349.33 747.17 312.67 713 286 671 c
117 693 286 671 117 693 c
259 1446 117 693 259 1446 c
988 1446 259 1446 988 1446 c
988 1274 988 1446 988 1274 c
403 1274 988 1274 403 1274 c
324 880 403 1274 324 880 c
412 941.33 504.33 972 601 972 c
729 972 837 927.67 925 839 c
1013 750.33 1057 636.33 1057 497 c
1057 364.33 1018.33 249.67 941 153 c
847 34.33 718.67 -25 556 -25 c
422.67 -25 313.83 12.33 229.5 87 c
145.17 161.67 97 260.67 85 384 c
closepath } bind def
/s54 {
1019 1107 m
840 1093 1019 1107 840 1093 c
824 1163.67 801.33 1215 772 1247 c
723.33 1298.33 663.33 1324 592 1324 c
534.67 1324 484.33 1308 441 1276 c
384.33 1234.67 339.67 1174.33 307 1095 c
274.33 1015.67 257.33 902.67 256 756 c
299.33 822 352.33 871 415 903 c
477.67 935 543.33 951 612 951 c
732 951 834.17 906.83 918.5 818.5 c
1002.83 730.17 1045 616 1045 476 c
1045 384 1025.17 298.5 985.5 219.5 c
945.83 140.5 891.33 80 822 38 c
752.67 -4 674 -25 586 -25 c
436 -25 313.67 30.17 219 140.5 c
124.33 250.83 77 432.67 77 686 c
77 969.33 129.33 1175.33 234 1304 c
325.33 1416 448.33 1472 603 1472 c
718.33 1472 812.83 1439.67 886.5 1375 c
960.17 1310.33 1004.33 1221 1019 1107 c
closepath 284 475 m
284 413 297.17 353.67 323.5 297 c
349.83 240.33 386.67 197.17 434 167.5 c
481.33 137.83 531 123 583 123 c
659 123 724.33 153.67 779 215 c
833.67 276.33 861 359.67 861 465 c
861 566.33 834 646.17 780 704.5 c
726 762.83 658 792 576 792 c
494.67 792 425.67 762.83 369 704.5 c
312.33 646.17 284 569.67 284 475 c
closepath } bind def
/s55 {
97 1274 m
97 1447 97 1274 97 1447 c
1046 1447 97 1447 1046 1447 c
1046 1307 1046 1447 1046 1307 c
952.67 1207.67 860.17 1075.67 768.5 911 c
676.83 746.33 606 577 556 403 c
520 280.33 497 146 487 0 c
302 0 487 0 302 0 c
304 115.33 326.67 254.67 370 418 c
413.33 581.33 475.5 738.83 556.5 890.5 c
637.5 1042.17 723.67 1170 815 1274 c
97 1274 815 1274 97 1274 c
closepath } bind def
end
/BuildGlyph {
 exch dup /Metrics get 2 index get 0 setcharwidth
/CharProcs get exch 2 copy known not{pop/.notdef}if get exec fill}bind def
/BuildChar {
1 index /Encoding get exch get
1 index /BuildGlyph get exec
} bind def
currentdict end /MC1_Arial exch definefont pop
%%EndFont
%%BeginFont: /MC2_Arial
12 dict begin
/FontInfo 8 dict dup begin
/ItalicAngle 0 def
/UnderlinePosition -217.00 def
/UnderlineThickness 150.00 def
/StrikeoutPosition 530.00 def
/StrikeoutThickness 102.00 def
/isFixedPitch false def
end readonly def
/FontName /MC2_Arial def
/FontType 3 def
/FontMatrix [1 2048 div 0 0 1 2048 div 0 0] def
/FontBBox [-1361 -665 4096 2060] def
/Encoding 256 array def 0 1 255{Encoding exch/.notdef put}for
Encoding 32/s32 put
Encoding 40/s40 put
Encoding 41/s41 put
Encoding 47/s47 put
Encoding 50/s50 put
Encoding 87/s87 put
Encoding 97/s97 put
Encoding 100/s100 put
Encoding 101/s101 put
Encoding 102/s102 put
Encoding 104/s104 put
Encoding 105/s105 put
Encoding 108/s108 put
Encoding 109/s109 put
Encoding 110/s110 put
Encoding 111/s111 put
Encoding 112/s112 put
Encoding 114/s114 put
Encoding 116/s116 put
Encoding 119/s119 put
Encoding 120/s120 put
/BoundingBoxes 22 dict def
BoundingBoxes begin
/s32 [0 -434 569 1854] def
/s40 [0 -434 682 1854] def
/s41 [0 -434 682 1854] def
/s47 [0 -434 569 1854] def
/s50 [0 -434 1139 1854] def
/s87 [0 -434 1933 1854] def
/s97 [0 -434 1139 1854] def
/s100 [0 -434 1139 1854] def
/s101 [0 -434 1139 1854] def
/s102 [0 -434 569 1854] def
/s104 [0 -434 1139 1854] def
/s105 [0 -434 455 1854] def
/s108 [0 -434 455 1854] def
/s109 [0 -434 1706 1854] def
/s110 [0 -434 1139 1854] def
/s111 [0 -434 1139 1854] def
/s112 [0 -434 1139 1854] def
/s114 [0 -434 682 1854] def
/s116 [0 -434 569 1854] def
/s119 [0 -434 1479 1854] def
/s120 [0 -434 1024 1854] def
end
/Metrics 22 dict def
 Metrics begin
/s32 569 def
/s40 682 def
/s41 682 def
/s47 569 def
/s50 1139 def
/s87 1933 def
/s97 1139 def
/s100 1139 def
/s101 1139 def
/s102 569 def
/s104 1139 def
/s105 455 def
/s108 455 def
/s109 1706 def
/s110 1139 def
/s111 1139 def
/s112 1139 def
/s114 682 def
/s116 569 def
/s119 1479 def
/s120 1024 def
end
/CharProcs 22 dict def
CharProcs begin
/.notdef {} def
/s40 {
479 -431 m
379.67 -305.67 295.67 -159 227 9 c
158.33 177 124 351 124 531 c
124 689.67 149.67 841.67 201 987 c
261 1155.67 353.67 1323.67 479 1491 c
608 1491 479 1491 608 1491 c
527.33 1352.33 474 1253.33 448 1194 c
407.33 1102 375.33 1006 352 906 c
323.33 781.33 309 656 309 530 c
309 209.33 408.67 -111 608 -431 c
479 -431 608 -431 479 -431 c
closepath } bind def
/s41 {
253 -431 m
124 -431 253 -431 124 -431 c
323.33 -111 423 209.33 423 530 c
423 655.33 408.67 779.67 380 903 c
357.33 1003 325.67 1099 285 1191 c
259 1251 205.33 1351 124 1491 c
253 1491 124 1491 253 1491 c
378.33 1323.67 471 1155.67 531 987 c
582.33 841.67 608 689.67 608 531 c
608 351 573.5 177 504.5 9 c
435.5 -159 351.67 -305.67 253 -431 c
closepath } bind def
/s47 {
0 -25 m
425 1491 0 -25 425 1491 c
569 1491 425 1491 569 1491 c
145 -25 569 1491 145 -25 c
0 -25 145 -25 0 -25 c
closepath } bind def
/s50 {
1031 173 m
1031 0 1031 173 1031 0 c
62 0 1031 0 62 0 c
60.67 43.33 67.67 85 83 125 c
107.67 191 147.17 256 201.5 320 c
255.83 384 334.33 458 437 542 c
596.33 672.67 704 776.17 760 852.5 c
816 928.83 844 1001 844 1069 c
844 1140.33 818.5 1200.5 767.5 1249.5 c
716.5 1298.5 650 1323 568 1323 c
481.33 1323 412 1297 360 1245 c
308 1193 281.67 1121 281 1029 c
96 1048 281 1029 96 1048 c
108.67 1186 156.33 1291.17 239 1363.5 c
321.67 1435.83 432.67 1472 572 1472 c
712.67 1472 824 1433 906 1355 c
988 1277 1029 1180.33 1029 1065 c
1029 1006.33 1017 948.67 993 892 c
969 835.33 929.17 775.67 873.5 713 c
817.83 650.33 725.33 564.33 596 455 c
488 364.33 418.67 302.83 388 270.5 c
357.33 238.17 332 205.67 312 173 c
1031 173 312 173 1031 173 c
closepath } bind def
/s87 {
414 0 m
25 1466 414 0 25 1466 c
224 1466 25 1466 224 1466 c
447 505 224 1466 447 505 c
471 404.33 491.67 304.33 509 205 c
546.33 361.67 568.33 452 575 476 c
854 1466 575 476 854 1466 c
1088 1466 854 1466 1088 1466 c
1298 724 1088 1466 1298 724 c
1350.67 540 1388.67 367 1412 205 c
1430.67 297.67 1455 404 1485 524 c
1715 1466 1485 524 1715 1466 c
1910 1466 1715 1466 1910 1466 c
1508 0 1910 1466 1508 0 c
1321 0 1508 0 1321 0 c
1012 1117 1321 0 1012 1117 c
986 1210.33 970.67 1267.67 966 1289 c
950.67 1221.67 936.33 1164.33 923 1117 c
612 0 923 1117 612 0 c
414 0 612 0 414 0 c
closepath } bind def
/s97 {
828 131 m
761.33 74.33 697.17 34.33 635.5 11 c
573.83 -12.33 507.67 -24 437 -24 c
320.33 -24 230.67 4.5 168 61.5 c
105.33 118.5 74 191.33 74 280 c
74 332 85.83 379.5 109.5 422.5 c
133.17 465.5 164.17 500 202.5 526 c
240.83 552 284 571.67 332 585 c
367.33 594.33 420.67 603.33 492 612 c
637.33 629.33 744.33 650 813 674 c
813.67 698.67 814 714.33 814 721 c
814 794.33 797 846 763 876 c
717 916.67 648.67 937 558 937 c
473.33 937 410.83 922.17 370.5 892.5 c
330.17 862.83 300.33 810.33 281 735 c
105 759 281 735 105 759 c
121 834.33 147.33 895.17 184 941.5 c
220.67 987.83 273.67 1023.5 343 1048.5 c
412.33 1073.5 492.67 1086 584 1086 c
674.67 1086 748.33 1075.33 805 1054 c
861.67 1032.67 903.33 1005.83 930 973.5 c
956.67 941.17 975.33 900.33 986 851 c
992 820.33 995 765 995 685 c
995 445 995 685 995 445 c
995 277.67 998.83 171.83 1006.5 127.5 c
1014.17 83.17 1029.33 40.67 1052 0 c
864 0 1052 0 864 0 c
845.33 37.33 833.33 81 828 131 c
closepath 813 533 m
747.67 506.33 649.67 483.67 519 465 c
445 454.33 392.67 442.33 362 429 c
331.33 415.67 307.67 396.17 291 370.5 c
274.33 344.83 266 316.33 266 285 c
266 237 284.17 197 320.5 165 c
356.83 133 410 117 480 117 c
549.33 117 611 132.17 665 162.5 c
719 192.83 758.67 234.33 784 287 c
803.33 327.67 813 387.67 813 467 c
813 533 813 467 813 533 c
closepath } bind def
/s100 {
824 0 m
824 134 824 0 824 134 c
756.67 28.67 657.67 -24 527 -24 c
442.33 -24 364.5 -0.67 293.5 46 c
222.5 92.67 167.5 157.83 128.5 241.5 c
89.5 325.17 70 421.33 70 530 c
70 636 87.67 732.17 123 818.5 c
158.33 904.83 211.33 971 282 1017 c
352.67 1063 431.67 1086 519 1086 c
583 1086 640 1072.5 690 1045.5 c
740 1018.5 780.67 983.33 812 940 c
812 1466 812 940 812 1466 c
991 1466 812 1466 991 1466 c
991 0 991 1466 991 0 c
824 0 991 0 824 0 c
closepath 255 530 m
255 394 283.67 292.33 341 225 c
398.33 157.67 466 124 544 124 c
622.67 124 689.5 156.17 744.5 220.5 c
799.5 284.83 827 383 827 515 c
827 660.33 799 767 743 835 c
687 903 618 937 536 937 c
456 937 389.17 904.33 335.5 839 c
281.83 773.67 255 670.67 255 530 c
closepath } bind def
/s101 {
862 342 m
1048 319 862 342 1048 319 c
1018.67 210.33 964.33 126 885 66 c
805.67 6 704.33 -24 581 -24 c
425.67 -24 302.5 23.83 211.5 119.5 c
120.5 215.17 75 349.33 75 522 c
75 700.67 121 839.33 213 938 c
305 1036.67 424.33 1086 571 1086 c
713 1086 829 1037.67 919 941 c
1009 844.33 1054 708.33 1054 533 c
1054 522.33 1053.67 506.33 1053 485 c
261 485 1053 485 261 485 c
267.67 368.33 300.67 279 360 217 c
419.33 155 493.33 124 582 124 c
648 124 704.33 141.33 751 176 c
797.67 210.67 834.67 266 862 342 c
closepath 271 633 m
864 633 271 633 864 633 c
856 722.33 833.33 789.33 796 834 c
738.67 903.33 664.33 938 573 938 c
490.33 938 420.83 910.33 364.5 855 c
308.17 799.67 277 725.67 271 633 c
closepath } bind def
/s102 {
178 0 m
178 922 178 0 178 922 c
19 922 178 922 19 922 c
19 1062 19 922 19 1062 c
178 1062 19 1062 178 1062 c
178 1175 178 1062 178 1175 c
178 1246.33 184.33 1299.33 197 1334 c
214.33 1380.67 244.83 1418.5 288.5 1447.5 c
332.17 1476.5 393.33 1491 472 1491 c
522.67 1491 578.67 1485 640 1473 c
613 1316 640 1473 613 1316 c
575.67 1322.67 540.33 1326 507 1326 c
452.33 1326 413.67 1314.33 391 1291 c
368.33 1267.67 357 1224 357 1160 c
357 1062 357 1160 357 1062 c
564 1062 357 1062 564 1062 c
564 922 564 1062 564 922 c
357 922 564 922 357 922 c
357 0 357 922 357 0 c
178 0 357 0 178 0 c
closepath } bind def
/s104 {
135 0 m
135 1466 135 0 135 1466 c
315 1466 135 1466 315 1466 c
315 940 315 1466 315 940 c
399 1037.33 505 1086 633 1086 c
711.67 1086 780 1070.5 838 1039.5 c
896 1008.5 937.5 965.67 962.5 911 c
987.5 856.33 1000 777 1000 673 c
1000 0 1000 673 1000 0 c
820 0 1000 0 820 0 c
820 673 820 0 820 673 c
820 763 800.5 828.5 761.5 869.5 c
722.5 910.5 667.33 931 596 931 c
542.67 931 492.5 917.17 445.5 889.5 c
398.5 861.83 365 824.33 345 777 c
325 729.67 315 664.33 315 581 c
315 0 315 581 315 0 c
135 0 315 0 135 0 c
closepath } bind def
/s105 {
136 1259 m
136 1466 136 1259 136 1466 c
316 1466 136 1466 316 1466 c
316 1259 316 1466 316 1259 c
136 1259 316 1259 136 1259 c
closepath 136 0 m
136 1062 136 0 136 1062 c
316 1062 136 1062 316 1062 c
316 0 316 1062 316 0 c
136 0 316 0 136 0 c
closepath } bind def
/s108 {
131 0 m
131 1466 131 0 131 1466 c
311 1466 131 1466 311 1466 c
311 0 311 1466 311 0 c
131 0 311 0 131 0 c
closepath } bind def
/s109 {
135 0 m
135 1062 135 0 135 1062 c
296 1062 135 1062 296 1062 c
296 913 296 1062 296 913 c
329.33 965 373.67 1006.83 429 1038.5 c
484.33 1070.17 547.33 1086 618 1086 c
696.67 1086 761.17 1069.67 811.5 1037 c
861.83 1004.33 897.33 958.67 918 900 c
1002 1024 1111.33 1086 1246 1086 c
1351.33 1086 1432.33 1056.83 1489 998.5 c
1545.67 940.17 1574 850.33 1574 729 c
1574 0 1574 729 1574 0 c
1395 0 1574 0 1395 0 c
1395 669 1395 0 1395 669 c
1395 741 1389.17 792.83 1377.5 824.5 c
1365.83 856.17 1344.67 881.67 1314 901 c
1283.33 920.33 1247.33 930 1206 930 c
1131.33 930 1069.33 905.17 1020 855.5 c
970.67 805.83 946 726.33 946 617 c
946 0 946 617 946 0 c
766 0 946 0 766 0 c
766 690 766 0 766 690 c
766 770 751.33 830 722 870 c
692.67 910 644.67 930 578 930 c
527.33 930 480.5 916.67 437.5 890 c
394.5 863.33 363.33 824.33 344 773 c
324.67 721.67 315 647.67 315 551 c
315 0 315 551 315 0 c
135 0 315 0 135 0 c
closepath } bind def
/s110 {
135 0 m
135 1062 135 0 135 1062 c
297 1062 135 1062 297 1062 c
297 911 297 1062 297 911 c
375 1027.67 487.67 1086 635 1086 c
699 1086 757.83 1074.5 811.5 1051.5 c
865.17 1028.5 905.33 998.33 932 961 c
958.67 923.67 977.33 879.33 988 828 c
994.67 794.67 998 736.33 998 653 c
998 0 998 653 998 0 c
818 0 998 0 818 0 c
818 646 818 0 818 646 c
818 719.33 811 774.17 797 810.5 c
783 846.83 758.17 875.83 722.5 897.5 c
686.83 919.17 645 930 597 930 c
520.33 930 454.17 905.67 398.5 857 c
342.83 808.33 315 716 315 580 c
315 0 315 580 315 0 c
135 0 315 0 135 0 c
closepath } bind def
/s111 {
68 531 m
68 727.67 122.67 873.33 232 968 c
323.33 1046.67 434.67 1086 566 1086 c
712 1086 831.33 1038.17 924 942.5 c
1016.67 846.83 1063 714.67 1063 546 c
1063 409.33 1042.5 301.83 1001.5 223.5 c
960.5 145.17 900.83 84.33 822.5 41 c
744.17 -2.33 658.67 -24 566 -24 c
417.33 -24 297.17 23.67 205.5 119 c
113.83 214.33 68 351.67 68 531 c
closepath 253 531 m
253 395 282.67 293.17 342 225.5 c
401.33 157.83 476 124 566 124 c
655.33 124 729.67 158 789 226 c
848.33 294 878 397.67 878 537 c
878 668.33 848.17 767.83 788.5 835.5 c
728.83 903.17 654.67 937 566 937 c
476 937 401.33 903.33 342 836 c
282.67 768.67 253 667 253 531 c
closepath } bind def
/s112 {
135 -407 m
135 1062 135 -407 135 1062 c
299 1062 135 1062 299 1062 c
299 924 299 1062 299 924 c
337.67 978 381.33 1018.5 430 1045.5 c
478.67 1072.5 537.67 1086 607 1086 c
697.67 1086 777.67 1062.67 847 1016 c
916.33 969.33 968.67 903.5 1004 818.5 c
1039.33 733.5 1057 640.33 1057 539 c
1057 430.33 1037.5 332.5 998.5 245.5 c
959.5 158.5 902.83 91.83 828.5 45.5 c
754.17 -0.83 676 -24 594 -24 c
534 -24 480.17 -11.33 432.5 14 c
384.83 39.33 345.67 71.33 315 110 c
315 -407 315 110 315 -407 c
135 -407 315 -407 135 -407 c
closepath 298 525 m
298 388.33 325.67 287.33 381 222 c
436.33 156.67 503.33 124 582 124 c
662 124 730.5 157.83 787.5 225.5 c
844.5 293.17 873 398 873 540 c
873 675.33 845.17 776.67 789.5 844 c
733.83 911.33 667.33 945 590 945 c
513.33 945 445.5 909.17 386.5 837.5 c
327.5 765.83 298 661.67 298 525 c
closepath } bind def
/s114 {
133 0 m
133 1062 133 0 133 1062 c
295 1062 133 1062 295 1062 c
295 901 295 1062 295 901 c
336.33 976.33 374.5 1026 409.5 1050 c
444.5 1074 483 1086 525 1086 c
585.67 1086 647.33 1066.67 710 1028 c
648 861 710 1028 648 861 c
604 887 560 900 516 900 c
476.67 900 441.33 888.17 410 864.5 c
378.67 840.83 356.33 808 343 766 c
323 702 313 632 313 556 c
313 0 313 556 313 0 c
133 0 313 0 133 0 c
closepath } bind def
/s116 {
528 161 m
554 2 528 161 554 2 c
503.33 -8.67 458 -14 418 -14 c
352.67 -14 302 -3.67 266 17 c
230 37.67 204.67 64.83 190 98.5 c
175.33 132.17 168 203 168 311 c
168 922 168 311 168 922 c
36 922 168 922 36 922 c
36 1062 36 922 36 1062 c
168 1062 36 1062 168 1062 c
168 1325 168 1062 168 1325 c
347 1433 168 1325 347 1433 c
347 1062 347 1433 347 1062 c
528 1062 347 1062 528 1062 c
528 922 528 1062 528 922 c
347 922 528 922 347 922 c
347 301 347 922 347 301 c
347 249.67 350.17 216.67 356.5 202 c
362.83 187.33 373.17 175.67 387.5 167 c
401.83 158.33 422.33 154 449 154 c
469 154 495.33 156.33 528 161 c
closepath } bind def
/s119 {
331 0 m
6 1062 331 0 6 1062 c
192 1062 6 1062 192 1062 c
361 449 192 1062 361 449 c
424 221 361 449 424 221 c
426.67 232.33 445 305.33 479 440 c
648 1062 479 440 648 1062 c
833 1062 648 1062 833 1062 c
992 446 833 1062 992 446 c
1045 243 992 446 1045 243 c
1106 448 1045 243 1106 448 c
1288 1062 1106 448 1288 1062 c
1463 1062 1288 1062 1463 1062 c
1131 0 1463 1062 1131 0 c
944 0 1131 0 944 0 c
775 636 944 0 775 636 c
734 817 775 636 734 817 c
519 0 734 817 519 0 c
331 0 519 0 331 0 c
closepath } bind def
/s120 {
15 0 m
403 552 15 0 403 552 c
44 1062 403 552 44 1062 c
269 1062 44 1062 269 1062 c
432 813 269 1062 432 813 c
462.67 765.67 487.33 726 506 694 c
535.33 738 562.33 777 587 811 c
766 1062 587 811 766 1062 c
981 1062 766 1062 981 1062 c
614 562 981 1062 614 562 c
1009 0 614 562 1009 0 c
788 0 1009 0 788 0 c
570 330 788 0 570 330 c
512 419 570 330 512 419 c
233 0 512 419 233 0 c
15 0 233 0 15 0 c
closepath } bind def
end
/BuildGlyph {
 exch dup /Metrics get 2 index get 0 setcharwidth
/CharProcs get exch 2 copy known not{pop/.notdef}if get exec fill}bind def
/BuildChar {
1 index /Encoding get exch get
1 index /BuildGlyph get exec
} bind def
currentdict end /MC2_Arial exch definefont pop
%%EndFont
%%BeginFont: /MC3_Arial
12 dict begin
/FontInfo 8 dict dup begin
/ItalicAngle 0 def
/UnderlinePosition -217.00 def
/UnderlineThickness 150.00 def
/StrikeoutPosition 530.00 def
/StrikeoutThickness 102.00 def
/isFixedPitch false def
end readonly def
/FontName /MC3_Arial def
/FontType 3 def
/FontMatrix [1 2048 div 0 0 1 2048 div 0 0] def
/FontBBox [-1361 -665 4096 2060] def
/Encoding 256 array def 0 1 255{Encoding exch/.notdef put}for
Encoding 32/s32 put
Encoding 40/s40 put
Encoding 41/s41 put
Encoding 47/s47 put
Encoding 50/s50 put
Encoding 65/s65 put
Encoding 109/s109 put
Encoding 115/s115 put
/BoundingBoxes 9 dict def
BoundingBoxes begin
/s32 [0 -434 569 1854] def
/s40 [0 -434 682 1854] def
/s41 [0 -434 682 1854] def
/s47 [0 -434 569 1854] def
/s50 [0 -434 1139 1854] def
/s65 [-3 -434 1366 1854] def
/s109 [0 -434 1706 1854] def
/s115 [0 -434 1024 1854] def
end
/Metrics 9 dict def
 Metrics begin
/s32 569 def
/s40 682 def
/s41 682 def
/s47 569 def
/s50 1139 def
/s65 1366 def
/s109 1706 def
/s115 1024 def
end
/CharProcs 9 dict def
CharProcs begin
/.notdef {} def
/s40 {
479 -431 m
379.67 -305.67 295.67 -159 227 9 c
158.33 177 124 351 124 531 c
124 689.67 149.67 841.67 201 987 c
261 1155.67 353.67 1323.67 479 1491 c
608 1491 479 1491 608 1491 c
527.33 1352.33 474 1253.33 448 1194 c
407.33 1102 375.33 1006 352 906 c
323.33 781.33 309 656 309 530 c
309 209.33 408.67 -111 608 -431 c
479 -431 608 -431 479 -431 c
closepath } bind def
/s41 {
253 -431 m
124 -431 253 -431 124 -431 c
323.33 -111 423 209.33 423 530 c
423 655.33 408.67 779.67 380 903 c
357.33 1003 325.67 1099 285 1191 c
259 1251 205.33 1351 124 1491 c
253 1491 124 1491 253 1491 c
378.33 1323.67 471 1155.67 531 987 c
582.33 841.67 608 689.67 608 531 c
608 351 573.5 177 504.5 9 c
435.5 -159 351.67 -305.67 253 -431 c
closepath } bind def
/s47 {
0 -25 m
425 1491 0 -25 425 1491 c
569 1491 425 1491 569 1491 c
145 -25 569 1491 145 -25 c
0 -25 145 -25 0 -25 c
closepath } bind def
/s50 {
1031 173 m
1031 0 1031 173 1031 0 c
62 0 1031 0 62 0 c
60.67 43.33 67.67 85 83 125 c
107.67 191 147.17 256 201.5 320 c
255.83 384 334.33 458 437 542 c
596.33 672.67 704 776.17 760 852.5 c
816 928.83 844 1001 844 1069 c
844 1140.33 818.5 1200.5 767.5 1249.5 c
716.5 1298.5 650 1323 568 1323 c
481.33 1323 412 1297 360 1245 c
308 1193 281.67 1121 281 1029 c
96 1048 281 1029 96 1048 c
108.67 1186 156.33 1291.17 239 1363.5 c
321.67 1435.83 432.67 1472 572 1472 c
712.67 1472 824 1433 906 1355 c
988 1277 1029 1180.33 1029 1065 c
1029 1006.33 1017 948.67 993 892 c
969 835.33 929.17 775.67 873.5 713 c
817.83 650.33 725.33 564.33 596 455 c
488 364.33 418.67 302.83 388 270.5 c
357.33 238.17 332 205.67 312 173 c
1031 173 312 173 1031 173 c
closepath } bind def
/s65 {
-3 0 m
560 1466 -3 0 560 1466 c
769 1466 560 1466 769 1466 c
1369 0 769 1466 1369 0 c
1148 0 1369 0 1148 0 c
977 444 1148 0 977 444 c
364 444 977 444 364 444 c
203 0 364 444 203 0 c
-3 0 203 0 -3 0 c
closepath 420 602 m
917 602 420 602 917 602 c
764 1008 917 602 764 1008 c
717.33 1131.33 682.67 1232.67 660 1312 c
641.33 1218 615 1124.67 581 1032 c
420 602 581 1032 420 602 c
closepath } bind def
/s109 {
135 0 m
135 1062 135 0 135 1062 c
296 1062 135 1062 296 1062 c
296 913 296 1062 296 913 c
329.33 965 373.67 1006.83 429 1038.5 c
484.33 1070.17 547.33 1086 618 1086 c
696.67 1086 761.17 1069.67 811.5 1037 c
861.83 1004.33 897.33 958.67 918 900 c
1002 1024 1111.33 1086 1246 1086 c
1351.33 1086 1432.33 1056.83 1489 998.5 c
1545.67 940.17 1574 850.33 1574 729 c
1574 0 1574 729 1574 0 c
1395 0 1574 0 1395 0 c
1395 669 1395 0 1395 669 c
1395 741 1389.17 792.83 1377.5 824.5 c
1365.83 856.17 1344.67 881.67 1314 901 c
1283.33 920.33 1247.33 930 1206 930 c
1131.33 930 1069.33 905.17 1020 855.5 c
970.67 805.83 946 726.33 946 617 c
946 0 946 617 946 0 c
766 0 946 0 766 0 c
766 690 766 0 766 690 c
766 770 751.33 830 722 870 c
692.67 910 644.67 930 578 930 c
527.33 930 480.5 916.67 437.5 890 c
394.5 863.33 363.33 824.33 344 773 c
324.67 721.67 315 647.67 315 551 c
315 0 315 551 315 0 c
135 0 315 0 135 0 c
closepath } bind def
/s115 {
63 317 m
241 345 63 317 241 345 c
251 273.67 278.83 219 324.5 181 c
370.17 143 434 124 516 124 c
598.67 124 660 140.83 700 174.5 c
740 208.17 760 247.67 760 293 c
760 333.67 742.33 365.67 707 389 c
682.33 405 621 425.33 523 450 c
391 483.33 299.5 512.17 248.5 536.5 c
197.5 560.83 158.83 594.5 132.5 637.5 c
106.17 680.5 93 728 93 780 c
93 827.33 103.83 871.17 125.5 911.5 c
147.17 951.83 176.67 985.33 214 1012 c
242 1032.67 280.17 1050.17 328.5 1064.5 c
376.83 1078.83 428.67 1086 484 1086 c
567.33 1086 640.5 1074 703.5 1050 c
766.5 1026 813 993.5 843 952.5 c
873 911.5 893.67 856.67 905 788 c
729 764 905 788 729 764 c
721 818.67 697.83 861.33 659.5 892 c
621.17 922.67 567 938 497 938 c
414.33 938 355.33 924.33 320 897 c
284.67 869.67 267 837.67 267 801 c
267 777.67 274.33 756.67 289 738 c
303.67 718.67 326.67 702.67 358 690 c
376 683.33 429 668 517 644 c
644.33 610 733.17 582.17 783.5 560.5 c
833.83 538.83 873.33 507.33 902 466 c
930.67 424.67 945 373.33 945 312 c
945 252 927.5 195.5 892.5 142.5 c
857.5 89.5 807 48.5 741 19.5 c
675 -9.5 600.33 -24 517 -24 c
379 -24 273.83 4.67 201.5 62 c
129.17 119.33 83 204.33 63 317 c
closepath } bind def
end
/BuildGlyph {
 exch dup /Metrics get 2 index get 0 setcharwidth
/CharProcs get exch 2 copy known not{pop/.notdef}if get exec fill}bind def
/BuildChar {
1 index /Encoding get exch get
1 index /BuildGlyph get exec
} bind def
currentdict end /MC3_Arial exch definefont pop
%%EndFont
/clipproc{clippath{[{/m cvx}{/l cvx}{/c cvx}{/cp cvx}pathforall}stopped
{cleartomark[pathbbox exch 3 i sub exch 2 i sub/rectpath cvx}if]np}bd
/iclmtx mtx cmtx def/iclpath clipproc xd/clinit{pathproc initclip np iclpath cl np exec}bd
/clmove{pathproc 3 1 roll clippath pathproc 2 i neg 2 i neg tr initclip np exec cl tr np exec}bd
/clrect[gs np iclpath{pathbbox}stopped{0 0 818.87 568.32 }if gr]def
/cloper{mtx cmtx iclmtx smtx exch exec smtx}bd
/cland{{exch cvx exec}cloper}bd
/clcopy{{exch clinit cvx exec}cloper}bd
/cldiff{{exch pathbbox 4 -1 roll clrect 0 get 2 copy gt{exch}if pop 4 1 roll
 3 -1 roll clrect 1 get 2 copy gt{exch}if pop 3 1 roll
 2 -1 roll clrect 2 get 2 copy lt{exch}if pop 2 1 roll
 1 -1 roll clrect 3 get 2 copy lt{exch}if pop 1 1 roll
 exch 3 i sub exch 2 i sub rectpath cvx exec}cloper}bd
/icl{{clinit}cloper}bd
0.240117 0.240188 sc

/initmtx mtx cmtx def
[0.999508 -0 0 -0.999213 0 2366.14] concat
gs
610 1719 m
618 1719 l
2 sw
0.753 0.753 0.753 rgb
1 sj
1 scap
st
628 1719 m
636 1719 l
st
646 1719 m
654 1719 l
st
664 1719 m
672 1719 l
st
682 1719 m
690 1719 l
st
700 1719 m
708 1719 l
st
718 1719 m
726 1719 l
st
736 1719 m
744 1719 l
st
754 1719 m
762 1719 l
st
772 1719 m
780 1719 l
st
790 1719 m
798 1719 l
st
808 1719 m
816 1719 l
st
826 1719 m
834 1719 l
st
844 1719 m
852 1719 l
st
862 1719 m
870 1719 l
st
880 1719 m
888 1719 l
st
898 1719 m
906 1719 l
st
916 1719 m
924 1719 l
st
934 1719 m
942 1719 l
st
952 1719 m
960 1719 l
st
970 1719 m
978 1719 l
st
988 1719 m
996 1719 l
st
1006 1719 m
1014 1719 l
st
1024 1719 m
1032 1719 l
st
1042 1719 m
1050 1719 l
st
1060 1719 m
1068 1719 l
st
1078 1719 m
1086 1719 l
st
1096 1719 m
1104 1719 l
st
1114 1719 m
1122 1719 l
st
1132 1719 m
1140 1719 l
st
1150 1719 m
1158 1719 l
st
1168 1719 m
1176 1719 l
st
1186 1719 m
1194 1719 l
st
1204 1719 m
1212 1719 l
st
1222 1719 m
1230 1719 l
st
1240 1719 m
1248 1719 l
st
1258 1719 m
1266 1719 l
st
1276 1719 m
1284 1719 l
st
1294 1719 m
1302 1719 l
st
1312 1719 m
1320 1719 l
st
1330 1719 m
1338 1719 l
st
1348 1719 m
1356 1719 l
st
1366 1719 m
1374 1719 l
st
1384 1719 m
1392 1719 l
st
1402 1719 m
1410 1719 l
st
1420 1719 m
1428 1719 l
st
1438 1719 m
1446 1719 l
st
1456 1719 m
1464 1719 l
st
1474 1719 m
1482 1719 l
st
1492 1719 m
1500 1719 l
st
1510 1719 m
1518 1719 l
st
1528 1719 m
1536 1719 l
st
1546 1719 m
1554 1719 l
st
1564 1719 m
1572 1719 l
st
1582 1719 m
1590 1719 l
st
1600 1719 m
1608 1719 l
st
1618 1719 m
1626 1719 l
st
1636 1719 m
1644 1719 l
st
1654 1719 m
1662 1719 l
st
1672 1719 m
1680 1719 l
st
1690 1719 m
1698 1719 l
st
1708 1719 m
1716 1719 l
st
1726 1719 m
1734 1719 l
st
1744 1719 m
1752 1719 l
st
1762 1719 m
1770 1719 l
st
1780 1719 m
1788 1719 l
st
1798 1719 m
1806 1719 l
st
1816 1719 m
1824 1719 l
st
1834 1719 m
1842 1719 l
st
1852 1719 m
1860 1719 l
st
1870 1719 m
1878 1719 l
st
1888 1719 m
1896 1719 l
st
1906 1719 m
1914 1719 l
st
1924 1719 m
1932 1719 l
st
1942 1719 m
1950 1719 l
st
1960 1719 m
1968 1719 l
st
1978 1719 m
1986 1719 l
st
1996 1719 m
2004 1719 l
st
2014 1719 m
2022 1719 l
st
2032 1719 m
2040 1719 l
st
2050 1719 m
2058 1719 l
st
2068 1719 m
2076 1719 l
st
2086 1719 m
2094 1719 l
st
2104 1719 m
2112 1719 l
st
2122 1719 m
2130 1719 l
st
2140 1719 m
2148 1719 l
st
2158 1719 m
2166 1719 l
st
2176 1719 m
2184 1719 l
st
2194 1719 m
2202 1719 l
st
2212 1719 m
2220 1719 l
st
2230 1719 m
2238 1719 l
st
2248 1719 m
2256 1719 l
st
2266 1719 m
2274 1719 l
st
2284 1719 m
2292 1719 l
st
2302 1719 m
2310 1719 l
st
2320 1719 m
2328 1719 l
st
2338 1719 m
2346 1719 l
st
2356 1719 m
2364 1719 l
st
2374 1719 m
2382 1719 l
st
2392 1719 m
2400 1719 l
st
2410 1719 m
2418 1719 l
st
2428 1719 m
2436 1719 l
st
2446 1719 m
2454 1719 l
st
2464 1719 m
2472 1719 l
st
2482 1719 m
2490 1719 l
st
2500 1719 m
2508 1719 l
st
2518 1719 m
2526 1719 l
st
2536 1719 m
2544 1719 l
st
2554 1719 m
2562 1719 l
st
2572 1719 m
2580 1719 l
st
2590 1719 m
2598 1719 l
st
2608 1719 m
2616 1719 l
st
2626 1719 m
2634 1719 l
st
2644 1719 m
2652 1719 l
st
2662 1719 m
2670 1719 l
st
2680 1719 m
2688 1719 l
st
2698 1719 m
2706 1719 l
st
2716 1719 m
2724 1719 l
st
2734 1719 m
2742 1719 l
st
2752 1719 m
2760 1719 l
st
2770 1719 m
2778 1719 l
st
2788 1719 m
2796 1719 l
st
2806 1719 m
2814 1719 l
st
2824 1719 m
2832 1719 l
st
2842 1719 m
2850 1719 l
st
2860 1719 m
2868 1719 l
st
2878 1719 m
2886 1719 l
st
2896 1719 m
2904 1719 l
st
2914 1719 m
2922 1719 l
st
2932 1719 m
2937 1719 l
st
610 1569 m
618 1569 l
st
628 1569 m
636 1569 l
st
646 1569 m
654 1569 l
st
664 1569 m
672 1569 l
st
682 1569 m
690 1569 l
st
700 1569 m
708 1569 l
st
718 1569 m
726 1569 l
st
736 1569 m
744 1569 l
st
754 1569 m
762 1569 l
st
772 1569 m
780 1569 l
st
790 1569 m
798 1569 l
st
808 1569 m
816 1569 l
st
826 1569 m
834 1569 l
st
844 1569 m
852 1569 l
st
862 1569 m
870 1569 l
st
880 1569 m
888 1569 l
st
898 1569 m
906 1569 l
st
916 1569 m
924 1569 l
st
934 1569 m
942 1569 l
st
952 1569 m
960 1569 l
st
970 1569 m
978 1569 l
st
988 1569 m
996 1569 l
st
1006 1569 m
1014 1569 l
st
1024 1569 m
1032 1569 l
st
1042 1569 m
1050 1569 l
st
1060 1569 m
1068 1569 l
st
1078 1569 m
1086 1569 l
st
1096 1569 m
1104 1569 l
st
1114 1569 m
1122 1569 l
st
1132 1569 m
1140 1569 l
st
1150 1569 m
1158 1569 l
st
1168 1569 m
1176 1569 l
st
1186 1569 m
1194 1569 l
st
1204 1569 m
1212 1569 l
st
1222 1569 m
1230 1569 l
st
1240 1569 m
1248 1569 l
st
1258 1569 m
1266 1569 l
st
1276 1569 m
1284 1569 l
st
1294 1569 m
1302 1569 l
st
1312 1569 m
1320 1569 l
st
1330 1569 m
1338 1569 l
st
1348 1569 m
1356 1569 l
st
1366 1569 m
1374 1569 l
st
1384 1569 m
1392 1569 l
st
1402 1569 m
1410 1569 l
st
1420 1569 m
1428 1569 l
st
1438 1569 m
1446 1569 l
st
1456 1569 m
1464 1569 l
st
1474 1569 m
1482 1569 l
st
1492 1569 m
1500 1569 l
st
1510 1569 m
1518 1569 l
st
1528 1569 m
1536 1569 l
st
1546 1569 m
1554 1569 l
st
1564 1569 m
1572 1569 l
st
1582 1569 m
1590 1569 l
st
1600 1569 m
1608 1569 l
st
1618 1569 m
1626 1569 l
st
1636 1569 m
1644 1569 l
st
1654 1569 m
1662 1569 l
st
1672 1569 m
1680 1569 l
st
1690 1569 m
1698 1569 l
st
1708 1569 m
1716 1569 l
st
1726 1569 m
1734 1569 l
st
1744 1569 m
1752 1569 l
st
1762 1569 m
1770 1569 l
st
1780 1569 m
1788 1569 l
st
1798 1569 m
1806 1569 l
st
1816 1569 m
1824 1569 l
st
1834 1569 m
1842 1569 l
st
1852 1569 m
1860 1569 l
st
1870 1569 m
1878 1569 l
st
1888 1569 m
1896 1569 l
st
1906 1569 m
1914 1569 l
st
1924 1569 m
1932 1569 l
st
1942 1569 m
1950 1569 l
st
1960 1569 m
1968 1569 l
st
1978 1569 m
1986 1569 l
st
1996 1569 m
2004 1569 l
st
2014 1569 m
2022 1569 l
st
2032 1569 m
2040 1569 l
st
2050 1569 m
2058 1569 l
st
2068 1569 m
2076 1569 l
st
2086 1569 m
2094 1569 l
st
2104 1569 m
2112 1569 l
st
2122 1569 m
2130 1569 l
st
2140 1569 m
2148 1569 l
st
2158 1569 m
2166 1569 l
st
2176 1569 m
2184 1569 l
st
2194 1569 m
2202 1569 l
st
2212 1569 m
2220 1569 l
st
2230 1569 m
2238 1569 l
st
2248 1569 m
2256 1569 l
st
2266 1569 m
2274 1569 l
st
2284 1569 m
2292 1569 l
st
2302 1569 m
2310 1569 l
st
2320 1569 m
2328 1569 l
st
2338 1569 m
2346 1569 l
st
2356 1569 m
2364 1569 l
st
2374 1569 m
2382 1569 l
st
2392 1569 m
2400 1569 l
st
2410 1569 m
2418 1569 l
st
2428 1569 m
2436 1569 l
st
2446 1569 m
2454 1569 l
st
2464 1569 m
2472 1569 l
st
2482 1569 m
2490 1569 l
st
2500 1569 m
2508 1569 l
st
2518 1569 m
2526 1569 l
st
2536 1569 m
2544 1569 l
st
2554 1569 m
2562 1569 l
st
2572 1569 m
2580 1569 l
st
2590 1569 m
2598 1569 l
st
2608 1569 m
2616 1569 l
st
2626 1569 m
2634 1569 l
st
2644 1569 m
2652 1569 l
st
2662 1569 m
2670 1569 l
st
2680 1569 m
2688 1569 l
st
2698 1569 m
2706 1569 l
st
2716 1569 m
2724 1569 l
st
2734 1569 m
2742 1569 l
st
2752 1569 m
2760 1569 l
st
2770 1569 m
2778 1569 l
st
2788 1569 m
2796 1569 l
st
2806 1569 m
2814 1569 l
st
2824 1569 m
2832 1569 l
st
2842 1569 m
2850 1569 l
st
2860 1569 m
2868 1569 l
st
2878 1569 m
2886 1569 l
st
2896 1569 m
2904 1569 l
st
2914 1569 m
2922 1569 l
st
2932 1569 m
2937 1569 l
st
610 1463 m
618 1463 l
st
628 1463 m
636 1463 l
st
646 1463 m
654 1463 l
st
664 1463 m
672 1463 l
st
682 1463 m
690 1463 l
st
700 1463 m
708 1463 l
st
718 1463 m
726 1463 l
st
736 1463 m
744 1463 l
st
754 1463 m
762 1463 l
st
772 1463 m
780 1463 l
st
790 1463 m
798 1463 l
st
808 1463 m
816 1463 l
st
826 1463 m
834 1463 l
st
844 1463 m
852 1463 l
st
862 1463 m
870 1463 l
st
880 1463 m
888 1463 l
st
898 1463 m
906 1463 l
st
916 1463 m
924 1463 l
st
934 1463 m
942 1463 l
st
952 1463 m
960 1463 l
st
970 1463 m
978 1463 l
st
988 1463 m
996 1463 l
st
1006 1463 m
1014 1463 l
st
1024 1463 m
1032 1463 l
st
1042 1463 m
1050 1463 l
st
1060 1463 m
1068 1463 l
st
1078 1463 m
1086 1463 l
st
1096 1463 m
1104 1463 l
st
1114 1463 m
1122 1463 l
st
1132 1463 m
1140 1463 l
st
1150 1463 m
1158 1463 l
st
1168 1463 m
1176 1463 l
st
1186 1463 m
1194 1463 l
st
1204 1463 m
1212 1463 l
st
1222 1463 m
1230 1463 l
st
1240 1463 m
1248 1463 l
st
1258 1463 m
1266 1463 l
st
1276 1463 m
1284 1463 l
st
1294 1463 m
1302 1463 l
st
1312 1463 m
1320 1463 l
st
1330 1463 m
1338 1463 l
st
1348 1463 m
1356 1463 l
st
1366 1463 m
1374 1463 l
st
1384 1463 m
1392 1463 l
st
1402 1463 m
1410 1463 l
st
1420 1463 m
1428 1463 l
st
1438 1463 m
1446 1463 l
st
1456 1463 m
1464 1463 l
st
1474 1463 m
1482 1463 l
st
1492 1463 m
1500 1463 l
st
1510 1463 m
1518 1463 l
st
1528 1463 m
1536 1463 l
st
1546 1463 m
1554 1463 l
st
1564 1463 m
1572 1463 l
st
1582 1463 m
1590 1463 l
st
1600 1463 m
1608 1463 l
st
1618 1463 m
1626 1463 l
st
1636 1463 m
1644 1463 l
st
1654 1463 m
1662 1463 l
st
1672 1463 m
1680 1463 l
st
1690 1463 m
1698 1463 l
st
1708 1463 m
1716 1463 l
st
1726 1463 m
1734 1463 l
st
1744 1463 m
1752 1463 l
st
1762 1463 m
1770 1463 l
st
1780 1463 m
1788 1463 l
st
1798 1463 m
1806 1463 l
st
1816 1463 m
1824 1463 l
st
1834 1463 m
1842 1463 l
st
1852 1463 m
1860 1463 l
st
1870 1463 m
1878 1463 l
st
1888 1463 m
1896 1463 l
st
1906 1463 m
1914 1463 l
st
1924 1463 m
1932 1463 l
st
1942 1463 m
1950 1463 l
st
1960 1463 m
1968 1463 l
st
1978 1463 m
1986 1463 l
st
1996 1463 m
2004 1463 l
st
2014 1463 m
2022 1463 l
st
2032 1463 m
2040 1463 l
st
2050 1463 m
2058 1463 l
st
2068 1463 m
2076 1463 l
st
2086 1463 m
2094 1463 l
st
2104 1463 m
2112 1463 l
st
2122 1463 m
2130 1463 l
st
2140 1463 m
2148 1463 l
st
2158 1463 m
2166 1463 l
st
2176 1463 m
2184 1463 l
st
2194 1463 m
2202 1463 l
st
2212 1463 m
2220 1463 l
st
2230 1463 m
2238 1463 l
st
2248 1463 m
2256 1463 l
st
2266 1463 m
2274 1463 l
st
2284 1463 m
2292 1463 l
st
2302 1463 m
2310 1463 l
st
2320 1463 m
2328 1463 l
st
2338 1463 m
2346 1463 l
st
2356 1463 m
2364 1463 l
st
2374 1463 m
2382 1463 l
st
2392 1463 m
2400 1463 l
st
2410 1463 m
2418 1463 l
st
2428 1463 m
2436 1463 l
st
2446 1463 m
2454 1463 l
st
2464 1463 m
2472 1463 l
st
2482 1463 m
2490 1463 l
st
2500 1463 m
2508 1463 l
st
2518 1463 m
2526 1463 l
st
2536 1463 m
2544 1463 l
st
2554 1463 m
2562 1463 l
st
2572 1463 m
2580 1463 l
st
2590 1463 m
2598 1463 l
st
2608 1463 m
2616 1463 l
st
2626 1463 m
2634 1463 l
st
2644 1463 m
2652 1463 l
st
2662 1463 m
2670 1463 l
st
2680 1463 m
2688 1463 l
st
2698 1463 m
2706 1463 l
st
2716 1463 m
2724 1463 l
st
2734 1463 m
2742 1463 l
st
2752 1463 m
2760 1463 l
st
2770 1463 m
2778 1463 l
st
2788 1463 m
2796 1463 l
st
2806 1463 m
2814 1463 l
st
2824 1463 m
2832 1463 l
st
2842 1463 m
2850 1463 l
st
2860 1463 m
2868 1463 l
st
2878 1463 m
2886 1463 l
st
2896 1463 m
2904 1463 l
st
2914 1463 m
2922 1463 l
st
2932 1463 m
2937 1463 l
st
610 1381 m
618 1381 l
st
628 1381 m
636 1381 l
st
646 1381 m
654 1381 l
st
664 1381 m
672 1381 l
st
682 1381 m
690 1381 l
st
700 1381 m
708 1381 l
st
718 1381 m
726 1381 l
st
736 1381 m
744 1381 l
st
754 1381 m
762 1381 l
st
772 1381 m
780 1381 l
st
790 1381 m
798 1381 l
st
808 1381 m
816 1381 l
st
826 1381 m
834 1381 l
st
844 1381 m
852 1381 l
st
862 1381 m
870 1381 l
st
880 1381 m
888 1381 l
st
898 1381 m
906 1381 l
st
916 1381 m
924 1381 l
st
934 1381 m
942 1381 l
st
952 1381 m
960 1381 l
st
970 1381 m
978 1381 l
st
988 1381 m
996 1381 l
st
1006 1381 m
1014 1381 l
st
1024 1381 m
1032 1381 l
st
1042 1381 m
1050 1381 l
st
1060 1381 m
1068 1381 l
st
1078 1381 m
1086 1381 l
st
1096 1381 m
1104 1381 l
st
1114 1381 m
1122 1381 l
st
1132 1381 m
1140 1381 l
st
1150 1381 m
1158 1381 l
st
1168 1381 m
1176 1381 l
st
1186 1381 m
1194 1381 l
st
1204 1381 m
1212 1381 l
st
1222 1381 m
1230 1381 l
st
1240 1381 m
1248 1381 l
st
1258 1381 m
1266 1381 l
st
1276 1381 m
1284 1381 l
st
1294 1381 m
1302 1381 l
st
1312 1381 m
1320 1381 l
st
1330 1381 m
1338 1381 l
st
1348 1381 m
1356 1381 l
st
1366 1381 m
1374 1381 l
st
1384 1381 m
1392 1381 l
st
1402 1381 m
1410 1381 l
st
1420 1381 m
1428 1381 l
st
1438 1381 m
1446 1381 l
st
1456 1381 m
1464 1381 l
st
1474 1381 m
1482 1381 l
st
1492 1381 m
1500 1381 l
st
1510 1381 m
1518 1381 l
st
1528 1381 m
1536 1381 l
st
1546 1381 m
1554 1381 l
st
1564 1381 m
1572 1381 l
st
1582 1381 m
1590 1381 l
st
1600 1381 m
1608 1381 l
st
1618 1381 m
1626 1381 l
st
1636 1381 m
1644 1381 l
st
1654 1381 m
1662 1381 l
st
1672 1381 m
1680 1381 l
st
1690 1381 m
1698 1381 l
st
1708 1381 m
1716 1381 l
st
1726 1381 m
1734 1381 l
st
1744 1381 m
1752 1381 l
st
1762 1381 m
1770 1381 l
st
1780 1381 m
1788 1381 l
st
1798 1381 m
1806 1381 l
st
1816 1381 m
1824 1381 l
st
1834 1381 m
1842 1381 l
st
1852 1381 m
1860 1381 l
st
1870 1381 m
1878 1381 l
st
1888 1381 m
1896 1381 l
st
1906 1381 m
1914 1381 l
st
1924 1381 m
1932 1381 l
st
1942 1381 m
1950 1381 l
st
1960 1381 m
1968 1381 l
st
1978 1381 m
1986 1381 l
st
1996 1381 m
2004 1381 l
st
2014 1381 m
2022 1381 l
st
2032 1381 m
2040 1381 l
st
2050 1381 m
2058 1381 l
st
2068 1381 m
2076 1381 l
st
2086 1381 m
2094 1381 l
st
2104 1381 m
2112 1381 l
st
2122 1381 m
2130 1381 l
st
2140 1381 m
2148 1381 l
st
2158 1381 m
2166 1381 l
st
2176 1381 m
2184 1381 l
st
2194 1381 m
2202 1381 l
st
2212 1381 m
2220 1381 l
st
2230 1381 m
2238 1381 l
st
2248 1381 m
2256 1381 l
st
2266 1381 m
2274 1381 l
st
2284 1381 m
2292 1381 l
st
2302 1381 m
2310 1381 l
st
2320 1381 m
2328 1381 l
st
2338 1381 m
2346 1381 l
st
2356 1381 m
2364 1381 l
st
2374 1381 m
2382 1381 l
st
2392 1381 m
2400 1381 l
st
2410 1381 m
2418 1381 l
st
2428 1381 m
2436 1381 l
st
2446 1381 m
2454 1381 l
st
2464 1381 m
2472 1381 l
st
2482 1381 m
2490 1381 l
st
2500 1381 m
2508 1381 l
st
2518 1381 m
2526 1381 l
st
2536 1381 m
2544 1381 l
st
2554 1381 m
2562 1381 l
st
2572 1381 m
2580 1381 l
st
2590 1381 m
2598 1381 l
st
2608 1381 m
2616 1381 l
st
2626 1381 m
2634 1381 l
st
2644 1381 m
2652 1381 l
st
2662 1381 m
2670 1381 l
st
2680 1381 m
2688 1381 l
st
2698 1381 m
2706 1381 l
st
2716 1381 m
2724 1381 l
st
2734 1381 m
2742 1381 l
st
2752 1381 m
2760 1381 l
st
2770 1381 m
2778 1381 l
st
2788 1381 m
2796 1381 l
st
2806 1381 m
2814 1381 l
st
2824 1381 m
2832 1381 l
st
2842 1381 m
2850 1381 l
st
2860 1381 m
2868 1381 l
st
2878 1381 m
2886 1381 l
st
2896 1381 m
2904 1381 l
st
2914 1381 m
2922 1381 l
st
2932 1381 m
2937 1381 l
st
610 1314 m
618 1314 l
st
628 1314 m
636 1314 l
st
646 1314 m
654 1314 l
st
664 1314 m
672 1314 l
st
682 1314 m
690 1314 l
st
700 1314 m
708 1314 l
st
718 1314 m
726 1314 l
st
736 1314 m
744 1314 l
st
754 1314 m
762 1314 l
st
772 1314 m
780 1314 l
st
790 1314 m
798 1314 l
st
808 1314 m
816 1314 l
st
826 1314 m
834 1314 l
st
844 1314 m
852 1314 l
st
862 1314 m
870 1314 l
st
880 1314 m
888 1314 l
st
898 1314 m
906 1314 l
st
916 1314 m
924 1314 l
st
934 1314 m
942 1314 l
st
952 1314 m
960 1314 l
st
970 1314 m
978 1314 l
st
988 1314 m
996 1314 l
st
1006 1314 m
1014 1314 l
st
1024 1314 m
1032 1314 l
st
1042 1314 m
1050 1314 l
st
1060 1314 m
1068 1314 l
st
1078 1314 m
1086 1314 l
st
1096 1314 m
1104 1314 l
st
1114 1314 m
1122 1314 l
st
1132 1314 m
1140 1314 l
st
1150 1314 m
1158 1314 l
st
1168 1314 m
1176 1314 l
st
1186 1314 m
1194 1314 l
st
1204 1314 m
1212 1314 l
st
1222 1314 m
1230 1314 l
st
1240 1314 m
1248 1314 l
st
1258 1314 m
1266 1314 l
st
1276 1314 m
1284 1314 l
st
1294 1314 m
1302 1314 l
st
1312 1314 m
1320 1314 l
st
1330 1314 m
1338 1314 l
st
1348 1314 m
1356 1314 l
st
1366 1314 m
1374 1314 l
st
1384 1314 m
1392 1314 l
st
1402 1314 m
1410 1314 l
st
1420 1314 m
1428 1314 l
st
1438 1314 m
1446 1314 l
st
1456 1314 m
1464 1314 l
st
1474 1314 m
1482 1314 l
st
1492 1314 m
1500 1314 l
st
1510 1314 m
1518 1314 l
st
1528 1314 m
1536 1314 l
st
1546 1314 m
1554 1314 l
st
1564 1314 m
1572 1314 l
st
1582 1314 m
1590 1314 l
st
1600 1314 m
1608 1314 l
st
1618 1314 m
1626 1314 l
st
1636 1314 m
1644 1314 l
st
1654 1314 m
1662 1314 l
st
1672 1314 m
1680 1314 l
st
1690 1314 m
1698 1314 l
st
1708 1314 m
1716 1314 l
st
1726 1314 m
1734 1314 l
st
1744 1314 m
1752 1314 l
st
1762 1314 m
1770 1314 l
st
1780 1314 m
1788 1314 l
st
1798 1314 m
1806 1314 l
st
1816 1314 m
1824 1314 l
st
1834 1314 m
1842 1314 l
st
1852 1314 m
1860 1314 l
st
1870 1314 m
1878 1314 l
st
1888 1314 m
1896 1314 l
st
1906 1314 m
1914 1314 l
st
1924 1314 m
1932 1314 l
st
1942 1314 m
1950 1314 l
st
1960 1314 m
1968 1314 l
st
1978 1314 m
1986 1314 l
st
1996 1314 m
2004 1314 l
st
2014 1314 m
2022 1314 l
st
2032 1314 m
2040 1314 l
st
2050 1314 m
2058 1314 l
st
2068 1314 m
2076 1314 l
st
2086 1314 m
2094 1314 l
st
2104 1314 m
2112 1314 l
st
2122 1314 m
2130 1314 l
st
2140 1314 m
2148 1314 l
st
2158 1314 m
2166 1314 l
st
2176 1314 m
2184 1314 l
st
2194 1314 m
2202 1314 l
st
2212 1314 m
2220 1314 l
st
2230 1314 m
2238 1314 l
st
2248 1314 m
2256 1314 l
st
2266 1314 m
2274 1314 l
st
2284 1314 m
2292 1314 l
st
2302 1314 m
2310 1314 l
st
2320 1314 m
2328 1314 l
st
2338 1314 m
2346 1314 l
st
2356 1314 m
2364 1314 l
st
2374 1314 m
2382 1314 l
st
2392 1314 m
2400 1314 l
st
2410 1314 m
2418 1314 l
st
2428 1314 m
2436 1314 l
st
2446 1314 m
2454 1314 l
st
2464 1314 m
2472 1314 l
st
2482 1314 m
2490 1314 l
st
2500 1314 m
2508 1314 l
st
2518 1314 m
2526 1314 l
st
2536 1314 m
2544 1314 l
st
2554 1314 m
2562 1314 l
st
2572 1314 m
2580 1314 l
st
2590 1314 m
2598 1314 l
st
2608 1314 m
2616 1314 l
st
2626 1314 m
2634 1314 l
st
2644 1314 m
2652 1314 l
st
2662 1314 m
2670 1314 l
st
2680 1314 m
2688 1314 l
st
2698 1314 m
2706 1314 l
st
2716 1314 m
2724 1314 l
st
2734 1314 m
2742 1314 l
st
2752 1314 m
2760 1314 l
st
2770 1314 m
2778 1314 l
st
2788 1314 m
2796 1314 l
st
2806 1314 m
2814 1314 l
st
2824 1314 m
2832 1314 l
st
2842 1314 m
2850 1314 l
st
2860 1314 m
2868 1314 l
st
2878 1314 m
2886 1314 l
st
2896 1314 m
2904 1314 l
st
2914 1314 m
2922 1314 l
st
2932 1314 m
2937 1314 l
st
610 1257 m
618 1257 l
st
628 1257 m
636 1257 l
st
646 1257 m
654 1257 l
st
664 1257 m
672 1257 l
st
682 1257 m
690 1257 l
st
700 1257 m
708 1257 l
st
718 1257 m
726 1257 l
st
736 1257 m
744 1257 l
st
754 1257 m
762 1257 l
st
772 1257 m
780 1257 l
st
790 1257 m
798 1257 l
st
808 1257 m
816 1257 l
st
826 1257 m
834 1257 l
st
844 1257 m
852 1257 l
st
862 1257 m
870 1257 l
st
880 1257 m
888 1257 l
st
898 1257 m
906 1257 l
st
916 1257 m
924 1257 l
st
934 1257 m
942 1257 l
st
952 1257 m
960 1257 l
st
970 1257 m
978 1257 l
st
988 1257 m
996 1257 l
st
1006 1257 m
1014 1257 l
st
1024 1257 m
1032 1257 l
st
1042 1257 m
1050 1257 l
st
1060 1257 m
1068 1257 l
st
1078 1257 m
1086 1257 l
st
1096 1257 m
1104 1257 l
st
1114 1257 m
1122 1257 l
st
1132 1257 m
1140 1257 l
st
1150 1257 m
1158 1257 l
st
1168 1257 m
1176 1257 l
st
1186 1257 m
1194 1257 l
st
1204 1257 m
1212 1257 l
st
1222 1257 m
1230 1257 l
st
1240 1257 m
1248 1257 l
st
1258 1257 m
1266 1257 l
st
1276 1257 m
1284 1257 l
st
1294 1257 m
1302 1257 l
st
1312 1257 m
1320 1257 l
st
1330 1257 m
1338 1257 l
st
1348 1257 m
1356 1257 l
st
1366 1257 m
1374 1257 l
st
1384 1257 m
1392 1257 l
st
1402 1257 m
1410 1257 l
st
1420 1257 m
1428 1257 l
st
1438 1257 m
1446 1257 l
st
1456 1257 m
1464 1257 l
st
1474 1257 m
1482 1257 l
st
1492 1257 m
1500 1257 l
st
1510 1257 m
1518 1257 l
st
1528 1257 m
1536 1257 l
st
1546 1257 m
1554 1257 l
st
1564 1257 m
1572 1257 l
st
1582 1257 m
1590 1257 l
st
1600 1257 m
1608 1257 l
st
1618 1257 m
1626 1257 l
st
1636 1257 m
1644 1257 l
st
1654 1257 m
1662 1257 l
st
1672 1257 m
1680 1257 l
st
1690 1257 m
1698 1257 l
st
1708 1257 m
1716 1257 l
st
1726 1257 m
1734 1257 l
st
1744 1257 m
1752 1257 l
st
1762 1257 m
1770 1257 l
st
1780 1257 m
1788 1257 l
st
1798 1257 m
1806 1257 l
st
1816 1257 m
1824 1257 l
st
1834 1257 m
1842 1257 l
st
1852 1257 m
1860 1257 l
st
1870 1257 m
1878 1257 l
st
1888 1257 m
1896 1257 l
st
1906 1257 m
1914 1257 l
st
1924 1257 m
1932 1257 l
st
1942 1257 m
1950 1257 l
st
1960 1257 m
1968 1257 l
st
1978 1257 m
1986 1257 l
st
1996 1257 m
2004 1257 l
st
2014 1257 m
2022 1257 l
st
2032 1257 m
2040 1257 l
st
2050 1257 m
2058 1257 l
st
2068 1257 m
2076 1257 l
st
2086 1257 m
2094 1257 l
st
2104 1257 m
2112 1257 l
st
2122 1257 m
2130 1257 l
st
2140 1257 m
2148 1257 l
st
2158 1257 m
2166 1257 l
st
2176 1257 m
2184 1257 l
st
2194 1257 m
2202 1257 l
st
2212 1257 m
2220 1257 l
st
2230 1257 m
2238 1257 l
st
2248 1257 m
2256 1257 l
st
2266 1257 m
2274 1257 l
st
2284 1257 m
2292 1257 l
st
2302 1257 m
2310 1257 l
st
2320 1257 m
2328 1257 l
st
2338 1257 m
2346 1257 l
st
2356 1257 m
2364 1257 l
st
2374 1257 m
2382 1257 l
st
2392 1257 m
2400 1257 l
st
2410 1257 m
2418 1257 l
st
2428 1257 m
2436 1257 l
st
2446 1257 m
2454 1257 l
st
2464 1257 m
2472 1257 l
st
2482 1257 m
2490 1257 l
st
2500 1257 m
2508 1257 l
st
2518 1257 m
2526 1257 l
st
2536 1257 m
2544 1257 l
st
2554 1257 m
2562 1257 l
st
2572 1257 m
2580 1257 l
st
2590 1257 m
2598 1257 l
st
2608 1257 m
2616 1257 l
st
2626 1257 m
2634 1257 l
st
2644 1257 m
2652 1257 l
st
2662 1257 m
2670 1257 l
st
2680 1257 m
2688 1257 l
st
2698 1257 m
2706 1257 l
st
2716 1257 m
2724 1257 l
st
2734 1257 m
2742 1257 l
st
2752 1257 m
2760 1257 l
st
2770 1257 m
2778 1257 l
st
2788 1257 m
2796 1257 l
st
2806 1257 m
2814 1257 l
st
2824 1257 m
2832 1257 l
st
2842 1257 m
2850 1257 l
st
2860 1257 m
2868 1257 l
st
2878 1257 m
2886 1257 l
st
2896 1257 m
2904 1257 l
st
2914 1257 m
2922 1257 l
st
2932 1257 m
2937 1257 l
st
610 1207 m
618 1207 l
st
628 1207 m
636 1207 l
st
646 1207 m
654 1207 l
st
664 1207 m
672 1207 l
st
682 1207 m
690 1207 l
st
700 1207 m
708 1207 l
st
718 1207 m
726 1207 l
st
736 1207 m
744 1207 l
st
754 1207 m
762 1207 l
st
772 1207 m
780 1207 l
st
790 1207 m
798 1207 l
st
808 1207 m
816 1207 l
st
826 1207 m
834 1207 l
st
844 1207 m
852 1207 l
st
862 1207 m
870 1207 l
st
880 1207 m
888 1207 l
st
898 1207 m
906 1207 l
st
916 1207 m
924 1207 l
st
934 1207 m
942 1207 l
st
952 1207 m
960 1207 l
st
970 1207 m
978 1207 l
st
988 1207 m
996 1207 l
st
1006 1207 m
1014 1207 l
st
1024 1207 m
1032 1207 l
st
1042 1207 m
1050 1207 l
st
1060 1207 m
1068 1207 l
st
1078 1207 m
1086 1207 l
st
1096 1207 m
1104 1207 l
st
1114 1207 m
1122 1207 l
st
1132 1207 m
1140 1207 l
st
1150 1207 m
1158 1207 l
st
1168 1207 m
1176 1207 l
st
1186 1207 m
1194 1207 l
st
1204 1207 m
1212 1207 l
st
1222 1207 m
1230 1207 l
st
1240 1207 m
1248 1207 l
st
1258 1207 m
1266 1207 l
st
1276 1207 m
1284 1207 l
st
1294 1207 m
1302 1207 l
st
1312 1207 m
1320 1207 l
st
1330 1207 m
1338 1207 l
st
1348 1207 m
1356 1207 l
st
1366 1207 m
1374 1207 l
st
1384 1207 m
1392 1207 l
st
1402 1207 m
1410 1207 l
st
1420 1207 m
1428 1207 l
st
1438 1207 m
1446 1207 l
st
1456 1207 m
1464 1207 l
st
1474 1207 m
1482 1207 l
st
1492 1207 m
1500 1207 l
st
1510 1207 m
1518 1207 l
st
1528 1207 m
1536 1207 l
st
1546 1207 m
1554 1207 l
st
1564 1207 m
1572 1207 l
st
1582 1207 m
1590 1207 l
st
1600 1207 m
1608 1207 l
st
1618 1207 m
1626 1207 l
st
1636 1207 m
1644 1207 l
st
1654 1207 m
1662 1207 l
st
1672 1207 m
1680 1207 l
st
1690 1207 m
1698 1207 l
st
1708 1207 m
1716 1207 l
st
1726 1207 m
1734 1207 l
st
1744 1207 m
1752 1207 l
st
1762 1207 m
1770 1207 l
st
1780 1207 m
1788 1207 l
st
1798 1207 m
1806 1207 l
st
1816 1207 m
1824 1207 l
st
1834 1207 m
1842 1207 l
st
1852 1207 m
1860 1207 l
st
1870 1207 m
1878 1207 l
st
1888 1207 m
1896 1207 l
st
1906 1207 m
1914 1207 l
st
1924 1207 m
1932 1207 l
st
1942 1207 m
1950 1207 l
st
1960 1207 m
1968 1207 l
st
1978 1207 m
1986 1207 l
st
1996 1207 m
2004 1207 l
st
2014 1207 m
2022 1207 l
st
2032 1207 m
2040 1207 l
st
2050 1207 m
2058 1207 l
st
2068 1207 m
2076 1207 l
st
2086 1207 m
2094 1207 l
st
2104 1207 m
2112 1207 l
st
2122 1207 m
2130 1207 l
st
2140 1207 m
2148 1207 l
st
2158 1207 m
2166 1207 l
st
2176 1207 m
2184 1207 l
st
2194 1207 m
2202 1207 l
st
2212 1207 m
2220 1207 l
st
2230 1207 m
2238 1207 l
st
2248 1207 m
2256 1207 l
st
2266 1207 m
2274 1207 l
st
2284 1207 m
2292 1207 l
st
2302 1207 m
2310 1207 l
st
2320 1207 m
2328 1207 l
st
2338 1207 m
2346 1207 l
st
2356 1207 m
2364 1207 l
st
2374 1207 m
2382 1207 l
st
2392 1207 m
2400 1207 l
st
2410 1207 m
2418 1207 l
st
2428 1207 m
2436 1207 l
st
2446 1207 m
2454 1207 l
st
2464 1207 m
2472 1207 l
st
2482 1207 m
2490 1207 l
st
2500 1207 m
2508 1207 l
st
2518 1207 m
2526 1207 l
st
2536 1207 m
2544 1207 l
st
2554 1207 m
2562 1207 l
st
2572 1207 m
2580 1207 l
st
2590 1207 m
2598 1207 l
st
2608 1207 m
2616 1207 l
st
2626 1207 m
2634 1207 l
st
2644 1207 m
2652 1207 l
st
2662 1207 m
2670 1207 l
st
2680 1207 m
2688 1207 l
st
2698 1207 m
2706 1207 l
st
2716 1207 m
2724 1207 l
st
2734 1207 m
2742 1207 l
st
2752 1207 m
2760 1207 l
st
2770 1207 m
2778 1207 l
st
2788 1207 m
2796 1207 l
st
2806 1207 m
2814 1207 l
st
2824 1207 m
2832 1207 l
st
2842 1207 m
2850 1207 l
st
2860 1207 m
2868 1207 l
st
2878 1207 m
2886 1207 l
st
2896 1207 m
2904 1207 l
st
2914 1207 m
2922 1207 l
st
2932 1207 m
2937 1207 l
st
610 1164 m
618 1164 l
st
628 1164 m
636 1164 l
st
646 1164 m
654 1164 l
st
664 1164 m
672 1164 l
st
682 1164 m
690 1164 l
st
700 1164 m
708 1164 l
st
718 1164 m
726 1164 l
st
736 1164 m
744 1164 l
st
754 1164 m
762 1164 l
st
772 1164 m
780 1164 l
st
790 1164 m
798 1164 l
st
808 1164 m
816 1164 l
st
826 1164 m
834 1164 l
st
844 1164 m
852 1164 l
st
862 1164 m
870 1164 l
st
880 1164 m
888 1164 l
st
898 1164 m
906 1164 l
st
916 1164 m
924 1164 l
st
934 1164 m
942 1164 l
st
952 1164 m
960 1164 l
st
970 1164 m
978 1164 l
st
988 1164 m
996 1164 l
st
1006 1164 m
1014 1164 l
st
1024 1164 m
1032 1164 l
st
1042 1164 m
1050 1164 l
st
1060 1164 m
1068 1164 l
st
1078 1164 m
1086 1164 l
st
1096 1164 m
1104 1164 l
st
1114 1164 m
1122 1164 l
st
1132 1164 m
1140 1164 l
st
1150 1164 m
1158 1164 l
st
1168 1164 m
1176 1164 l
st
1186 1164 m
1194 1164 l
st
1204 1164 m
1212 1164 l
st
1222 1164 m
1230 1164 l
st
1240 1164 m
1248 1164 l
st
1258 1164 m
1266 1164 l
st
1276 1164 m
1284 1164 l
st
1294 1164 m
1302 1164 l
st
1312 1164 m
1320 1164 l
st
1330 1164 m
1338 1164 l
st
1348 1164 m
1356 1164 l
st
1366 1164 m
1374 1164 l
st
1384 1164 m
1392 1164 l
st
1402 1164 m
1410 1164 l
st
1420 1164 m
1428 1164 l
st
1438 1164 m
1446 1164 l
st
1456 1164 m
1464 1164 l
st
1474 1164 m
1482 1164 l
st
1492 1164 m
1500 1164 l
st
1510 1164 m
1518 1164 l
st
1528 1164 m
1536 1164 l
st
1546 1164 m
1554 1164 l
st
1564 1164 m
1572 1164 l
st
1582 1164 m
1590 1164 l
st
1600 1164 m
1608 1164 l
st
1618 1164 m
1626 1164 l
st
1636 1164 m
1644 1164 l
st
1654 1164 m
1662 1164 l
st
1672 1164 m
1680 1164 l
st
1690 1164 m
1698 1164 l
st
1708 1164 m
1716 1164 l
st
1726 1164 m
1734 1164 l
st
1744 1164 m
1752 1164 l
st
1762 1164 m
1770 1164 l
st
1780 1164 m
1788 1164 l
st
1798 1164 m
1806 1164 l
st
1816 1164 m
1824 1164 l
st
1834 1164 m
1842 1164 l
st
1852 1164 m
1860 1164 l
st
1870 1164 m
1878 1164 l
st
1888 1164 m
1896 1164 l
st
1906 1164 m
1914 1164 l
st
1924 1164 m
1932 1164 l
st
1942 1164 m
1950 1164 l
st
1960 1164 m
1968 1164 l
st
1978 1164 m
1986 1164 l
st
1996 1164 m
2004 1164 l
st
2014 1164 m
2022 1164 l
st
2032 1164 m
2040 1164 l
st
2050 1164 m
2058 1164 l
st
2068 1164 m
2076 1164 l
st
2086 1164 m
2094 1164 l
st
2104 1164 m
2112 1164 l
st
2122 1164 m
2130 1164 l
st
2140 1164 m
2148 1164 l
st
2158 1164 m
2166 1164 l
st
2176 1164 m
2184 1164 l
st
2194 1164 m
2202 1164 l
st
2212 1164 m
2220 1164 l
st
2230 1164 m
2238 1164 l
st
2248 1164 m
2256 1164 l
st
2266 1164 m
2274 1164 l
st
2284 1164 m
2292 1164 l
st
2302 1164 m
2310 1164 l
st
2320 1164 m
2328 1164 l
st
2338 1164 m
2346 1164 l
st
2356 1164 m
2364 1164 l
st
2374 1164 m
2382 1164 l
st
2392 1164 m
2400 1164 l
st
2410 1164 m
2418 1164 l
st
2428 1164 m
2436 1164 l
st
2446 1164 m
2454 1164 l
st
2464 1164 m
2472 1164 l
st
2482 1164 m
2490 1164 l
st
2500 1164 m
2508 1164 l
st
2518 1164 m
2526 1164 l
st
2536 1164 m
2544 1164 l
st
2554 1164 m
2562 1164 l
st
2572 1164 m
2580 1164 l
st
2590 1164 m
2598 1164 l
st
2608 1164 m
2616 1164 l
st
2626 1164 m
2634 1164 l
st
2644 1164 m
2652 1164 l
st
2662 1164 m
2670 1164 l
st
2680 1164 m
2688 1164 l
st
2698 1164 m
2706 1164 l
st
2716 1164 m
2724 1164 l
st
2734 1164 m
2742 1164 l
st
2752 1164 m
2760 1164 l
st
2770 1164 m
2778 1164 l
st
2788 1164 m
2796 1164 l
st
2806 1164 m
2814 1164 l
st
2824 1164 m
2832 1164 l
st
2842 1164 m
2850 1164 l
st
2860 1164 m
2868 1164 l
st
2878 1164 m
2886 1164 l
st
2896 1164 m
2904 1164 l
st
2914 1164 m
2922 1164 l
st
2932 1164 m
2937 1164 l
st
610 869 m
618 869 l
st
628 869 m
636 869 l
st
646 869 m
654 869 l
st
664 869 m
672 869 l
st
682 869 m
690 869 l
st
700 869 m
708 869 l
st
718 869 m
726 869 l
st
736 869 m
744 869 l
st
754 869 m
762 869 l
st
772 869 m
780 869 l
st
790 869 m
798 869 l
st
808 869 m
816 869 l
st
826 869 m
834 869 l
st
844 869 m
852 869 l
st
862 869 m
870 869 l
st
880 869 m
888 869 l
st
898 869 m
906 869 l
st
916 869 m
924 869 l
st
934 869 m
942 869 l
st
952 869 m
960 869 l
st
970 869 m
978 869 l
st
988 869 m
996 869 l
st
1006 869 m
1014 869 l
st
1024 869 m
1032 869 l
st
1042 869 m
1050 869 l
st
1060 869 m
1068 869 l
st
1078 869 m
1086 869 l
st
1096 869 m
1104 869 l
st
1114 869 m
1122 869 l
st
1132 869 m
1140 869 l
st
1150 869 m
1158 869 l
st
1168 869 m
1176 869 l
st
1186 869 m
1194 869 l
st
1204 869 m
1212 869 l
st
1222 869 m
1230 869 l
st
1240 869 m
1248 869 l
st
1258 869 m
1266 869 l
st
1276 869 m
1284 869 l
st
1294 869 m
1302 869 l
st
1312 869 m
1320 869 l
st
1330 869 m
1338 869 l
st
1348 869 m
1356 869 l
st
1366 869 m
1374 869 l
st
1384 869 m
1392 869 l
st
1402 869 m
1410 869 l
st
1420 869 m
1428 869 l
st
1438 869 m
1446 869 l
st
1456 869 m
1464 869 l
st
1474 869 m
1482 869 l
st
1492 869 m
1500 869 l
st
1510 869 m
1518 869 l
st
1528 869 m
1536 869 l
st
1546 869 m
1554 869 l
st
1564 869 m
1572 869 l
st
1582 869 m
1590 869 l
st
1600 869 m
1608 869 l
st
1618 869 m
1626 869 l
st
1636 869 m
1644 869 l
st
1654 869 m
1662 869 l
st
1672 869 m
1680 869 l
st
1690 869 m
1698 869 l
st
1708 869 m
1716 869 l
st
1726 869 m
1734 869 l
st
1744 869 m
1752 869 l
st
1762 869 m
1770 869 l
st
1780 869 m
1788 869 l
st
1798 869 m
1806 869 l
st
1816 869 m
1824 869 l
st
1834 869 m
1842 869 l
st
1852 869 m
1860 869 l
st
1870 869 m
1878 869 l
st
1888 869 m
1896 869 l
st
1906 869 m
1914 869 l
st
1924 869 m
1932 869 l
st
1942 869 m
1950 869 l
st
1960 869 m
1968 869 l
st
1978 869 m
1986 869 l
st
1996 869 m
2004 869 l
st
2014 869 m
2022 869 l
st
2032 869 m
2040 869 l
st
2050 869 m
2058 869 l
st
2068 869 m
2076 869 l
st
2086 869 m
2094 869 l
st
2104 869 m
2112 869 l
st
2122 869 m
2130 869 l
st
2140 869 m
2148 869 l
st
2158 869 m
2166 869 l
st
2176 869 m
2184 869 l
st
2194 869 m
2202 869 l
st
2212 869 m
2220 869 l
st
2230 869 m
2238 869 l
st
2248 869 m
2256 869 l
st
2266 869 m
2274 869 l
st
2284 869 m
2292 869 l
st
2302 869 m
2310 869 l
st
2320 869 m
2328 869 l
st
2338 869 m
2346 869 l
st
2356 869 m
2364 869 l
st
2374 869 m
2382 869 l
st
2392 869 m
2400 869 l
st
2410 869 m
2418 869 l
st
2428 869 m
2436 869 l
st
2446 869 m
2454 869 l
st
2464 869 m
2472 869 l
st
2482 869 m
2490 869 l
st
2500 869 m
2508 869 l
st
2518 869 m
2526 869 l
st
2536 869 m
2544 869 l
st
2554 869 m
2562 869 l
st
2572 869 m
2580 869 l
st
2590 869 m
2598 869 l
st
2608 869 m
2616 869 l
st
2626 869 m
2634 869 l
st
2644 869 m
2652 869 l
st
2662 869 m
2670 869 l
st
2680 869 m
2688 869 l
st
2698 869 m
2706 869 l
st
2716 869 m
2724 869 l
st
2734 869 m
2742 869 l
st
2752 869 m
2760 869 l
st
2770 869 m
2778 869 l
st
2788 869 m
2796 869 l
st
2806 869 m
2814 869 l
st
2824 869 m
2832 869 l
st
2842 869 m
2850 869 l
st
2860 869 m
2868 869 l
st
2878 869 m
2886 869 l
st
2896 869 m
2904 869 l
st
2914 869 m
2922 869 l
st
2932 869 m
2937 869 l
st
610 719 m
618 719 l
st
628 719 m
636 719 l
st
646 719 m
654 719 l
st
664 719 m
672 719 l
st
682 719 m
690 719 l
st
700 719 m
708 719 l
st
718 719 m
726 719 l
st
736 719 m
744 719 l
st
754 719 m
762 719 l
st
772 719 m
780 719 l
st
790 719 m
798 719 l
st
808 719 m
816 719 l
st
826 719 m
834 719 l
st
844 719 m
852 719 l
st
862 719 m
870 719 l
st
880 719 m
888 719 l
st
898 719 m
906 719 l
st
916 719 m
924 719 l
st
934 719 m
942 719 l
st
952 719 m
960 719 l
st
970 719 m
978 719 l
st
988 719 m
996 719 l
st
1006 719 m
1014 719 l
st
1024 719 m
1032 719 l
st
1042 719 m
1050 719 l
st
1060 719 m
1068 719 l
st
1078 719 m
1086 719 l
st
1096 719 m
1104 719 l
st
1114 719 m
1122 719 l
st
1132 719 m
1140 719 l
st
1150 719 m
1158 719 l
st
1168 719 m
1176 719 l
st
1186 719 m
1194 719 l
st
1204 719 m
1212 719 l
st
1222 719 m
1230 719 l
st
1240 719 m
1248 719 l
st
1258 719 m
1266 719 l
st
1276 719 m
1284 719 l
st
1294 719 m
1302 719 l
st
1312 719 m
1320 719 l
st
1330 719 m
1338 719 l
st
1348 719 m
1356 719 l
st
1366 719 m
1374 719 l
st
1384 719 m
1392 719 l
st
1402 719 m
1410 719 l
st
1420 719 m
1428 719 l
st
1438 719 m
1446 719 l
st
1456 719 m
1464 719 l
st
1474 719 m
1482 719 l
st
1492 719 m
1500 719 l
st
1510 719 m
1518 719 l
st
1528 719 m
1536 719 l
st
1546 719 m
1554 719 l
st
1564 719 m
1572 719 l
st
1582 719 m
1590 719 l
st
1600 719 m
1608 719 l
st
1618 719 m
1626 719 l
st
1636 719 m
1644 719 l
st
1654 719 m
1662 719 l
st
1672 719 m
1680 719 l
st
1690 719 m
1698 719 l
st
1708 719 m
1716 719 l
st
1726 719 m
1734 719 l
st
1744 719 m
1752 719 l
st
1762 719 m
1770 719 l
st
1780 719 m
1788 719 l
st
1798 719 m
1806 719 l
st
1816 719 m
1824 719 l
st
1834 719 m
1842 719 l
st
1852 719 m
1860 719 l
st
1870 719 m
1878 719 l
st
1888 719 m
1896 719 l
st
1906 719 m
1914 719 l
st
1924 719 m
1932 719 l
st
1942 719 m
1950 719 l
st
1960 719 m
1968 719 l
st
1978 719 m
1986 719 l
st
1996 719 m
2004 719 l
st
2014 719 m
2022 719 l
st
2032 719 m
2040 719 l
st
2050 719 m
2058 719 l
st
2068 719 m
2076 719 l
st
2086 719 m
2094 719 l
st
2104 719 m
2112 719 l
st
2122 719 m
2130 719 l
st
2140 719 m
2148 719 l
st
2158 719 m
2166 719 l
st
2176 719 m
2184 719 l
st
2194 719 m
2202 719 l
st
2212 719 m
2220 719 l
st
2230 719 m
2238 719 l
st
2248 719 m
2256 719 l
st
2266 719 m
2274 719 l
st
2284 719 m
2292 719 l
st
2302 719 m
2310 719 l
st
2320 719 m
2328 719 l
st
2338 719 m
2346 719 l
st
2356 719 m
2364 719 l
st
2374 719 m
2382 719 l
st
2392 719 m
2400 719 l
st
2410 719 m
2418 719 l
st
2428 719 m
2436 719 l
st
2446 719 m
2454 719 l
st
2464 719 m
2472 719 l
st
2482 719 m
2490 719 l
st
2500 719 m
2508 719 l
st
2518 719 m
2526 719 l
st
2536 719 m
2544 719 l
st
2554 719 m
2562 719 l
st
2572 719 m
2580 719 l
st
2590 719 m
2598 719 l
st
2608 719 m
2616 719 l
st
2626 719 m
2634 719 l
st
2644 719 m
2652 719 l
st
2662 719 m
2670 719 l
st
2680 719 m
2688 719 l
st
2698 719 m
2706 719 l
st
2716 719 m
2724 719 l
st
2734 719 m
2742 719 l
st
2752 719 m
2760 719 l
st
2770 719 m
2778 719 l
st
2788 719 m
2796 719 l
st
2806 719 m
2814 719 l
st
2824 719 m
2832 719 l
st
2842 719 m
2850 719 l
st
2860 719 m
2868 719 l
st
2878 719 m
2886 719 l
st
2896 719 m
2904 719 l
st
2914 719 m
2922 719 l
st
2932 719 m
2937 719 l
st
610 613 m
618 613 l
st
628 613 m
636 613 l
st
646 613 m
654 613 l
st
664 613 m
672 613 l
st
682 613 m
690 613 l
st
700 613 m
708 613 l
st
718 613 m
726 613 l
st
736 613 m
744 613 l
st
754 613 m
762 613 l
st
772 613 m
780 613 l
st
790 613 m
798 613 l
st
808 613 m
816 613 l
st
826 613 m
834 613 l
st
844 613 m
852 613 l
st
862 613 m
870 613 l
st
880 613 m
888 613 l
st
898 613 m
906 613 l
st
916 613 m
924 613 l
st
934 613 m
942 613 l
st
952 613 m
960 613 l
st
970 613 m
978 613 l
st
988 613 m
996 613 l
st
1006 613 m
1014 613 l
st
1024 613 m
1032 613 l
st
1042 613 m
1050 613 l
st
1060 613 m
1068 613 l
st
1078 613 m
1086 613 l
st
1096 613 m
1104 613 l
st
1114 613 m
1122 613 l
st
1132 613 m
1140 613 l
st
1150 613 m
1158 613 l
st
1168 613 m
1176 613 l
st
1186 613 m
1194 613 l
st
1204 613 m
1212 613 l
st
1222 613 m
1230 613 l
st
1240 613 m
1248 613 l
st
1258 613 m
1266 613 l
st
1276 613 m
1284 613 l
st
1294 613 m
1302 613 l
st
1312 613 m
1320 613 l
st
1330 613 m
1338 613 l
st
1348 613 m
1356 613 l
st
1366 613 m
1374 613 l
st
1384 613 m
1392 613 l
st
1402 613 m
1410 613 l
st
1420 613 m
1428 613 l
st
1438 613 m
1446 613 l
st
1456 613 m
1464 613 l
st
1474 613 m
1482 613 l
st
1492 613 m
1500 613 l
st
1510 613 m
1518 613 l
st
1528 613 m
1536 613 l
st
1546 613 m
1554 613 l
st
1564 613 m
1572 613 l
st
1582 613 m
1590 613 l
st
1600 613 m
1608 613 l
st
1618 613 m
1626 613 l
st
1636 613 m
1644 613 l
st
1654 613 m
1662 613 l
st
1672 613 m
1680 613 l
st
1690 613 m
1698 613 l
st
1708 613 m
1716 613 l
st
1726 613 m
1734 613 l
st
1744 613 m
1752 613 l
st
1762 613 m
1770 613 l
st
1780 613 m
1788 613 l
st
1798 613 m
1806 613 l
st
1816 613 m
1824 613 l
st
1834 613 m
1842 613 l
st
1852 613 m
1860 613 l
st
1870 613 m
1878 613 l
st
1888 613 m
1896 613 l
st
1906 613 m
1914 613 l
st
1924 613 m
1932 613 l
st
1942 613 m
1950 613 l
st
1960 613 m
1968 613 l
st
1978 613 m
1986 613 l
st
1996 613 m
2004 613 l
st
2014 613 m
2022 613 l
st
2032 613 m
2040 613 l
st
2050 613 m
2058 613 l
st
2068 613 m
2076 613 l
st
2086 613 m
2094 613 l
st
2104 613 m
2112 613 l
st
2122 613 m
2130 613 l
st
2140 613 m
2148 613 l
st
2158 613 m
2166 613 l
st
2176 613 m
2184 613 l
st
2194 613 m
2202 613 l
st
2212 613 m
2220 613 l
st
2230 613 m
2238 613 l
st
2248 613 m
2256 613 l
st
2266 613 m
2274 613 l
st
2284 613 m
2292 613 l
st
2302 613 m
2310 613 l
st
2320 613 m
2328 613 l
st
2338 613 m
2346 613 l
st
2356 613 m
2364 613 l
st
2374 613 m
2382 613 l
st
2392 613 m
2400 613 l
st
2410 613 m
2418 613 l
st
2428 613 m
2436 613 l
st
2446 613 m
2454 613 l
st
2464 613 m
2472 613 l
st
2482 613 m
2490 613 l
st
2500 613 m
2508 613 l
st
2518 613 m
2526 613 l
st
2536 613 m
2544 613 l
st
2554 613 m
2562 613 l
st
2572 613 m
2580 613 l
st
2590 613 m
2598 613 l
st
2608 613 m
2616 613 l
st
2626 613 m
2634 613 l
st
2644 613 m
2652 613 l
st
2662 613 m
2670 613 l
st
2680 613 m
2688 613 l
st
2698 613 m
2706 613 l
st
2716 613 m
2724 613 l
st
2734 613 m
2742 613 l
st
2752 613 m
2760 613 l
st
2770 613 m
2778 613 l
st
2788 613 m
2796 613 l
st
2806 613 m
2814 613 l
st
2824 613 m
2832 613 l
st
2842 613 m
2850 613 l
st
2860 613 m
2868 613 l
st
2878 613 m
2886 613 l
st
2896 613 m
2904 613 l
st
2914 613 m
2922 613 l
st
2932 613 m
2937 613 l
st
610 531 m
618 531 l
st
628 531 m
636 531 l
st
646 531 m
654 531 l
st
664 531 m
672 531 l
st
682 531 m
690 531 l
st
700 531 m
708 531 l
st
718 531 m
726 531 l
st
736 531 m
744 531 l
st
754 531 m
762 531 l
st
772 531 m
780 531 l
st
790 531 m
798 531 l
st
808 531 m
816 531 l
st
826 531 m
834 531 l
st
844 531 m
852 531 l
st
862 531 m
870 531 l
st
880 531 m
888 531 l
st
898 531 m
906 531 l
st
916 531 m
924 531 l
st
934 531 m
942 531 l
st
952 531 m
960 531 l
st
970 531 m
978 531 l
st
988 531 m
996 531 l
st
1006 531 m
1014 531 l
st
1024 531 m
1032 531 l
st
1042 531 m
1050 531 l
st
1060 531 m
1068 531 l
st
1078 531 m
1086 531 l
st
1096 531 m
1104 531 l
st
1114 531 m
1122 531 l
st
1132 531 m
1140 531 l
st
1150 531 m
1158 531 l
st
1168 531 m
1176 531 l
st
1186 531 m
1194 531 l
st
1204 531 m
1212 531 l
st
1222 531 m
1230 531 l
st
1240 531 m
1248 531 l
st
1258 531 m
1266 531 l
st
1276 531 m
1284 531 l
st
1294 531 m
1302 531 l
st
1312 531 m
1320 531 l
st
1330 531 m
1338 531 l
st
1348 531 m
1356 531 l
st
1366 531 m
1374 531 l
st
1384 531 m
1392 531 l
st
1402 531 m
1410 531 l
st
1420 531 m
1428 531 l
st
1438 531 m
1446 531 l
st
1456 531 m
1464 531 l
st
1474 531 m
1482 531 l
st
1492 531 m
1500 531 l
st
1510 531 m
1518 531 l
st
1528 531 m
1536 531 l
st
1546 531 m
1554 531 l
st
1564 531 m
1572 531 l
st
1582 531 m
1590 531 l
st
1600 531 m
1608 531 l
st
1618 531 m
1626 531 l
st
1636 531 m
1644 531 l
st
1654 531 m
1662 531 l
st
1672 531 m
1680 531 l
st
1690 531 m
1698 531 l
st
1708 531 m
1716 531 l
st
1726 531 m
1734 531 l
st
1744 531 m
1752 531 l
st
1762 531 m
1770 531 l
st
1780 531 m
1788 531 l
st
1798 531 m
1806 531 l
st
1816 531 m
1824 531 l
st
1834 531 m
1842 531 l
st
1852 531 m
1860 531 l
st
1870 531 m
1878 531 l
st
1888 531 m
1896 531 l
st
1906 531 m
1914 531 l
st
1924 531 m
1932 531 l
st
1942 531 m
1950 531 l
st
1960 531 m
1968 531 l
st
1978 531 m
1986 531 l
st
1996 531 m
2004 531 l
st
2014 531 m
2022 531 l
st
2032 531 m
2040 531 l
st
2050 531 m
2058 531 l
st
2068 531 m
2076 531 l
st
2086 531 m
2094 531 l
st
2104 531 m
2112 531 l
st
2122 531 m
2130 531 l
st
2140 531 m
2148 531 l
st
2158 531 m
2166 531 l
st
2176 531 m
2184 531 l
st
2194 531 m
2202 531 l
st
2212 531 m
2220 531 l
st
2230 531 m
2238 531 l
st
2248 531 m
2256 531 l
st
2266 531 m
2274 531 l
st
2284 531 m
2292 531 l
st
2302 531 m
2310 531 l
st
2320 531 m
2328 531 l
st
2338 531 m
2346 531 l
st
2356 531 m
2364 531 l
st
2374 531 m
2382 531 l
st
2392 531 m
2400 531 l
st
2410 531 m
2418 531 l
st
2428 531 m
2436 531 l
st
2446 531 m
2454 531 l
st
2464 531 m
2472 531 l
st
2482 531 m
2490 531 l
st
2500 531 m
2508 531 l
st
2518 531 m
2526 531 l
st
2536 531 m
2544 531 l
st
2554 531 m
2562 531 l
st
2572 531 m
2580 531 l
st
2590 531 m
2598 531 l
st
2608 531 m
2616 531 l
st
2626 531 m
2634 531 l
st
2644 531 m
2652 531 l
st
2662 531 m
2670 531 l
st
2680 531 m
2688 531 l
st
2698 531 m
2706 531 l
st
2716 531 m
2724 531 l
st
2734 531 m
2742 531 l
st
2752 531 m
2760 531 l
st
2770 531 m
2778 531 l
st
2788 531 m
2796 531 l
st
2806 531 m
2814 531 l
st
2824 531 m
2832 531 l
st
2842 531 m
2850 531 l
st
2860 531 m
2868 531 l
st
2878 531 m
2886 531 l
st
2896 531 m
2904 531 l
st
2914 531 m
2922 531 l
st
2932 531 m
2937 531 l
st
610 464 m
618 464 l
st
628 464 m
636 464 l
st
646 464 m
654 464 l
st
664 464 m
672 464 l
st
682 464 m
690 464 l
st
700 464 m
708 464 l
st
718 464 m
726 464 l
st
736 464 m
744 464 l
st
754 464 m
762 464 l
st
772 464 m
780 464 l
st
790 464 m
798 464 l
st
808 464 m
816 464 l
st
826 464 m
834 464 l
st
844 464 m
852 464 l
st
862 464 m
870 464 l
st
880 464 m
888 464 l
st
898 464 m
906 464 l
st
916 464 m
924 464 l
st
934 464 m
942 464 l
st
952 464 m
960 464 l
st
970 464 m
978 464 l
st
988 464 m
996 464 l
st
1006 464 m
1014 464 l
st
1024 464 m
1032 464 l
st
1042 464 m
1050 464 l
st
1060 464 m
1068 464 l
st
1078 464 m
1086 464 l
st
1096 464 m
1104 464 l
st
1114 464 m
1122 464 l
st
1132 464 m
1140 464 l
st
1150 464 m
1158 464 l
st
1168 464 m
1176 464 l
st
1186 464 m
1194 464 l
st
1204 464 m
1212 464 l
st
1222 464 m
1230 464 l
st
1240 464 m
1248 464 l
st
1258 464 m
1266 464 l
st
1276 464 m
1284 464 l
st
1294 464 m
1302 464 l
st
1312 464 m
1320 464 l
st
1330 464 m
1338 464 l
st
1348 464 m
1356 464 l
st
1366 464 m
1374 464 l
st
1384 464 m
1392 464 l
st
1402 464 m
1410 464 l
st
1420 464 m
1428 464 l
st
1438 464 m
1446 464 l
st
1456 464 m
1464 464 l
st
1474 464 m
1482 464 l
st
1492 464 m
1500 464 l
st
1510 464 m
1518 464 l
st
1528 464 m
1536 464 l
st
1546 464 m
1554 464 l
st
1564 464 m
1572 464 l
st
1582 464 m
1590 464 l
st
1600 464 m
1608 464 l
st
1618 464 m
1626 464 l
st
1636 464 m
1644 464 l
st
1654 464 m
1662 464 l
st
1672 464 m
1680 464 l
st
1690 464 m
1698 464 l
st
1708 464 m
1716 464 l
st
1726 464 m
1734 464 l
st
1744 464 m
1752 464 l
st
1762 464 m
1770 464 l
st
1780 464 m
1788 464 l
st
1798 464 m
1806 464 l
st
1816 464 m
1824 464 l
st
1834 464 m
1842 464 l
st
1852 464 m
1860 464 l
st
1870 464 m
1878 464 l
st
1888 464 m
1896 464 l
st
1906 464 m
1914 464 l
st
1924 464 m
1932 464 l
st
1942 464 m
1950 464 l
st
1960 464 m
1968 464 l
st
1978 464 m
1986 464 l
st
1996 464 m
2004 464 l
st
2014 464 m
2022 464 l
st
2032 464 m
2040 464 l
st
2050 464 m
2058 464 l
st
2068 464 m
2076 464 l
st
2086 464 m
2094 464 l
st
2104 464 m
2112 464 l
st
2122 464 m
2130 464 l
st
2140 464 m
2148 464 l
st
2158 464 m
2166 464 l
st
2176 464 m
2184 464 l
st
2194 464 m
2202 464 l
st
2212 464 m
2220 464 l
st
2230 464 m
2238 464 l
st
2248 464 m
2256 464 l
st
2266 464 m
2274 464 l
st
2284 464 m
2292 464 l
st
2302 464 m
2310 464 l
st
2320 464 m
2328 464 l
st
2338 464 m
2346 464 l
st
2356 464 m
2364 464 l
st
2374 464 m
2382 464 l
st
2392 464 m
2400 464 l
st
2410 464 m
2418 464 l
st
2428 464 m
2436 464 l
st
2446 464 m
2454 464 l
st
2464 464 m
2472 464 l
st
2482 464 m
2490 464 l
st
2500 464 m
2508 464 l
st
2518 464 m
2526 464 l
st
2536 464 m
2544 464 l
st
2554 464 m
2562 464 l
st
2572 464 m
2580 464 l
st
2590 464 m
2598 464 l
st
2608 464 m
2616 464 l
st
2626 464 m
2634 464 l
st
2644 464 m
2652 464 l
st
2662 464 m
2670 464 l
st
2680 464 m
2688 464 l
st
2698 464 m
2706 464 l
st
2716 464 m
2724 464 l
st
2734 464 m
2742 464 l
st
2752 464 m
2760 464 l
st
2770 464 m
2778 464 l
st
2788 464 m
2796 464 l
st
2806 464 m
2814 464 l
st
2824 464 m
2832 464 l
st
2842 464 m
2850 464 l
st
2860 464 m
2868 464 l
st
2878 464 m
2886 464 l
st
2896 464 m
2904 464 l
st
2914 464 m
2922 464 l
st
2932 464 m
2937 464 l
st
610 407 m
618 407 l
st
628 407 m
636 407 l
st
646 407 m
654 407 l
st
664 407 m
672 407 l
st
682 407 m
690 407 l
st
700 407 m
708 407 l
st
718 407 m
726 407 l
st
736 407 m
744 407 l
st
754 407 m
762 407 l
st
772 407 m
780 407 l
st
790 407 m
798 407 l
st
808 407 m
816 407 l
st
826 407 m
834 407 l
st
844 407 m
852 407 l
st
862 407 m
870 407 l
st
880 407 m
888 407 l
st
898 407 m
906 407 l
st
916 407 m
924 407 l
st
934 407 m
942 407 l
st
952 407 m
960 407 l
st
970 407 m
978 407 l
st
988 407 m
996 407 l
st
1006 407 m
1014 407 l
st
1024 407 m
1032 407 l
st
1042 407 m
1050 407 l
st
1060 407 m
1068 407 l
st
1078 407 m
1086 407 l
st
1096 407 m
1104 407 l
st
1114 407 m
1122 407 l
st
1132 407 m
1140 407 l
st
1150 407 m
1158 407 l
st
1168 407 m
1176 407 l
st
1186 407 m
1194 407 l
st
1204 407 m
1212 407 l
st
1222 407 m
1230 407 l
st
1240 407 m
1248 407 l
st
1258 407 m
1266 407 l
st
1276 407 m
1284 407 l
st
1294 407 m
1302 407 l
st
1312 407 m
1320 407 l
st
1330 407 m
1338 407 l
st
1348 407 m
1356 407 l
st
1366 407 m
1374 407 l
st
1384 407 m
1392 407 l
st
1402 407 m
1410 407 l
st
1420 407 m
1428 407 l
st
1438 407 m
1446 407 l
st
1456 407 m
1464 407 l
st
1474 407 m
1482 407 l
st
1492 407 m
1500 407 l
st
1510 407 m
1518 407 l
st
1528 407 m
1536 407 l
st
1546 407 m
1554 407 l
st
1564 407 m
1572 407 l
st
1582 407 m
1590 407 l
st
1600 407 m
1608 407 l
st
1618 407 m
1626 407 l
st
1636 407 m
1644 407 l
st
1654 407 m
1662 407 l
st
1672 407 m
1680 407 l
st
1690 407 m
1698 407 l
st
1708 407 m
1716 407 l
st
1726 407 m
1734 407 l
st
1744 407 m
1752 407 l
st
1762 407 m
1770 407 l
st
1780 407 m
1788 407 l
st
1798 407 m
1806 407 l
st
1816 407 m
1824 407 l
st
1834 407 m
1842 407 l
st
1852 407 m
1860 407 l
st
1870 407 m
1878 407 l
st
1888 407 m
1896 407 l
st
1906 407 m
1914 407 l
st
1924 407 m
1932 407 l
st
1942 407 m
1950 407 l
st
1960 407 m
1968 407 l
st
1978 407 m
1986 407 l
st
1996 407 m
2004 407 l
st
2014 407 m
2022 407 l
st
2032 407 m
2040 407 l
st
2050 407 m
2058 407 l
st
2068 407 m
2076 407 l
st
2086 407 m
2094 407 l
st
2104 407 m
2112 407 l
st
2122 407 m
2130 407 l
st
2140 407 m
2148 407 l
st
2158 407 m
2166 407 l
st
2176 407 m
2184 407 l
st
2194 407 m
2202 407 l
st
2212 407 m
2220 407 l
st
2230 407 m
2238 407 l
st
2248 407 m
2256 407 l
st
2266 407 m
2274 407 l
st
2284 407 m
2292 407 l
st
2302 407 m
2310 407 l
st
2320 407 m
2328 407 l
st
2338 407 m
2346 407 l
st
2356 407 m
2364 407 l
st
2374 407 m
2382 407 l
st
2392 407 m
2400 407 l
st
2410 407 m
2418 407 l
st
2428 407 m
2436 407 l
st
2446 407 m
2454 407 l
st
2464 407 m
2472 407 l
st
2482 407 m
2490 407 l
st
2500 407 m
2508 407 l
st
2518 407 m
2526 407 l
st
2536 407 m
2544 407 l
st
2554 407 m
2562 407 l
st
2572 407 m
2580 407 l
st
2590 407 m
2598 407 l
st
2608 407 m
2616 407 l
st
2626 407 m
2634 407 l
st
2644 407 m
2652 407 l
st
2662 407 m
2670 407 l
st
2680 407 m
2688 407 l
st
2698 407 m
2706 407 l
st
2716 407 m
2724 407 l
st
2734 407 m
2742 407 l
st
2752 407 m
2760 407 l
st
2770 407 m
2778 407 l
st
2788 407 m
2796 407 l
st
2806 407 m
2814 407 l
st
2824 407 m
2832 407 l
st
2842 407 m
2850 407 l
st
2860 407 m
2868 407 l
st
2878 407 m
2886 407 l
st
2896 407 m
2904 407 l
st
2914 407 m
2922 407 l
st
2932 407 m
2937 407 l
st
610 357 m
618 357 l
st
628 357 m
636 357 l
st
646 357 m
654 357 l
st
664 357 m
672 357 l
st
682 357 m
690 357 l
st
700 357 m
708 357 l
st
718 357 m
726 357 l
st
736 357 m
744 357 l
st
754 357 m
762 357 l
st
772 357 m
780 357 l
st
790 357 m
798 357 l
st
808 357 m
816 357 l
st
826 357 m
834 357 l
st
844 357 m
852 357 l
st
862 357 m
870 357 l
st
880 357 m
888 357 l
st
898 357 m
906 357 l
st
916 357 m
924 357 l
st
934 357 m
942 357 l
st
952 357 m
960 357 l
st
970 357 m
978 357 l
st
988 357 m
996 357 l
st
1006 357 m
1014 357 l
st
1024 357 m
1032 357 l
st
1042 357 m
1050 357 l
st
1060 357 m
1068 357 l
st
1078 357 m
1086 357 l
st
1096 357 m
1104 357 l
st
1114 357 m
1122 357 l
st
1132 357 m
1140 357 l
st
1150 357 m
1158 357 l
st
1168 357 m
1176 357 l
st
1186 357 m
1194 357 l
st
1204 357 m
1212 357 l
st
1222 357 m
1230 357 l
st
1240 357 m
1248 357 l
st
1258 357 m
1266 357 l
st
1276 357 m
1284 357 l
st
1294 357 m
1302 357 l
st
1312 357 m
1320 357 l
st
1330 357 m
1338 357 l
st
1348 357 m
1356 357 l
st
1366 357 m
1374 357 l
st
1384 357 m
1392 357 l
st
1402 357 m
1410 357 l
st
1420 357 m
1428 357 l
st
1438 357 m
1446 357 l
st
1456 357 m
1464 357 l
st
1474 357 m
1482 357 l
st
1492 357 m
1500 357 l
st
1510 357 m
1518 357 l
st
1528 357 m
1536 357 l
st
1546 357 m
1554 357 l
st
1564 357 m
1572 357 l
st
1582 357 m
1590 357 l
st
1600 357 m
1608 357 l
st
1618 357 m
1626 357 l
st
1636 357 m
1644 357 l
st
1654 357 m
1662 357 l
st
1672 357 m
1680 357 l
st
1690 357 m
1698 357 l
st
1708 357 m
1716 357 l
st
1726 357 m
1734 357 l
st
1744 357 m
1752 357 l
st
1762 357 m
1770 357 l
st
1780 357 m
1788 357 l
st
1798 357 m
1806 357 l
st
1816 357 m
1824 357 l
st
1834 357 m
1842 357 l
st
1852 357 m
1860 357 l
st
1870 357 m
1878 357 l
st
1888 357 m
1896 357 l
st
1906 357 m
1914 357 l
st
1924 357 m
1932 357 l
st
1942 357 m
1950 357 l
st
1960 357 m
1968 357 l
st
1978 357 m
1986 357 l
st
1996 357 m
2004 357 l
st
2014 357 m
2022 357 l
st
2032 357 m
2040 357 l
st
2050 357 m
2058 357 l
st
2068 357 m
2076 357 l
st
2086 357 m
2094 357 l
st
2104 357 m
2112 357 l
st
2122 357 m
2130 357 l
st
2140 357 m
2148 357 l
st
2158 357 m
2166 357 l
st
2176 357 m
2184 357 l
st
2194 357 m
2202 357 l
st
2212 357 m
2220 357 l
st
2230 357 m
2238 357 l
st
2248 357 m
2256 357 l
st
2266 357 m
2274 357 l
st
2284 357 m
2292 357 l
st
2302 357 m
2310 357 l
st
2320 357 m
2328 357 l
st
2338 357 m
2346 357 l
st
2356 357 m
2364 357 l
st
2374 357 m
2382 357 l
st
2392 357 m
2400 357 l
st
2410 357 m
2418 357 l
st
2428 357 m
2436 357 l
st
2446 357 m
2454 357 l
st
2464 357 m
2472 357 l
st
2482 357 m
2490 357 l
st
2500 357 m
2508 357 l
st
2518 357 m
2526 357 l
st
2536 357 m
2544 357 l
st
2554 357 m
2562 357 l
st
2572 357 m
2580 357 l
st
2590 357 m
2598 357 l
st
2608 357 m
2616 357 l
st
2626 357 m
2634 357 l
st
2644 357 m
2652 357 l
st
2662 357 m
2670 357 l
st
2680 357 m
2688 357 l
st
2698 357 m
2706 357 l
st
2716 357 m
2724 357 l
st
2734 357 m
2742 357 l
st
2752 357 m
2760 357 l
st
2770 357 m
2778 357 l
st
2788 357 m
2796 357 l
st
2806 357 m
2814 357 l
st
2824 357 m
2832 357 l
st
2842 357 m
2850 357 l
st
2860 357 m
2868 357 l
st
2878 357 m
2886 357 l
st
2896 357 m
2904 357 l
st
2914 357 m
2922 357 l
st
2932 357 m
2937 357 l
st
610 314 m
618 314 l
st
628 314 m
636 314 l
st
646 314 m
654 314 l
st
664 314 m
672 314 l
st
682 314 m
690 314 l
st
700 314 m
708 314 l
st
718 314 m
726 314 l
st
736 314 m
744 314 l
st
754 314 m
762 314 l
st
772 314 m
780 314 l
st
790 314 m
798 314 l
st
808 314 m
816 314 l
st
826 314 m
834 314 l
st
844 314 m
852 314 l
st
862 314 m
870 314 l
st
880 314 m
888 314 l
st
898 314 m
906 314 l
st
916 314 m
924 314 l
st
934 314 m
942 314 l
st
952 314 m
960 314 l
st
970 314 m
978 314 l
st
988 314 m
996 314 l
st
1006 314 m
1014 314 l
st
1024 314 m
1032 314 l
st
1042 314 m
1050 314 l
st
1060 314 m
1068 314 l
st
1078 314 m
1086 314 l
st
1096 314 m
1104 314 l
st
1114 314 m
1122 314 l
st
1132 314 m
1140 314 l
st
1150 314 m
1158 314 l
st
1168 314 m
1176 314 l
st
1186 314 m
1194 314 l
st
1204 314 m
1212 314 l
st
1222 314 m
1230 314 l
st
1240 314 m
1248 314 l
st
1258 314 m
1266 314 l
st
1276 314 m
1284 314 l
st
1294 314 m
1302 314 l
st
1312 314 m
1320 314 l
st
1330 314 m
1338 314 l
st
1348 314 m
1356 314 l
st
1366 314 m
1374 314 l
st
1384 314 m
1392 314 l
st
1402 314 m
1410 314 l
st
1420 314 m
1428 314 l
st
1438 314 m
1446 314 l
st
1456 314 m
1464 314 l
st
1474 314 m
1482 314 l
st
1492 314 m
1500 314 l
st
1510 314 m
1518 314 l
st
1528 314 m
1536 314 l
st
1546 314 m
1554 314 l
st
1564 314 m
1572 314 l
st
1582 314 m
1590 314 l
st
1600 314 m
1608 314 l
st
1618 314 m
1626 314 l
st
1636 314 m
1644 314 l
st
1654 314 m
1662 314 l
st
1672 314 m
1680 314 l
st
1690 314 m
1698 314 l
st
1708 314 m
1716 314 l
st
1726 314 m
1734 314 l
st
1744 314 m
1752 314 l
st
1762 314 m
1770 314 l
st
1780 314 m
1788 314 l
st
1798 314 m
1806 314 l
st
1816 314 m
1824 314 l
st
1834 314 m
1842 314 l
st
1852 314 m
1860 314 l
st
1870 314 m
1878 314 l
st
1888 314 m
1896 314 l
st
1906 314 m
1914 314 l
st
1924 314 m
1932 314 l
st
1942 314 m
1950 314 l
st
1960 314 m
1968 314 l
st
1978 314 m
1986 314 l
st
1996 314 m
2004 314 l
st
2014 314 m
2022 314 l
st
2032 314 m
2040 314 l
st
2050 314 m
2058 314 l
st
2068 314 m
2076 314 l
st
2086 314 m
2094 314 l
st
2104 314 m
2112 314 l
st
2122 314 m
2130 314 l
st
2140 314 m
2148 314 l
st
2158 314 m
2166 314 l
st
2176 314 m
2184 314 l
st
2194 314 m
2202 314 l
st
2212 314 m
2220 314 l
st
2230 314 m
2238 314 l
st
2248 314 m
2256 314 l
st
2266 314 m
2274 314 l
st
2284 314 m
2292 314 l
st
2302 314 m
2310 314 l
st
2320 314 m
2328 314 l
st
2338 314 m
2346 314 l
st
2356 314 m
2364 314 l
st
2374 314 m
2382 314 l
st
2392 314 m
2400 314 l
st
2410 314 m
2418 314 l
st
2428 314 m
2436 314 l
st
2446 314 m
2454 314 l
st
2464 314 m
2472 314 l
st
2482 314 m
2490 314 l
st
2500 314 m
2508 314 l
st
2518 314 m
2526 314 l
st
2536 314 m
2544 314 l
st
2554 314 m
2562 314 l
st
2572 314 m
2580 314 l
st
2590 314 m
2598 314 l
st
2608 314 m
2616 314 l
st
2626 314 m
2634 314 l
st
2644 314 m
2652 314 l
st
2662 314 m
2670 314 l
st
2680 314 m
2688 314 l
st
2698 314 m
2706 314 l
st
2716 314 m
2724 314 l
st
2734 314 m
2742 314 l
st
2752 314 m
2760 314 l
st
2770 314 m
2778 314 l
st
2788 314 m
2796 314 l
st
2806 314 m
2814 314 l
st
2824 314 m
2832 314 l
st
2842 314 m
2850 314 l
st
2860 314 m
2868 314 l
st
2878 314 m
2886 314 l
st
2896 314 m
2904 314 l
st
2914 314 m
2922 314 l
st
2932 314 m
2937 314 l
st
776 1975 m
776 275 l
3 sw
0.502 0.502 0.502 rgb
st
1109 1975 m
1109 275 l
st
1441 1975 m
1441 275 l
st
1774 1975 m
1774 275 l
st
2107 1975 m
2107 275 l
st
2439 1975 m
2439 275 l
st
2772 1975 m
2772 275 l
st
610 1125 m
2938 1125 l
st
gs
1 -1 sc
0 0 0 rgb
/MC1_Arial 75 self 713 -2091 m
(400)[42 42 42 ] xs
1 -1 sc
gr
gs
1 -1 sc
0 0 0 rgb
/MC1_Arial 75 self 1046 -2091 m
(450)[42 42 42 ] xs
1 -1 sc
gr
gs
1 -1 sc
0 0 0 rgb
/MC1_Arial 75 self 1378 -2091 m
(500)[42 42 42 ] xs
1 -1 sc
gr
gs
1 -1 sc
0 0 0 rgb
/MC1_Arial 75 self 1711 -2091 m
(550)[42 42 42 ] xs
1 -1 sc
gr
gs
1 -1 sc
0 0 0 rgb
/MC1_Arial 75 self 2044 -2091 m
(600)[42 42 42 ] xs
1 -1 sc
gr
gs
1 -1 sc
0 0 0 rgb
/MC1_Arial 75 self 2376 -2091 m
(650)[42 42 42 ] xs
1 -1 sc
gr
gs
1 -1 sc
0 0 0 rgb
/MC1_Arial 75 self 2709 -2091 m
(700)[42 42 42 ] xs
1 -1 sc
gr
gs
1 -1 sc
0 0 0 rgb
/MC1_Arial 75 self 469 -1995 m
(10)[42 42 ] xs
1 -1 sc
gr
gs
1 -1 sc
0 0 0 rgb
/MC1_Arial 75 self 427 -1145 m
(100)[42 42 42 ] xs
1 -1 sc
gr
gs
1 -1 sc
0 0 0 rgb
/MC1_Arial 75 self 385 -295 m
(1000)[42 42 42 42 ] xs
1 -1 sc
gr
610 1992 m
610 1975 l
7 sw
0 0 0 rgb
st
776 2009 m
776 1975 l
st
943 1992 m
943 1975 l
st
1109 2009 m
1109 1975 l
st
1275 1992 m
1275 1975 l
st
1441 2009 m
1441 1975 l
st
1608 1992 m
1608 1975 l
st
1774 2009 m
1774 1975 l
st
1940 1992 m
1940 1975 l
st
2107 2009 m
2107 1975 l
st
2273 1992 m
2273 1975 l
st
2439 2009 m
2439 1975 l
st
2605 1992 m
2605 1975 l
st
2772 2009 m
2772 1975 l
st
2938 1992 m
2938 1975 l
st
610 1975 m
2938 1975 l
st
576 1975 m
610 1975 l
st
593 1719 m
610 1719 l
st
593 1569 m
610 1569 l
st
593 1463 m
610 1463 l
st
593 1381 m
610 1381 l
st
593 1314 m
610 1314 l
st
593 1257 m
610 1257 l
st
593 1207 m
610 1207 l
st
593 1164 m
610 1164 l
st
576 1125 m
610 1125 l
st
593 869 m
610 869 l
st
593 719 m
610 719 l
st
593 613 m
610 613 l
st
593 531 m
610 531 l
st
593 464 m
610 464 l
st
593 407 m
610 407 l
st
593 357 m
610 357 l
st
593 314 m
610 314 l
st
576 275 m
610 275 l
st
610 1975 m
610 275 l
st
gs
pathproc 610 275 2329 1701 np rectpath
/eocl cland
np exec
851 1740 36 36 rectfill
610 275 m
3 sw
851 1740 36 36 rectstroke
2022 1650 36 36 rectfill
2022 1650 36 36 rectstroke
2694 1456 36 36 rectfill
2694 1456 36 36 rectstroke
gr
gs
pathproc 610 275 2329 1701 np rectpath
/eocl cland
np exec
np
869 1320 21 0 360  a
cp
gs
1 0 0 rgb
eofi
gr
3 sw
1 0 0 rgb
st
np
2040 935 21 0 360  a
cp
gs
eofi
gr
st
np
2160 900 21 0 360  a
cp
gs
eofi
gr
st
np
2712 796 21 0 360  a
cp
gs
eofi
gr
st
gr
gs
pathproc 610 275 2329 1701 np rectpath
/eocl cland
np exec
869 1039 m
893 1081 l
844 1081 l
cp
gs
0 1 0 rgb
eofi
gr
3 sw
0 1 0 rgb
st
2040 554 m
2064 596 l
2015 596 l
cp
gs
eofi
gr
st
2160 628 m
2184 670 l
2135 670 l
cp
gs
eofi
gr
st
2712 405 m
2736 447 l
2687 447 l
cp
gs
eofi
gr
st
gr
gs
pathproc 610 275 2329 1701 np rectpath
/eocl cland
np exec
893 1374 m
869 1416 l
844 1374 l
cp
gs
0 0 1 rgb
eofi
gr
3 sw
0 0 1 rgb
st
2064 1031 m
2040 1073 l
2015 1031 l
cp
gs
eofi
gr
st
2184 950 m
2160 992 l
2135 950 l
cp
gs
eofi
gr
st
2736 876 m
2712 918 l
2687 876 l
cp
gs
eofi
gr
st
gr
926 297 m
1588 297 l
1588 718 l
926 718 l
cp
gs
1 1 1 rgb
eofi
gr
3 sw
st
gs
gs
1021 339 36 36 rectfill
926 718 m
1021 339 36 36 rectstroke
gr
1 -1 sc
/MC2_Arial 84 self 1133 -385 m
( experiment)[23 47 43 47 47 28 19 71 47 47 23 ] xs
1 -1 sc
gs
np
1039 460 20 0 360  a
cp
gs
1 0 0 rgb
eofi
gr
1 0 0 rgb
st
gr
1 -1 sc
1133 -488 m
( all)[23 47 19 19 ] xs
1 -1 sc
gs
1039 535 m
1063 577 l
1014 577 l
cp
gs
0 1 0 rgb
eofi
gr
0 1 0 rgb
st
gr
1 -1 sc
1133 -591 m
( free)[23 24 28 47 47 ] xs
1 -1 sc
gs
1063 652 m
1039 694 l
1014 652 l
cp
gs
0 0 1 rgb
eofi
gr
0 0 1 rgb
st
gr
1 -1 sc
1133 -694 m
( trapped)[23 23 28 47 47 47 47 47 ] xs
1 -1 sc
gr
gs
gs
1 -1 sc
319 -1380 tr
90 ro
/MC3_Arial 91 self 0 0 m
(A\(mm/s)[61 30 76 76 25 46 ] xs
1 -1 sc
gr
gs
1 -1 sc
274 -1066 tr
90 ro
/MC3_Arial 55 self 0 0 m
(2)[31 ] xs
1 -1 sc
gr
gs
1 -1 sc
319 -1035 tr
90 ro
/MC3_Arial 91 self 0 0 m
(\))[30 ] xs
1 -1 sc
gr
gr
gs
1 -1 sc
/MC2_Arial 91 self 1354 -2248 m
(heater power \(W/m)[51 51 51 25 51 30 25 51 51 65 51 30 25 30 91 25 76 ] xs
1 -1 sc
1 -1 sc
/MC2_Arial 55 self 2133 -2203 m
(2)[31 ] xs
1 -1 sc
1 -1 sc
/MC2_Arial 91 self 2164 -2248 m
(\))[30 ] xs
1 -1 sc
gr
gr
Save0 restore end
showpage
%%EOF
