%!PS-Adobe-3.0 EPSF-3.0
%%BoundingBox: 0 0 819 569
%%LanguageLevel: 2
%%Creator: OriginLab Corporation
%%Title: (H:\plots\T175_Q608_coarse_pdfs.eps)
%%CreationDate: Tue Sep 03 13:53:10 2013
%%EndComments

/OriginLab::PSL1 128 dict dup begin def
/Save0 save def
%%BeginResource: procset OriginLab::PSL1
/wd{1 index where{pop pop pop}{bind def}ifelse}bind def
/setcmykcolor{1 sub 4 1 roll 3{3 index add neg dup 0 lt{pop 0}if 3 1 roll}repeat setrgbcolor pop}wd
/selectfont{dup type/arraytype eq{exch findfont exch makefont setfont}{exch findfont exch scalefont setfont}ifelse}wd
/xshow{1 index length 0 le{}{currentpoint exch 3 index length 1 sub 0 exch 1 exch{dup 5 index exch 1 getinterval show 3 index exch get add 2 copy exch moveto}for pop pop}ifelse pop pop}wd
/glyphshow{matrix currentmatrix exch currentfont dup/FontMatrix get concat currentpoint translate
 dup/Metrics get 2 index get 0 4 2 roll gsave/CharProcs get exch 2 copy known not{pop/.notdef}if
 get exec fill grestore moveto setmatrix}wd
/grayimage/image load def/rgbtogray{cvx exec dup length 3 idiv 1 sub 0 exch 1 exch{dup 3 mul dup 3 index exch get 255 div .3 mul exch
 1 add dup 4 index exch get 255 div .59 mul exch 1 add 4 index exch get 255 div .11 mul add add
 255 mul dup 255 gt{255}if round cvi 2 index 3 1 roll put}for dup length 3 idiv 0 exch getinterval}bind def
/colorimage{0 setgray pop pop cvlit/rgbtogray cvx 2 packedarray cvx grayimage}wd
/bd{bind def}bind def/ld{load def}bd/ed{exch def}bd/xd{cvx def}bd
/np/newpath ld/a/arc ld/m/moveto ld/l/lineto ld/c/curveto ld/rm/rmoveto ld/rl/rlineto ld/rc/rcurveto ld/cp/closepath ld/cpt/currentpoint ld
/tr/translate ld/sc/scale ld/ro/rotate ld/t/transform ld/it/itransform ld/dt/dtransform ld/idt/idtransform ld
/mtx/matrix ld/cmtx/currentmatrix ld/dmtx/defaultmatrix ld/smtx/setmatrix ld/catmtx/concatmatrix ld
/sw/setlinewidth ld/scap/setlinecap ld/sj/setlinejoin ld/sm/setmiterlimit ld/sd/setdash ld/rgb/setrgbcolor ld/crgb/currentrgbcolor ld/cmyk/setcmykcolor ld/gs/gsave ld/gr/grestore ld
/st/stroke ld/fi/fill ld/eofi/eofill ld/cl/clip ld/eocl/eoclip ld
/df/definefont ld/ff/findfont ld/sf/setfont ld/scf/scalefont ld/self/selectfont ld/cf/currentfont ld
/s/show ld/xs/xshow ld/gls/glyphshow ld/xgls{cpt 3 1 roll add exch 3 -1 roll gls m}bd
/cd/currentdict ld/i/index ld
/DrawBox{4 2 roll m 1 index 0 rl 0 exch rl neg 0 rl cp}bd
/plus.re { 6 { 3 index } repeat moveto 0 exch rlineto 0 rlineto pop pop neg 0 exch rlineto pop lineto closepath } def
/DrawBcc{4 2 roll m 2 copy 0 lt exch 0 lt xor{dup 0 exch rl exch 0 rl neg 0 exch rl}{exch dup 0 rl exch 0 exch rl neg 0 rl}ifelse cp}bd
/rectline{dup type/arraytype eq{dup length 0 exch 4 exch 4 sub{0 1 3{3 copy add get 4 1 roll pop}for pop 5 1 roll DrawBox}for pop}{DrawBox}ifelse}bd
/rectpath{dup type/arraytype eq{dup length 0 exch 4 exch 4 sub{0 1 3{3 copy add get 4 1 roll pop}for pop 5 1 roll DrawBcc}for pop}{DrawBcc}ifelse}bd
/pathproc{[{/m cvx}{/l cvx}{/c cvx}{/cp cvx}pathforall]cvx}bd
/L1img/image ld/L1idx[{0}
 {dup 7 and 3 1 roll -3 bitshift get exch 7 sub 1 mul bitshift  1 and}bind 1 index dup
 {dup 1 and 3 1 roll -1 bitshift get exch 1 sub 4 mul bitshift 15 and}bind 1 index dup dup
 {get}bind]def
/image{dup type/dicttype eq {dup/ImgCS get 0 get/Indexed eq}{false}ifelse
 {begin Width Height 8 ImageMatrix {rgb_string rgb_lookup
 cd/DataSource get dup type/filetype eq
 {mystring readstring pop}{exec}ifelse
 dup length 0 ne
 {L1idx BitsPerComponent get 0 1 Width 1 sub
 {3 copy exch exec exch 3 mul exch
 3 mul dup 5 index exch get exch 1 add dup 6 index exch get exch 1 add 6 index exch get
 7 index exch 4 index 2 add exch put 6 index exch 3 index 1 add exch put 5 index exch 2 index exch put pop
 }for pop pop pop }{pop pop pop ()}ifelse }false 3 colorimage end} {dup type/dicttype eq
 {{dup mark exch L1img pop pop}stopped{cleartomark begin Width Height BitsPerComponent ImageMatrix
 {cd/DataSource get dup type/filetype eq {mystring readstring pop}{exec}ifelse
 }false 3 colorimage end} if}{L1img}ifelse}ifelse
 }bd
/L1imgmask/imagemask ld/imagemask{dup type/dicttype eq
 {{dup mark exch L1imgmask pop pop}stopped {cleartomark begin Width Height polarityflag ImageMatrix
 {cd/DataSource get dup type/filetype eq {mystring readstring pop}{exec}ifelse
 }L1imgmask end}if}{L1imgmask}ifelse
 }bd
% Gradient function
/GradientStep 1 150 div def
/GradientStartRGB { /R1 exch def /G1 exch def /B1 exch def } def
/GradientEndRGB { /R2 exch def /G2 exch def /B2 exch def
/GradientSteps GradientLength GradientStep div def
/GradientRStep R2 R1 sub GradientSteps div def
/GradientGStep G2 G1 sub GradientSteps div def
/GradientBStep B2 B1 sub GradientSteps div def
} def
/GradientStepRGB { /R1 R1 GradientRStep add def
/G1 G1 GradientGStep add def
/B1 B1 GradientBStep add def
R1 G1 B1 setrgbcolor
} def
%%EndResource
/rectclip{np rectpath clip np}wd
/rectfill{gs np rectpath fi gr}wd
/rectstroke{gs np dup type/arraytype eq{dup length 6 eq}{false}ifelse{1 index type/arraytype eq{exch}{5 1 roll}ifelse rectline concat st}{rectline st}ifelse gr}wd
%%BeginResource: procset OriginLab::Image
/OriginLab::Image 32 dict dup begin
/BinProc{[currentfile mystring /readstring cvx /pop cvx] cvx bind}bd
/HexProc{[currentfile mystring /readhexstring cvx /pop cvx] cvx bind}bd
/Ascii85Proc{currentfile /ASCII85Decode filter}bd
/LZWA85{currentfile /ASCII85Decode filter /LZWDecode filter}bd
/ImgProcArray[/BinProc /HexProc /Ascii85Proc /LZWA85]def
/ImgDict{/ImgDict 16 dict def ImgDict dup begin /ImageType 1 def /MultipleDataSource false def end}bd
/L2Dec{{[1 0]}{[0 1]}ifelse}bd
/BegImg{ /Img_sv save def
 /ImgDir ed ImgProcArray exch get /ImgProc exch ld
 dup /polarityflag ed L2Dec /polarity ed /smoothflag ed
 tr /dx 2 index def /dy 1 index abs def sc
 string /mystring ed /bpc ed /ih ed /iw ed
 }bd
/EndImg {Img_sv restore}bd
/DoXImg{ /rgb_lookup ed /hival ed ImgDict dup begin
 [/Indexed /DeviceRGB hival rgb_lookup] /L1img where{pop/ImgCS ed}{setcolorspace}ifelse
 /rgb_string iw 3 mul string def
 /Width iw def
 /Height ih def
 /Decode [0 1 bpc{2 mul}repeat 1 sub] def
 /ImageMatrix
  ImgDir 0 eq{[iw 0 0 ih 0 0]}if
  ImgDir 1 eq{[iw neg 0 0 ih iw 0]}if
  ImgDir 2 eq{[iw 0 0 ih neg 0 ih]}if
  ImgDir 3 eq{[iw neg 0 0 ih neg iw ih]}if
  def
 /DataSource ImgProc def
 /BitsPerComponent bpc def
 /Interpolate smoothflag def
 end image}bd
/DoImg{ ImgDict dup begin
 [/DeviceRGB] /L1img where{pop/ImgCS ed}{setcolorspace}ifelse
 /rgb_string iw 3 mul string def
 /Width iw def
 /Height ih def
 /Decode [0 1 0 1 0 1] def
 /ImageMatrix
  ImgDir 0 eq{[iw 0 0 ih 0 0]}if
  ImgDir 1 eq{[iw neg 0 0 ih iw 0]}if
  ImgDir 2 eq{[iw 0 0 ih neg 0 ih]}if
  ImgDir 3 eq{[iw neg 0 0 ih neg iw ih]}if
  def
 /DataSource ImgProc def
 /BitsPerComponent 8 def
 /Interpolate smoothflag def
 end image}bd
end def
%%EndResource
%%BeginFont: /MC1_Arial
12 dict begin
/FontInfo 8 dict dup begin
/ItalicAngle 0 def
/UnderlinePosition -217.00 def
/UnderlineThickness 150.00 def
/StrikeoutPosition 530.00 def
/StrikeoutThickness 102.00 def
/isFixedPitch false def
end readonly def
/FontName /MC1_Arial def
/FontType 3 def
/FontMatrix [1 2048 div 0 0 1 2048 div 0 0] def
/FontBBox [-1361 -665 4096 2060] def
/Encoding 256 array def 0 1 255{Encoding exch/.notdef put}for
Encoding 32/s32 put
Encoding 45/s45 put
Encoding 46/s46 put
Encoding 48/s48 put
Encoding 49/s49 put
Encoding 50/s50 put
Encoding 51/s51 put
Encoding 52/s52 put
Encoding 69/s69 put
/BoundingBoxes 10 dict def
BoundingBoxes begin
/s32 [0 -434 569 1854] def
/s45 [0 -434 682 1854] def
/s46 [0 -434 569 1854] def
/s48 [0 -434 1139 1854] def
/s49 [0 -434 1139 1854] def
/s50 [0 -434 1139 1854] def
/s51 [0 -434 1139 1854] def
/s52 [0 -434 1139 1854] def
/s69 [0 -434 1366 1854] def
end
/Metrics 10 dict def
 Metrics begin
/s32 569 def
/s45 682 def
/s46 569 def
/s48 1139 def
/s49 1139 def
/s50 1139 def
/s51 1139 def
/s52 1139 def
/s69 1366 def
end
/CharProcs 10 dict def
CharProcs begin
/.notdef {} def
/s45 {
65 440 m
65 621 65 440 65 621 c
618 621 65 621 618 621 c
618 440 618 621 618 440 c
65 440 618 440 65 440 c
closepath } bind def
/s46 {
186 0 m
186 205 186 0 186 205 c
391 205 186 205 391 205 c
391 0 391 205 391 0 c
186 0 391 0 186 0 c
closepath } bind def
/s48 {
85 723 m
85 896.33 102.83 1035.83 138.5 1141.5 c
174.17 1247.17 227.17 1328.67 297.5 1386 c
367.83 1443.33 456.33 1472 563 1472 c
641.67 1472 710.67 1456.17 770 1424.5 c
829.33 1392.83 878.33 1347.17 917 1287.5 c
955.67 1227.83 986 1155.17 1008 1069.5 c
1030 983.83 1041 868.33 1041 723 c
1041 551 1023.33 412.17 988 306.5 c
952.67 200.83 899.83 119.17 829.5 61.5 c
759.17 3.83 670.33 -25 563 -25 c
421.67 -25 310.67 25.67 230 127 c
133.33 249 85 447.67 85 723 c
closepath 270 723 m
270 482.33 298.17 322.17 354.5 242.5 c
410.83 162.83 480.33 123 563 123 c
645.67 123 715.17 163 771.5 243 c
827.83 323 856 483 856 723 c
856 964.33 827.83 1124.67 771.5 1204 c
715.17 1283.33 645 1323 561 1323 c
478.33 1323 412.33 1288 363 1218 c
301 1128.67 270 963.67 270 723 c
closepath } bind def
/s49 {
763 0 m
583 0 763 0 583 0 c
583 1147 583 0 583 1147 c
539.67 1105.67 482.83 1064.33 412.5 1023 c
342.17 981.67 279 950.67 223 930 c
223 1104 223 930 223 1104 c
323.67 1151.33 411.67 1208.67 487 1276 c
562.33 1343.33 615.67 1408.67 647 1472 c
763 1472 647 1472 763 1472 c
763 0 763 1472 763 0 c
closepath } bind def
/s50 {
1031 173 m
1031 0 1031 173 1031 0 c
62 0 1031 0 62 0 c
60.67 43.33 67.67 85 83 125 c
107.67 191 147.17 256 201.5 320 c
255.83 384 334.33 458 437 542 c
596.33 672.67 704 776.17 760 852.5 c
816 928.83 844 1001 844 1069 c
844 1140.33 818.5 1200.5 767.5 1249.5 c
716.5 1298.5 650 1323 568 1323 c
481.33 1323 412 1297 360 1245 c
308 1193 281.67 1121 281 1029 c
96 1048 281 1029 96 1048 c
108.67 1186 156.33 1291.17 239 1363.5 c
321.67 1435.83 432.67 1472 572 1472 c
712.67 1472 824 1433 906 1355 c
988 1277 1029 1180.33 1029 1065 c
1029 1006.33 1017 948.67 993 892 c
969 835.33 929.17 775.67 873.5 713 c
817.83 650.33 725.33 564.33 596 455 c
488 364.33 418.67 302.83 388 270.5 c
357.33 238.17 332 205.67 312 173 c
1031 173 312 173 1031 173 c
closepath } bind def
/s51 {
86 387 m
266 411 86 387 266 411 c
286.67 309 321.83 235.5 371.5 190.5 c
421.17 145.5 481.67 123 553 123 c
637.67 123 709.17 152.33 767.5 211 c
825.83 269.67 855 342.33 855 429 c
855 511.67 828 579.83 774 633.5 c
720 687.17 651.33 714 568 714 c
534 714 491.67 707.33 441 694 c
461 852 441 694 461 852 c
473 850.67 482.67 850 490 850 c
566.67 850 635.67 870 697 910 c
758.33 950 789 1011.67 789 1095 c
789 1161 766.67 1215.67 722 1259 c
677.33 1302.33 619.67 1324 549 1324 c
479 1324 420.67 1302 374 1258 c
327.33 1214 297.33 1148 284 1060 c
104 1092 284 1060 104 1092 c
126 1212.67 176 1306.17 254 1372.5 c
332 1438.83 429 1472 545 1472 c
625 1472 698.67 1454.83 766 1420.5 c
833.33 1386.17 884.83 1339.33 920.5 1280 c
956.17 1220.67 974 1157.67 974 1091 c
974 1027.67 957 970 923 918 c
889 866 838.67 824.67 772 794 c
858.67 774 926 732.5 974 669.5 c
1022 606.5 1046 527.67 1046 433 c
1046 305 999.33 196.5 906 107.5 c
812.67 18.5 694.67 -26 552 -26 c
423.33 -26 316.5 12.33 231.5 89 c
146.5 165.67 98 265 86 387 c
closepath } bind def
/s52 {
662 0 m
662 351 662 0 662 351 c
26 351 662 351 26 351 c
26 516 26 351 26 516 c
695 1466 26 516 695 1466 c
842 1466 695 1466 842 1466 c
842 516 842 1466 842 516 c
1040 516 842 516 1040 516 c
1040 351 1040 516 1040 351 c
842 351 1040 351 842 351 c
842 0 842 351 842 0 c
662 0 842 0 662 0 c
closepath 662 516 m
662 1177 662 516 662 1177 c
203 516 662 1177 203 516 c
662 516 203 516 662 516 c
closepath } bind def
/s69 {
162 0 m
162 1466 162 0 162 1466 c
1222 1466 162 1466 1222 1466 c
1222 1293 1222 1466 1222 1293 c
356 1293 1222 1293 356 1293 c
356 844 356 1293 356 844 c
1167 844 356 844 1167 844 c
1167 672 1167 844 1167 672 c
356 672 1167 672 356 672 c
356 173 356 672 356 173 c
1256 173 356 173 1256 173 c
1256 0 1256 173 1256 0 c
162 0 1256 0 162 0 c
closepath } bind def
end
/BuildGlyph {
 exch dup /Metrics get 2 index get 0 setcharwidth
/CharProcs get exch 2 copy known not{pop/.notdef}if get exec fill}bind def
/BuildChar {
1 index /Encoding get exch get
1 index /BuildGlyph get exec
} bind def
currentdict end /MC1_Arial exch definefont pop
%%EndFont
%%BeginFont: /MC2_Arial
12 dict begin
/FontInfo 8 dict dup begin
/ItalicAngle 0 def
/UnderlinePosition -217.00 def
/UnderlineThickness 150.00 def
/StrikeoutPosition 530.00 def
/StrikeoutThickness 102.00 def
/isFixedPitch false def
end readonly def
/FontName /MC2_Arial def
/FontType 3 def
/FontMatrix [1 2048 div 0 0 1 2048 div 0 0] def
/FontBBox [-1361 -665 4096 2060] def
/Encoding 256 array def 0 1 255{Encoding exch/.notdef put}for
Encoding 32/s32 put
Encoding 40/s40 put
Encoding 41/s41 put
Encoding 47/s47 put
Encoding 48/s48 put
Encoding 49/s49 put
Encoding 50/s50 put
Encoding 51/s51 put
Encoding 53/s53 put
Encoding 54/s54 put
Encoding 55/s55 put
Encoding 57/s57 put
Encoding 100/s100 put
Encoding 115/s115 put
Encoding 116/s116 put
Encoding 118/s118 put
Encoding 120/s120 put
/BoundingBoxes 18 dict def
BoundingBoxes begin
/s32 [0 -434 569 1854] def
/s40 [0 -434 682 1854] def
/s41 [0 -434 682 1854] def
/s47 [0 -434 569 1854] def
/s48 [0 -434 1139 1854] def
/s49 [0 -434 1139 1854] def
/s50 [0 -434 1139 1854] def
/s51 [0 -434 1139 1854] def
/s53 [0 -434 1139 1854] def
/s54 [0 -434 1139 1854] def
/s55 [0 -434 1139 1854] def
/s57 [0 -434 1139 1854] def
/s100 [0 -434 1139 1854] def
/s115 [0 -434 1024 1854] def
/s116 [0 -434 569 1854] def
/s118 [0 -434 1024 1854] def
/s120 [0 -434 1024 1854] def
end
/Metrics 18 dict def
 Metrics begin
/s32 569 def
/s40 682 def
/s41 682 def
/s47 569 def
/s48 1139 def
/s49 1139 def
/s50 1139 def
/s51 1139 def
/s53 1139 def
/s54 1139 def
/s55 1139 def
/s57 1139 def
/s100 1139 def
/s115 1024 def
/s116 569 def
/s118 1024 def
/s120 1024 def
end
/CharProcs 18 dict def
CharProcs begin
/.notdef {} def
/s40 {
479 -431 m
379.67 -305.67 295.67 -159 227 9 c
158.33 177 124 351 124 531 c
124 689.67 149.67 841.67 201 987 c
261 1155.67 353.67 1323.67 479 1491 c
608 1491 479 1491 608 1491 c
527.33 1352.33 474 1253.33 448 1194 c
407.33 1102 375.33 1006 352 906 c
323.33 781.33 309 656 309 530 c
309 209.33 408.67 -111 608 -431 c
479 -431 608 -431 479 -431 c
closepath } bind def
/s41 {
253 -431 m
124 -431 253 -431 124 -431 c
323.33 -111 423 209.33 423 530 c
423 655.33 408.67 779.67 380 903 c
357.33 1003 325.67 1099 285 1191 c
259 1251 205.33 1351 124 1491 c
253 1491 124 1491 253 1491 c
378.33 1323.67 471 1155.67 531 987 c
582.33 841.67 608 689.67 608 531 c
608 351 573.5 177 504.5 9 c
435.5 -159 351.67 -305.67 253 -431 c
closepath } bind def
/s47 {
0 -25 m
425 1491 0 -25 425 1491 c
569 1491 425 1491 569 1491 c
145 -25 569 1491 145 -25 c
0 -25 145 -25 0 -25 c
closepath } bind def
/s48 {
85 723 m
85 896.33 102.83 1035.83 138.5 1141.5 c
174.17 1247.17 227.17 1328.67 297.5 1386 c
367.83 1443.33 456.33 1472 563 1472 c
641.67 1472 710.67 1456.17 770 1424.5 c
829.33 1392.83 878.33 1347.17 917 1287.5 c
955.67 1227.83 986 1155.17 1008 1069.5 c
1030 983.83 1041 868.33 1041 723 c
1041 551 1023.33 412.17 988 306.5 c
952.67 200.83 899.83 119.17 829.5 61.5 c
759.17 3.83 670.33 -25 563 -25 c
421.67 -25 310.67 25.67 230 127 c
133.33 249 85 447.67 85 723 c
closepath 270 723 m
270 482.33 298.17 322.17 354.5 242.5 c
410.83 162.83 480.33 123 563 123 c
645.67 123 715.17 163 771.5 243 c
827.83 323 856 483 856 723 c
856 964.33 827.83 1124.67 771.5 1204 c
715.17 1283.33 645 1323 561 1323 c
478.33 1323 412.33 1288 363 1218 c
301 1128.67 270 963.67 270 723 c
closepath } bind def
/s49 {
763 0 m
583 0 763 0 583 0 c
583 1147 583 0 583 1147 c
539.67 1105.67 482.83 1064.33 412.5 1023 c
342.17 981.67 279 950.67 223 930 c
223 1104 223 930 223 1104 c
323.67 1151.33 411.67 1208.67 487 1276 c
562.33 1343.33 615.67 1408.67 647 1472 c
763 1472 647 1472 763 1472 c
763 0 763 1472 763 0 c
closepath } bind def
/s50 {
1031 173 m
1031 0 1031 173 1031 0 c
62 0 1031 0 62 0 c
60.67 43.33 67.67 85 83 125 c
107.67 191 147.17 256 201.5 320 c
255.83 384 334.33 458 437 542 c
596.33 672.67 704 776.17 760 852.5 c
816 928.83 844 1001 844 1069 c
844 1140.33 818.5 1200.5 767.5 1249.5 c
716.5 1298.5 650 1323 568 1323 c
481.33 1323 412 1297 360 1245 c
308 1193 281.67 1121 281 1029 c
96 1048 281 1029 96 1048 c
108.67 1186 156.33 1291.17 239 1363.5 c
321.67 1435.83 432.67 1472 572 1472 c
712.67 1472 824 1433 906 1355 c
988 1277 1029 1180.33 1029 1065 c
1029 1006.33 1017 948.67 993 892 c
969 835.33 929.17 775.67 873.5 713 c
817.83 650.33 725.33 564.33 596 455 c
488 364.33 418.67 302.83 388 270.5 c
357.33 238.17 332 205.67 312 173 c
1031 173 312 173 1031 173 c
closepath } bind def
/s51 {
86 387 m
266 411 86 387 266 411 c
286.67 309 321.83 235.5 371.5 190.5 c
421.17 145.5 481.67 123 553 123 c
637.67 123 709.17 152.33 767.5 211 c
825.83 269.67 855 342.33 855 429 c
855 511.67 828 579.83 774 633.5 c
720 687.17 651.33 714 568 714 c
534 714 491.67 707.33 441 694 c
461 852 441 694 461 852 c
473 850.67 482.67 850 490 850 c
566.67 850 635.67 870 697 910 c
758.33 950 789 1011.67 789 1095 c
789 1161 766.67 1215.67 722 1259 c
677.33 1302.33 619.67 1324 549 1324 c
479 1324 420.67 1302 374 1258 c
327.33 1214 297.33 1148 284 1060 c
104 1092 284 1060 104 1092 c
126 1212.67 176 1306.17 254 1372.5 c
332 1438.83 429 1472 545 1472 c
625 1472 698.67 1454.83 766 1420.5 c
833.33 1386.17 884.83 1339.33 920.5 1280 c
956.17 1220.67 974 1157.67 974 1091 c
974 1027.67 957 970 923 918 c
889 866 838.67 824.67 772 794 c
858.67 774 926 732.5 974 669.5 c
1022 606.5 1046 527.67 1046 433 c
1046 305 999.33 196.5 906 107.5 c
812.67 18.5 694.67 -26 552 -26 c
423.33 -26 316.5 12.33 231.5 89 c
146.5 165.67 98 265 86 387 c
closepath } bind def
/s53 {
85 384 m
274 400 85 384 274 400 c
288 308 320.5 238.83 371.5 192.5 c
422.5 146.17 484 123 556 123 c
642.67 123 716 155.67 776 221 c
836 286.33 866 373 866 481 c
866 583.67 837.17 664.67 779.5 724 c
721.83 783.33 646.33 813 553 813 c
495 813 442.67 799.83 396 773.5 c
349.33 747.17 312.67 713 286 671 c
117 693 286 671 117 693 c
259 1446 117 693 259 1446 c
988 1446 259 1446 988 1446 c
988 1274 988 1446 988 1274 c
403 1274 988 1274 403 1274 c
324 880 403 1274 324 880 c
412 941.33 504.33 972 601 972 c
729 972 837 927.67 925 839 c
1013 750.33 1057 636.33 1057 497 c
1057 364.33 1018.33 249.67 941 153 c
847 34.33 718.67 -25 556 -25 c
422.67 -25 313.83 12.33 229.5 87 c
145.17 161.67 97 260.67 85 384 c
closepath } bind def
/s54 {
1019 1107 m
840 1093 1019 1107 840 1093 c
824 1163.67 801.33 1215 772 1247 c
723.33 1298.33 663.33 1324 592 1324 c
534.67 1324 484.33 1308 441 1276 c
384.33 1234.67 339.67 1174.33 307 1095 c
274.33 1015.67 257.33 902.67 256 756 c
299.33 822 352.33 871 415 903 c
477.67 935 543.33 951 612 951 c
732 951 834.17 906.83 918.5 818.5 c
1002.83 730.17 1045 616 1045 476 c
1045 384 1025.17 298.5 985.5 219.5 c
945.83 140.5 891.33 80 822 38 c
752.67 -4 674 -25 586 -25 c
436 -25 313.67 30.17 219 140.5 c
124.33 250.83 77 432.67 77 686 c
77 969.33 129.33 1175.33 234 1304 c
325.33 1416 448.33 1472 603 1472 c
718.33 1472 812.83 1439.67 886.5 1375 c
960.17 1310.33 1004.33 1221 1019 1107 c
closepath 284 475 m
284 413 297.17 353.67 323.5 297 c
349.83 240.33 386.67 197.17 434 167.5 c
481.33 137.83 531 123 583 123 c
659 123 724.33 153.67 779 215 c
833.67 276.33 861 359.67 861 465 c
861 566.33 834 646.17 780 704.5 c
726 762.83 658 792 576 792 c
494.67 792 425.67 762.83 369 704.5 c
312.33 646.17 284 569.67 284 475 c
closepath } bind def
/s55 {
97 1274 m
97 1447 97 1274 97 1447 c
1046 1447 97 1447 1046 1447 c
1046 1307 1046 1447 1046 1307 c
952.67 1207.67 860.17 1075.67 768.5 911 c
676.83 746.33 606 577 556 403 c
520 280.33 497 146 487 0 c
302 0 487 0 302 0 c
304 115.33 326.67 254.67 370 418 c
413.33 581.33 475.5 738.83 556.5 890.5 c
637.5 1042.17 723.67 1170 815 1274 c
97 1274 815 1274 97 1274 c
closepath } bind def
/s57 {
112 339 m
285 355 112 339 285 355 c
299.67 273.67 327.67 214.67 369 178 c
410.33 141.33 463.33 123 528 123 c
583.33 123 631.83 135.67 673.5 161 c
715.17 186.33 749.33 220.17 776 262.5 c
802.67 304.83 825 362 843 434 c
861 506 870 579.33 870 654 c
870 662 869.67 674 869 690 c
833 632.67 783.83 586.17 721.5 550.5 c
659.17 514.83 591.67 497 519 497 c
397.67 497 295 541 211 629 c
127 717 85 833 85 977 c
85 1125.67 128.83 1245.33 216.5 1336 c
304.17 1426.67 414 1472 546 1472 c
641.33 1472 728.5 1446.33 807.5 1395 c
886.5 1343.67 946.5 1270.5 987.5 1175.5 c
1028.5 1080.5 1049 943 1049 763 c
1049 575.67 1028.67 426.5 988 315.5 c
947.33 204.5 886.83 120 806.5 62 c
726.17 4 632 -25 524 -25 c
409.33 -25 315.67 6.83 243 70.5 c
170.33 134.17 126.67 223.67 112 339 c
closepath 849 986 m
849 1089.33 821.5 1171.33 766.5 1232 c
711.5 1292.67 645.33 1323 568 1323 c
488 1323 418.33 1290.33 359 1225 c
299.67 1159.67 270 1075 270 971 c
270 877.67 298.17 801.83 354.5 743.5 c
410.83 685.17 480.33 656 563 656 c
646.33 656 714.83 685.17 768.5 743.5 c
822.17 801.83 849 882.67 849 986 c
closepath } bind def
/s100 {
824 0 m
824 134 824 0 824 134 c
756.67 28.67 657.67 -24 527 -24 c
442.33 -24 364.5 -0.67 293.5 46 c
222.5 92.67 167.5 157.83 128.5 241.5 c
89.5 325.17 70 421.33 70 530 c
70 636 87.67 732.17 123 818.5 c
158.33 904.83 211.33 971 282 1017 c
352.67 1063 431.67 1086 519 1086 c
583 1086 640 1072.5 690 1045.5 c
740 1018.5 780.67 983.33 812 940 c
812 1466 812 940 812 1466 c
991 1466 812 1466 991 1466 c
991 0 991 1466 991 0 c
824 0 991 0 824 0 c
closepath 255 530 m
255 394 283.67 292.33 341 225 c
398.33 157.67 466 124 544 124 c
622.67 124 689.5 156.17 744.5 220.5 c
799.5 284.83 827 383 827 515 c
827 660.33 799 767 743 835 c
687 903 618 937 536 937 c
456 937 389.17 904.33 335.5 839 c
281.83 773.67 255 670.67 255 530 c
closepath } bind def
/s115 {
63 317 m
241 345 63 317 241 345 c
251 273.67 278.83 219 324.5 181 c
370.17 143 434 124 516 124 c
598.67 124 660 140.83 700 174.5 c
740 208.17 760 247.67 760 293 c
760 333.67 742.33 365.67 707 389 c
682.33 405 621 425.33 523 450 c
391 483.33 299.5 512.17 248.5 536.5 c
197.5 560.83 158.83 594.5 132.5 637.5 c
106.17 680.5 93 728 93 780 c
93 827.33 103.83 871.17 125.5 911.5 c
147.17 951.83 176.67 985.33 214 1012 c
242 1032.67 280.17 1050.17 328.5 1064.5 c
376.83 1078.83 428.67 1086 484 1086 c
567.33 1086 640.5 1074 703.5 1050 c
766.5 1026 813 993.5 843 952.5 c
873 911.5 893.67 856.67 905 788 c
729 764 905 788 729 764 c
721 818.67 697.83 861.33 659.5 892 c
621.17 922.67 567 938 497 938 c
414.33 938 355.33 924.33 320 897 c
284.67 869.67 267 837.67 267 801 c
267 777.67 274.33 756.67 289 738 c
303.67 718.67 326.67 702.67 358 690 c
376 683.33 429 668 517 644 c
644.33 610 733.17 582.17 783.5 560.5 c
833.83 538.83 873.33 507.33 902 466 c
930.67 424.67 945 373.33 945 312 c
945 252 927.5 195.5 892.5 142.5 c
857.5 89.5 807 48.5 741 19.5 c
675 -9.5 600.33 -24 517 -24 c
379 -24 273.83 4.67 201.5 62 c
129.17 119.33 83 204.33 63 317 c
closepath } bind def
/s116 {
528 161 m
554 2 528 161 554 2 c
503.33 -8.67 458 -14 418 -14 c
352.67 -14 302 -3.67 266 17 c
230 37.67 204.67 64.83 190 98.5 c
175.33 132.17 168 203 168 311 c
168 922 168 311 168 922 c
36 922 168 922 36 922 c
36 1062 36 922 36 1062 c
168 1062 36 1062 168 1062 c
168 1325 168 1062 168 1325 c
347 1433 168 1325 347 1433 c
347 1062 347 1433 347 1062 c
528 1062 347 1062 528 1062 c
528 922 528 1062 528 922 c
347 922 528 922 347 922 c
347 301 347 922 347 301 c
347 249.67 350.17 216.67 356.5 202 c
362.83 187.33 373.17 175.67 387.5 167 c
401.83 158.33 422.33 154 449 154 c
469 154 495.33 156.33 528 161 c
closepath } bind def
/s118 {
430 0 m
26 1062 430 0 26 1062 c
216 1062 26 1062 216 1062 c
444 426 216 1062 444 426 c
468.67 357.33 491.33 286 512 212 c
528 268 550.33 335.33 579 414 c
815 1062 579 414 815 1062 c
1000 1062 815 1062 1000 1062 c
598 0 1000 1062 598 0 c
430 0 598 0 430 0 c
closepath } bind def
/s120 {
15 0 m
403 552 15 0 403 552 c
44 1062 403 552 44 1062 c
269 1062 44 1062 269 1062 c
432 813 269 1062 432 813 c
462.67 765.67 487.33 726 506 694 c
535.33 738 562.33 777 587 811 c
766 1062 587 811 766 1062 c
981 1062 766 1062 981 1062 c
614 562 981 1062 614 562 c
1009 0 614 562 1009 0 c
788 0 1009 0 788 0 c
570 330 788 0 570 330 c
512 419 570 330 512 419 c
233 0 512 419 233 0 c
15 0 233 0 15 0 c
closepath } bind def
end
/BuildGlyph {
 exch dup /Metrics get 2 index get 0 setcharwidth
/CharProcs get exch 2 copy known not{pop/.notdef}if get exec fill}bind def
/BuildChar {
1 index /Encoding get exch get
1 index /BuildGlyph get exec
} bind def
currentdict end /MC2_Arial exch definefont pop
%%EndFont
%%BeginFont: /MC3_Arial
12 dict begin
/FontInfo 8 dict dup begin
/ItalicAngle 0 def
/UnderlinePosition -217.00 def
/UnderlineThickness 150.00 def
/StrikeoutPosition 530.00 def
/StrikeoutThickness 102.00 def
/isFixedPitch false def
end readonly def
/FontName /MC3_Arial def
/FontType 3 def
/FontMatrix [1 2048 div 0 0 1 2048 div 0 0] def
/FontBBox [-1361 -665 4096 2060] def
/Encoding 256 array def 0 1 255{Encoding exch/.notdef put}for
Encoding 32/s32 put
Encoding 46/s46 put
Encoding 100/s100 put
Encoding 102/s102 put
Encoding 112/s112 put
/BoundingBoxes 6 dict def
BoundingBoxes begin
/s32 [0 -434 569 1854] def
/s46 [0 -434 569 1854] def
/s100 [0 -434 1139 1854] def
/s102 [0 -434 569 1854] def
/s112 [0 -434 1139 1854] def
end
/Metrics 6 dict def
 Metrics begin
/s32 569 def
/s46 569 def
/s100 1139 def
/s102 569 def
/s112 1139 def
end
/CharProcs 6 dict def
CharProcs begin
/.notdef {} def
/s46 {
186 0 m
186 205 186 0 186 205 c
391 205 186 205 391 205 c
391 0 391 205 391 0 c
186 0 391 0 186 0 c
closepath } bind def
/s100 {
824 0 m
824 134 824 0 824 134 c
756.67 28.67 657.67 -24 527 -24 c
442.33 -24 364.5 -0.67 293.5 46 c
222.5 92.67 167.5 157.83 128.5 241.5 c
89.5 325.17 70 421.33 70 530 c
70 636 87.67 732.17 123 818.5 c
158.33 904.83 211.33 971 282 1017 c
352.67 1063 431.67 1086 519 1086 c
583 1086 640 1072.5 690 1045.5 c
740 1018.5 780.67 983.33 812 940 c
812 1466 812 940 812 1466 c
991 1466 812 1466 991 1466 c
991 0 991 1466 991 0 c
824 0 991 0 824 0 c
closepath 255 530 m
255 394 283.67 292.33 341 225 c
398.33 157.67 466 124 544 124 c
622.67 124 689.5 156.17 744.5 220.5 c
799.5 284.83 827 383 827 515 c
827 660.33 799 767 743 835 c
687 903 618 937 536 937 c
456 937 389.17 904.33 335.5 839 c
281.83 773.67 255 670.67 255 530 c
closepath } bind def
/s102 {
178 0 m
178 922 178 0 178 922 c
19 922 178 922 19 922 c
19 1062 19 922 19 1062 c
178 1062 19 1062 178 1062 c
178 1175 178 1062 178 1175 c
178 1246.33 184.33 1299.33 197 1334 c
214.33 1380.67 244.83 1418.5 288.5 1447.5 c
332.17 1476.5 393.33 1491 472 1491 c
522.67 1491 578.67 1485 640 1473 c
613 1316 640 1473 613 1316 c
575.67 1322.67 540.33 1326 507 1326 c
452.33 1326 413.67 1314.33 391 1291 c
368.33 1267.67 357 1224 357 1160 c
357 1062 357 1160 357 1062 c
564 1062 357 1062 564 1062 c
564 922 564 1062 564 922 c
357 922 564 922 357 922 c
357 0 357 922 357 0 c
178 0 357 0 178 0 c
closepath } bind def
/s112 {
135 -407 m
135 1062 135 -407 135 1062 c
299 1062 135 1062 299 1062 c
299 924 299 1062 299 924 c
337.67 978 381.33 1018.5 430 1045.5 c
478.67 1072.5 537.67 1086 607 1086 c
697.67 1086 777.67 1062.67 847 1016 c
916.33 969.33 968.67 903.5 1004 818.5 c
1039.33 733.5 1057 640.33 1057 539 c
1057 430.33 1037.5 332.5 998.5 245.5 c
959.5 158.5 902.83 91.83 828.5 45.5 c
754.17 -0.83 676 -24 594 -24 c
534 -24 480.17 -11.33 432.5 14 c
384.83 39.33 345.67 71.33 315 110 c
315 -407 315 110 315 -407 c
135 -407 315 -407 135 -407 c
closepath 298 525 m
298 388.33 325.67 287.33 381 222 c
436.33 156.67 503.33 124 582 124 c
662 124 730.5 157.83 787.5 225.5 c
844.5 293.17 873 398 873 540 c
873 675.33 845.17 776.67 789.5 844 c
733.83 911.33 667.33 945 590 945 c
513.33 945 445.5 909.17 386.5 837.5 c
327.5 765.83 298 661.67 298 525 c
closepath } bind def
end
/BuildGlyph {
 exch dup /Metrics get 2 index get 0 setcharwidth
/CharProcs get exch 2 copy known not{pop/.notdef}if get exec fill}bind def
/BuildChar {
1 index /Encoding get exch get
1 index /BuildGlyph get exec
} bind def
currentdict end /MC3_Arial exch definefont pop
%%EndFont
/clipproc{clippath{[{/m cvx}{/l cvx}{/c cvx}{/cp cvx}pathforall}stopped
{cleartomark[pathbbox exch 3 i sub exch 2 i sub/rectpath cvx}if]np}bd
/iclmtx mtx cmtx def/iclpath clipproc xd/clinit{pathproc initclip np iclpath cl np exec}bd
/clmove{pathproc 3 1 roll clippath pathproc 2 i neg 2 i neg tr initclip np exec cl tr np exec}bd
/clrect[gs np iclpath{pathbbox}stopped{0 0 818.87 568.32 }if gr]def
/cloper{mtx cmtx iclmtx smtx exch exec smtx}bd
/cland{{exch cvx exec}cloper}bd
/clcopy{{exch clinit cvx exec}cloper}bd
/cldiff{{exch pathbbox 4 -1 roll clrect 0 get 2 copy gt{exch}if pop 4 1 roll
 3 -1 roll clrect 1 get 2 copy gt{exch}if pop 3 1 roll
 2 -1 roll clrect 2 get 2 copy lt{exch}if pop 2 1 roll
 1 -1 roll clrect 3 get 2 copy lt{exch}if pop 1 1 roll
 exch 3 i sub exch 2 i sub rectpath cvx exec}cloper}bd
/icl{{clinit}cloper}bd
0.240117 0.240188 sc

/initmtx mtx cmtx def
[0.999508 -0 0 -0.999213 0 2366.14] concat
gs
gs
1 -1 sc
/MC1_Arial 75 self 556 -2091 m
(-40)[25 42 42 ] xs
1 -1 sc
gr
gs
1 -1 sc
/MC1_Arial 75 self 847 -2091 m
(-30)[25 42 42 ] xs
1 -1 sc
gr
gs
1 -1 sc
/MC1_Arial 75 self 1138 -2091 m
(-20)[25 42 42 ] xs
1 -1 sc
gr
gs
1 -1 sc
/MC1_Arial 75 self 1429 -2091 m
(-10)[25 42 42 ] xs
1 -1 sc
gr
gs
1 -1 sc
/MC1_Arial 75 self 1754 -2091 m
(0)[42 ] xs
1 -1 sc
gr
gs
1 -1 sc
/MC1_Arial 75 self 2023 -2091 m
(10)[42 42 ] xs
1 -1 sc
gr
gs
1 -1 sc
/MC1_Arial 75 self 2314 -2091 m
(20)[42 42 ] xs
1 -1 sc
gr
gs
1 -1 sc
/MC1_Arial 75 self 2605 -2091 m
(30)[42 42 ] xs
1 -1 sc
gr
gs
1 -1 sc
/MC1_Arial 75 self 2896 -2091 m
(40)[42 42 ] xs
1 -1 sc
gr
gs
1 -1 sc
/MC1_Arial 75 self 395 -1954 m
(1E-4)[42 50 25 42 ] xs
1 -1 sc
gr
gs
1 -1 sc
/MC1_Arial 75 self 395 -1770 m
(1E-3)[42 50 25 42 ] xs
1 -1 sc
gr
gs
1 -1 sc
/MC1_Arial 75 self 407 -1585 m
(0.01)[42 21 42 42 ] xs
1 -1 sc
gr
gs
1 -1 sc
/MC1_Arial 75 self 449 -1401 m
(0.1)[42 21 42 ] xs
1 -1 sc
gr
gs
1 -1 sc
/MC1_Arial 75 self 512 -1217 m
(1)[42 ] xs
1 -1 sc
gr
gs
1 -1 sc
/MC1_Arial 75 self 470 -1032 m
(10)[42 42 ] xs
1 -1 sc
gr
gs
1 -1 sc
/MC1_Arial 75 self 428 -848 m
(100)[42 42 42 ] xs
1 -1 sc
gr
gs
1 -1 sc
/MC1_Arial 75 self 386 -664 m
(1000)[42 42 42 42 ] xs
1 -1 sc
gr
gs
1 -1 sc
/MC1_Arial 75 self 344 -479 m
(10000)[42 42 42 42 42 ] xs
1 -1 sc
gr
gs
1 -1 sc
/MC1_Arial 75 self 302 -295 m
(100000)[42 42 42 42 42 42 ] xs
1 -1 sc
gr
611 2009 m
611 1975 l
7 sw
1 sj
1 scap
st
756 1992 m
756 1975 l
st
902 2009 m
902 1975 l
st
1047 1992 m
1047 1975 l
st
1193 2009 m
1193 1975 l
st
1338 1992 m
1338 1975 l
st
1484 2009 m
1484 1975 l
st
1629 1992 m
1629 1975 l
st
1775 2009 m
1775 1975 l
st
1920 1992 m
1920 1975 l
st
2065 2009 m
2065 1975 l
st
2211 1992 m
2211 1975 l
st
2356 2009 m
2356 1975 l
st
2502 1992 m
2502 1975 l
st
2647 2009 m
2647 1975 l
st
2793 1992 m
2793 1975 l
st
2938 2009 m
2938 1975 l
st
611 1975 m
2938 1975 l
st
594 1975 m
611 1975 l
st
594 1963 m
611 1963 l
st
594 1952 m
611 1952 l
st
594 1943 m
611 1943 l
st
577 1934 m
611 1934 l
st
594 1879 m
611 1879 l
st
594 1846 m
611 1846 l
st
594 1823 m
611 1823 l
st
594 1805 m
611 1805 l
st
594 1791 m
611 1791 l
st
594 1778 m
611 1778 l
st
594 1768 m
611 1768 l
st
594 1758 m
611 1758 l
st
577 1750 m
611 1750 l
st
594 1694 m
611 1694 l
st
594 1662 m
611 1662 l
st
594 1639 m
611 1639 l
st
594 1621 m
611 1621 l
st
594 1606 m
611 1606 l
st
594 1594 m
611 1594 l
st
594 1583 m
611 1583 l
st
594 1574 m
611 1574 l
st
577 1565 m
611 1565 l
st
594 1510 m
611 1510 l
st
594 1477 m
611 1477 l
st
594 1454 m
611 1454 l
st
594 1437 m
611 1437 l
st
594 1422 m
611 1422 l
st
594 1410 m
611 1410 l
st
594 1399 m
611 1399 l
st
594 1390 m
611 1390 l
st
577 1381 m
611 1381 l
st
594 1326 m
611 1326 l
st
594 1293 m
611 1293 l
st
594 1270 m
611 1270 l
st
594 1252 m
611 1252 l
st
594 1238 m
611 1238 l
st
594 1225 m
611 1225 l
st
594 1215 m
611 1215 l
st
594 1205 m
611 1205 l
st
577 1197 m
611 1197 l
st
594 1141 m
611 1141 l
st
594 1109 m
611 1109 l
st
594 1086 m
611 1086 l
st
594 1068 m
611 1068 l
st
594 1053 m
611 1053 l
st
594 1041 m
611 1041 l
st
594 1030 m
611 1030 l
st
594 1021 m
611 1021 l
st
577 1012 m
611 1012 l
st
594 957 m
611 957 l
st
594 924 m
611 924 l
st
594 901 m
611 901 l
st
594 884 m
611 884 l
st
594 869 m
611 869 l
st
594 857 m
611 857 l
st
594 846 m
611 846 l
st
594 836 m
611 836 l
st
577 828 m
611 828 l
st
594 773 m
611 773 l
st
594 740 m
611 740 l
st
594 717 m
611 717 l
st
594 699 m
611 699 l
st
594 685 m
611 685 l
st
594 672 m
611 672 l
st
594 662 m
611 662 l
st
594 652 m
611 652 l
st
577 644 m
611 644 l
st
594 588 m
611 588 l
st
594 556 m
611 556 l
st
594 533 m
611 533 l
st
594 515 m
611 515 l
st
594 500 m
611 500 l
st
594 488 m
611 488 l
st
594 477 m
611 477 l
st
594 468 m
611 468 l
st
577 459 m
611 459 l
st
594 404 m
611 404 l
st
594 371 m
611 371 l
st
594 348 m
611 348 l
st
594 330 m
611 330 l
st
594 316 m
611 316 l
st
594 304 m
611 304 l
st
594 293 m
611 293 l
st
594 283 m
611 283 l
st
577 275 m
611 275 l
st
611 1975 m
611 275 l
st
gs
pathproc 611 275 2328 1701 np rectpath
/eocl cland
np exec
1090 1510 m
1090 1510 m
1095 1510 l
3 sw
st
1104 1510 m
1108 1510 l
1113 1565 l
1118 1477 l
1122 1477 l
1127 1477 l
1131 1565 l
1136 1510 l
1140 1454 l
1145 1477 l
1149 1454 l
1154 1565 l
1159 1477 l
1163 1510 l
1168 1477 l
1172 1510 l
1177 1437 l
1181 1510 l
1186 1510 l
1190 1399 l
1195 1410 l
1200 1477 l
1204 1410 l
1209 1410 l
1213 1373 l
1218 1399 l
1222 1437 l
1227 1389 l
1231 1366 l
1236 1454 l
1240 1381 l
1245 1381 l
1250 1366 l
1254 1381 l
1259 1349 l
1263 1399 l
1268 1366 l
1272 1381 l
1277 1437 l
1281 1373 l
1286 1366 l
1291 1360 l
1295 1360 l
1300 1349 l
1304 1339 l
1309 1349 l
1313 1343 l
1318 1318 l
1322 1360 l
1327 1354 l
1332 1314 l
1336 1326 l
1341 1311 l
1345 1311 l
1350 1314 l
1354 1318 l
1359 1296 l
1363 1305 l
1368 1305 l
1373 1283 l
1377 1305 l
1382 1305 l
1386 1290 l
1391 1268 l
1395 1281 l
1400 1281 l
1404 1318 l
1409 1262 l
1414 1272 l
1418 1274 l
1423 1259 l
1427 1299 l
1432 1262 l
1436 1249 l
1441 1255 l
1445 1242 l
1450 1248 l
1455 1243 l
1459 1252 l
1464 1229 l
1468 1243 l
1473 1221 l
1477 1221 l
1482 1228 l
1486 1208 l
1491 1214 l
1496 1208 l
1500 1202 l
1505 1201 l
1509 1199 l
1514 1198 l
1518 1186 l
1523 1180 l
1527 1172 l
1532 1174 l
1537 1161 l
1541 1166 l
1546 1168 l
1550 1150 l
1555 1149 l
1559 1142 l
1564 1130 l
1568 1141 l
1573 1126 l
1578 1115 l
1582 1113 l
1587 1111 l
1591 1105 l
1596 1096 l
1600 1093 l
1605 1082 l
1609 1081 l
1614 1074 l
1618 1066 l
1623 1058 l
1628 1048 l
1632 1044 l
1637 1030 l
1641 1023 l
1646 1021 l
1650 1007 l
1655 998 l
1659 992 l
1664 977 l
1669 965 l
1673 954 l
1678 943 l
1682 930 l
1687 920 l
1691 905 l
1696 890 l
1700 874 l
1705 856 l
1710 838 l
1714 817 l
1719 795 l
1723 771 l
1728 741 l
1732 710 l
1737 676 l
1741 636 l
1746 596 l
1751 559 l
1755 524 l
1760 489 l
1764 461 l
1769 445 l
1773 439 l
1778 446 l
1782 460 l
1787 484 l
1792 508 l
1796 535 l
1801 570 l
1805 604 l
1810 648 l
1814 683 l
1819 715 l
1823 746 l
1828 774 l
1833 800 l
1837 823 l
1842 844 l
1846 861 l
1851 878 l
1855 894 l
1860 909 l
1864 921 l
1869 935 l
1874 946 l
1878 956 l
1883 969 l
1887 980 l
1892 992 l
1896 1002 l
1901 1013 l
1905 1012 l
1910 1027 l
1915 1040 l
1919 1043 l
1924 1056 l
1928 1053 l
1933 1059 l
1937 1073 l
1942 1081 l
1946 1085 l
1951 1087 l
1956 1101 l
1960 1111 l
1965 1116 l
1969 1116 l
1974 1125 l
1978 1138 l
1983 1134 l
1987 1142 l
1992 1146 l
1997 1152 l
2001 1149 l
2006 1170 l
2010 1168 l
2015 1186 l
2019 1173 l
2024 1168 l
2028 1182 l
2033 1187 l
2037 1184 l
2042 1202 l
2047 1209 l
2051 1214 l
2056 1202 l
2060 1198 l
2065 1208 l
2069 1228 l
2074 1235 l
2078 1211 l
2083 1228 l
2088 1226 l
2092 1234 l
2097 1245 l
2101 1243 l
2106 1249 l
2110 1261 l
2115 1259 l
2119 1245 l
2124 1272 l
2129 1266 l
2133 1264 l
2138 1270 l
2142 1259 l
2147 1268 l
2151 1299 l
2156 1290 l
2160 1299 l
2165 1279 l
2170 1330 l
2174 1293 l
2179 1305 l
2183 1311 l
2188 1326 l
2192 1302 l
2197 1311 l
2201 1330 l
2206 1322 l
2211 1322 l
2215 1311 l
2220 1339 l
2224 1366 l
2229 1354 l
2233 1389 l
2238 1330 l
2242 1373 l
2247 1373 l
2252 1360 l
2256 1349 l
2261 1330 l
2265 1422 l
2270 1354 l
2274 1354 l
2279 1437 l
2283 1381 l
2288 1360 l
2293 1360 l
2297 1366 l
2302 1410 l
2306 1437 l
2311 1399 l
2315 1389 l
2320 1389 l
2324 1422 l
2329 1454 l
2334 1410 l
2338 1510 l
2343 1399 l
2347 1437 l
2352 1399 l
2356 1437 l
2361 1437 l
2365 1437 l
2370 1437 l
2375 1437 l
2379 1410 l
2384 1477 l
2388 1477 l
2393 1422 l
2397 1410 l
2402 1437 l
2406 1565 l
2411 1422 l
2416 1510 l
2420 1454 l
2425 1477 l
2429 1437 l
2434 1477 l
2438 1510 l
2443 1510 l
2447 1510 l
2452 1477 l
st
gr
gs
pathproc 611 275 2328 1701 np rectpath
/eocl cland
np exec
841 1612 m
859 1612 m
866 1668 l
872 1668 l
878 1668 l
3 sw
1 0 0 rgb
st
928 1668 m
935 1668 l
st
972 1668 m
978 1668 l
st
991 1539 m
997 1668 l
1004 1612 l
1010 1668 l
1016 1612 l
1022 1557 l
1029 1612 l
1035 1668 l
1041 1668 l
1047 1612 l
1054 1612 l
1060 1668 l
1066 1612 l
1072 1580 l
1079 1668 l
1085 1612 l
1091 1580 l
1098 1668 l
1104 1580 l
1110 1580 l
1116 1612 l
1123 1557 l
1129 1612 l
1135 1580 l
1141 1668 l
st
1154 1557 m
1160 1525 l
1166 1668 l
1173 1668 l
1179 1668 l
1185 1580 l
1192 1580 l
1198 1501 l
1204 1557 l
1210 1612 l
1217 1512 l
1223 1668 l
1229 1512 l
1235 1557 l
1242 1612 l
1248 1668 l
1254 1525 l
1260 1539 l
1267 1512 l
1273 1525 l
1279 1463 l
1286 1463 l
1292 1476 l
1298 1525 l
1304 1492 l
1311 1492 l
1317 1492 l
1323 1451 l
1329 1501 l
1336 1428 l
1342 1463 l
1348 1484 l
1355 1463 l
1361 1424 l
1367 1424 l
1373 1410 l
1380 1463 l
1386 1424 l
1392 1404 l
1398 1386 l
1405 1373 l
1411 1401 l
1417 1390 l
1423 1401 l
1430 1401 l
1436 1398 l
1442 1381 l
1449 1369 l
1455 1360 l
1461 1379 l
1467 1331 l
1474 1336 l
1480 1336 l
1486 1336 l
1492 1323 l
1499 1312 l
1505 1330 l
1511 1314 l
1517 1314 l
1524 1289 l
1530 1289 l
1536 1292 l
1543 1285 l
1549 1280 l
1555 1270 l
1561 1265 l
1568 1265 l
1574 1256 l
1580 1244 l
1586 1229 l
1593 1224 l
1599 1228 l
1605 1213 l
1611 1197 l
1618 1191 l
1624 1182 l
1630 1166 l
1637 1152 l
1643 1143 l
1649 1129 l
1655 1115 l
1662 1101 l
1668 1088 l
1674 1075 l
1680 1056 l
1687 1036 l
1693 1019 l
1699 994 l
1705 969 l
1712 942 l
1718 908 l
1724 874 l
1731 833 l
1737 787 l
1743 746 l
1749 707 l
1756 668 l
1762 637 l
1768 620 l
1774 616 l
1781 626 l
1787 646 l
1793 673 l
1799 701 l
1806 738 l
1812 775 l
1818 823 l
1825 861 l
1831 897 l
1837 930 l
1843 962 l
1850 988 l
1856 1011 l
1862 1033 l
1868 1052 l
1875 1067 l
1881 1085 l
1887 1101 l
1893 1117 l
1900 1126 l
1906 1141 l
1912 1160 l
1919 1156 l
1925 1177 l
1931 1182 l
1937 1190 l
1944 1200 l
1950 1220 l
1956 1220 l
1962 1234 l
1969 1247 l
1975 1251 l
1981 1262 l
1987 1256 l
1994 1276 l
2000 1284 l
2006 1284 l
2013 1296 l
2019 1297 l
2025 1289 l
2031 1318 l
2038 1301 l
2044 1323 l
2050 1307 l
2056 1330 l
2063 1320 l
2069 1323 l
2075 1328 l
2081 1353 l
2088 1324 l
2094 1363 l
2100 1360 l
2107 1375 l
2113 1383 l
2119 1375 l
2125 1386 l
2132 1437 l
2138 1386 l
2144 1379 l
2150 1390 l
2157 1396 l
2163 1437 l
2169 1441 l
2175 1417 l
2182 1446 l
2188 1446 l
2194 1437 l
2201 1437 l
2207 1492 l
2213 1512 l
2219 1476 l
2226 1463 l
2232 1525 l
2238 1512 l
2244 1492 l
2251 1512 l
2257 1476 l
2263 1557 l
2269 1525 l
2276 1557 l
2282 1580 l
2288 1539 l
2295 1525 l
2301 1512 l
2307 1557 l
2313 1525 l
2320 1501 l
2326 1512 l
2332 1557 l
2338 1580 l
2345 1539 l
2351 1580 l
2357 1525 l
2364 1501 l
2370 1668 l
2376 1512 l
2382 1539 l
2389 1580 l
2395 1580 l
2401 1580 l
2407 1580 l
2414 1612 l
2420 1580 l
2426 1580 l
2432 1612 l
2439 1557 l
2445 1580 l
st
2458 1612 m
2464 1668 l
2470 1668 l
2476 1612 l
2483 1580 l
2489 1525 l
2495 1668 l
2501 1612 l
2508 1668 l
2514 1612 l
2520 1612 l
2526 1668 l
2533 1668 l
2539 1557 l
2545 1557 l
2552 1668 l
2558 1580 l
2564 1612 l
st
2595 1668 m
2602 1612 l
st
2633 1668 m
2639 1668 l
st
2689 1668 m
2696 1668 l
st
gr
gs
pathproc 611 275 2328 1701 np rectpath
/eocl cland
np exec
1166 1766 m
1280 1766 m
1284 1766 l
3 sw
0 1 0 rgb
st
1296 1711 m
1300 1711 l
st
1308 1766 m
1311 1766 l
st
1323 1711 m
1327 1766 l
st
1347 1766 m
1351 1655 l
1355 1711 l
st
1374 1766 m
1378 1766 l
st
1386 1678 m
1390 1711 l
1394 1678 l
1398 1655 l
1402 1766 l
1406 1766 l
1410 1678 l
1414 1766 l
1418 1678 l
1421 1655 l
1425 1655 l
1429 1637 l
1433 1637 l
1437 1766 l
1441 1655 l
1445 1711 l
1449 1655 l
1453 1655 l
1457 1655 l
1461 1600 l
1465 1623 l
1469 1567 l
1473 1637 l
1476 1600 l
1480 1561 l
1484 1610 l
1488 1544 l
1492 1600 l
1496 1574 l
1500 1561 l
1504 1582 l
1508 1549 l
1512 1530 l
1516 1549 l
1520 1502 l
1524 1491 l
1528 1530 l
1531 1502 l
1535 1477 l
1539 1484 l
1543 1477 l
1547 1459 l
1551 1471 l
1555 1473 l
1559 1441 l
1563 1450 l
1567 1467 l
1571 1458 l
1575 1442 l
1579 1441 l
1583 1429 l
1586 1434 l
1590 1444 l
1594 1432 l
1598 1406 l
1602 1408 l
1606 1394 l
1610 1413 l
1614 1407 l
1618 1390 l
1622 1372 l
1626 1379 l
1630 1361 l
1634 1360 l
1638 1353 l
1642 1345 l
1645 1337 l
1649 1326 l
1653 1318 l
1657 1319 l
1661 1299 l
1665 1293 l
1669 1279 l
1673 1277 l
1677 1263 l
1681 1245 l
1685 1238 l
1689 1227 l
1693 1213 l
1697 1195 l
1700 1181 l
1704 1164 l
1708 1147 l
1712 1129 l
1716 1110 l
1720 1089 l
1724 1067 l
1728 1041 l
1732 1016 l
1736 994 l
1740 972 l
1744 950 l
1748 930 l
1752 908 l
1755 888 l
1759 872 l
1763 861 l
1767 852 l
1771 849 l
1775 849 l
1779 854 l
1783 861 l
1787 872 l
1791 888 l
1795 901 l
1799 917 l
1803 932 l
1807 949 l
1810 973 l
1814 991 l
1818 1014 l
1822 1041 l
1826 1065 l
1830 1083 l
1834 1105 l
1838 1124 l
1842 1145 l
1846 1157 l
1850 1179 l
1854 1193 l
1858 1205 l
1862 1224 l
1865 1234 l
1869 1250 l
1873 1266 l
1877 1275 l
1881 1282 l
1885 1289 l
1889 1300 l
1893 1311 l
1897 1325 l
1901 1328 l
1905 1336 l
1909 1342 l
1913 1356 l
1917 1360 l
1920 1368 l
1924 1365 l
1928 1365 l
1932 1383 l
1936 1389 l
1940 1414 l
1944 1415 l
1948 1410 l
1952 1419 l
1956 1415 l
1960 1421 l
1964 1419 l
1968 1426 l
1972 1444 l
1975 1432 l
1979 1469 l
1983 1450 l
1987 1456 l
1991 1445 l
1995 1463 l
1999 1471 l
2003 1467 l
2007 1465 l
2011 1499 l
2015 1489 l
2019 1484 l
2023 1494 l
2027 1515 l
2030 1539 l
2034 1549 l
2038 1539 l
2042 1539 l
2046 1567 l
2050 1555 l
2054 1567 l
2058 1590 l
2062 1582 l
2066 1561 l
2070 1600 l
2074 1610 l
2078 1582 l
2082 1655 l
2085 1678 l
2089 1766 l
2093 1610 l
2097 1766 l
2101 1637 l
2105 1623 l
2109 1678 l
2113 1711 l
2117 1623 l
2121 1678 l
2125 1655 l
2129 1711 l
2133 1637 l
2137 1678 l
2140 1637 l
2144 1711 l
2148 1711 l
2152 1766 l
2156 1711 l
2160 1766 l
2164 1678 l
2168 1766 l
2172 1766 l
2176 1766 l
2180 1711 l
2184 1711 l
2188 1766 l
st
2199 1678 m
2203 1766 l
2207 1766 l
2211 1711 l
2215 1766 l
2219 1766 l
st
2235 1766 m
2239 1711 l
st
gr
gs
pathproc 611 275 2328 1701 np rectpath
/eocl cland
np exec
1275 1896 m
1275 1896 m
1278 1896 l
3 sw
0 0 1 rgb
st
1350 1896 m
1353 1896 l
1356 1896 l
st
1400 1841 m
1404 1896 l
1407 1896 l
st
1434 1896 m
1438 1896 l
st
1455 1896 m
1458 1896 l
1461 1896 l
1465 1896 l
1468 1896 l
st
1475 1896 m
1478 1841 l
1482 1841 l
st
1489 1896 m
1492 1841 l
1495 1896 l
1499 1809 l
1502 1768 l
1506 1809 l
1509 1809 l
1512 1841 l
1516 1809 l
1519 1896 l
1522 1768 l
1526 1768 l
1529 1753 l
1533 1753 l
1536 1721 l
1539 1741 l
1543 1712 l
1546 1712 l
1550 1712 l
1553 1680 l
1556 1712 l
1560 1691 l
1563 1649 l
1567 1653 l
1570 1685 l
1573 1665 l
1577 1636 l
1580 1642 l
1583 1653 l
1587 1614 l
1590 1649 l
1594 1619 l
1597 1595 l
1600 1636 l
1604 1587 l
1607 1587 l
1611 1574 l
1614 1582 l
1617 1574 l
1621 1570 l
1624 1555 l
1628 1564 l
1631 1561 l
1634 1542 l
1638 1540 l
1641 1531 l
1645 1522 l
1648 1515 l
1651 1510 l
1655 1504 l
1658 1495 l
1661 1480 l
1665 1476 l
1668 1469 l
1672 1455 l
1675 1452 l
1678 1437 l
1682 1439 l
1685 1423 l
1689 1410 l
1692 1395 l
1695 1385 l
1699 1373 l
1702 1356 l
1706 1342 l
1709 1327 l
1712 1311 l
1716 1296 l
1719 1281 l
1722 1259 l
1726 1237 l
1729 1216 l
1733 1200 l
1736 1181 l
1739 1163 l
1743 1146 l
1746 1129 l
1750 1112 l
1753 1095 l
1756 1080 l
1760 1069 l
1763 1060 l
1767 1053 l
1770 1050 l
1773 1048 l
1777 1051 l
1780 1056 l
1783 1062 l
1787 1070 l
1790 1083 l
1794 1095 l
1797 1105 l
1800 1119 l
1804 1131 l
1807 1145 l
1811 1161 l
1814 1179 l
1817 1194 l
1821 1212 l
1824 1236 l
1828 1259 l
1831 1272 l
1834 1290 l
1838 1305 l
1841 1325 l
1844 1333 l
1848 1353 l
1851 1365 l
1855 1382 l
1858 1388 l
1861 1408 l
1865 1416 l
1868 1423 l
1872 1439 l
1875 1451 l
1878 1457 l
1882 1471 l
1885 1479 l
1889 1480 l
1892 1487 l
1895 1496 l
1899 1515 l
1902 1515 l
1905 1523 l
1909 1537 l
1912 1534 l
1916 1554 l
1919 1538 l
1922 1556 l
1926 1555 l
1929 1565 l
1933 1567 l
1936 1583 l
1939 1579 l
1943 1583 l
1946 1587 l
1950 1605 l
1953 1619 l
1956 1605 l
1960 1614 l
1963 1633 l
1966 1645 l
1970 1661 l
1973 1649 l
1977 1639 l
1980 1661 l
1983 1691 l
1987 1698 l
1990 1691 l
1994 1661 l
1997 1680 l
2000 1712 l
2004 1704 l
2007 1730 l
2011 1741 l
2014 1785 l
2017 1721 l
2021 1809 l
2024 1768 l
2027 1809 l
2031 1841 l
2034 1841 l
2038 1809 l
2041 1809 l
2044 1841 l
2048 1785 l
2051 1896 l
st
2068 1896 m
2072 1841 l
2075 1896 l
2078 1896 l
2082 1841 l
2085 1896 l
2089 1841 l
2092 1841 l
2095 1841 l
st
2109 1896 m
2112 1896 l
2116 1841 l
st
2126 1896 m
2129 1896 l
2133 1896 l
st
2150 1896 m
2153 1896 l
st
2282 1896 m
2285 1896 l
2288 1896 l
st
gr
gs
pathproc 611 275 2328 1701 np rectpath
/eocl cland
np exec
1617 1917 m
1617 1917 m
1623 1917 l
1628 1917 l
1634 1788 l
1640 1862 l
1646 1774 l
1651 1733 l
1657 1718 l
1663 1648 l
1669 1612 l
1675 1618 l
1680 1569 l
1686 1540 l
1692 1508 l
1698 1472 l
1704 1458 l
1709 1430 l
1715 1395 l
1721 1377 l
1727 1342 l
1732 1316 l
1738 1294 l
1744 1268 l
1750 1246 l
1756 1227 l
1761 1214 l
1767 1206 l
1773 1204 l
1779 1208 l
1785 1216 l
1790 1227 l
1796 1247 l
1802 1261 l
1808 1282 l
1813 1297 l
1819 1324 l
1825 1345 l
1831 1372 l
1837 1407 l
1842 1432 l
1848 1453 l
1854 1480 l
1860 1512 l
1866 1529 l
1871 1581 l
1877 1598 l
1883 1645 l
1889 1690 l
1894 1670 l
1900 1718 l
1906 1774 l
1912 1829 l
1918 1862 l
3 sw
1 0.502 0 rgb
st
1929 1862 m
1935 1862 l
st
gr
gs
pathproc 611 275 2328 1701 np rectpath
/eocl cland
np exec
1674 1779 m
1690 1724 m
1695 1835 l
1699 1706 l
1703 1691 l
1707 1668 l
1711 1668 l
1715 1584 l
1719 1580 l
1723 1580 l
1728 1532 l
1732 1514 l
1736 1493 l
1740 1487 l
1744 1449 l
1748 1459 l
1752 1456 l
1756 1444 l
1761 1434 l
1765 1416 l
1769 1419 l
1773 1423 l
1777 1425 l
1781 1438 l
1785 1439 l
1789 1451 l
1794 1438 l
1798 1460 l
1802 1465 l
1806 1496 l
1810 1489 l
1814 1508 l
1818 1511 l
1822 1534 l
1826 1546 l
1831 1560 l
1835 1599 l
1839 1608 l
1843 1623 l
1847 1747 l
1851 1668 l
1855 1679 l
1859 1691 l
1864 1779 l
3 sw
0.502 0.502 0 rgb
st
gr
gs
gs
gs
2407 345 m
2609 345 l
3 sw
st
gr
gr
1 -1 sc
/MC2_Arial 91 self 2609 -376 m
( 1000x1000)[25 51 51 51 51 45 51 51 51 51 ] xs
1 -1 sc
gs
gs
2407 456 m
2609 456 l
3 sw
1 0 0 rgb
st
gr
gr
1 -1 sc
2609 -487 m
( 600x600)[25 51 51 51 45 51 51 51 ] xs
1 -1 sc
gs
gs
2407 567 m
2609 567 l
3 sw
0 1 0 rgb
st
gr
gr
1 -1 sc
2609 -598 m
( 350x350)[25 51 51 51 45 51 51 51 ] xs
1 -1 sc
gs
gs
2407 678 m
2609 678 l
3 sw
0 0 1 rgb
st
gr
gr
1 -1 sc
2609 -709 m
( 250x250)[25 51 51 51 45 51 51 51 ] xs
1 -1 sc
gs
gs
2407 789 m
2609 789 l
3 sw
1 0.502 0 rgb
st
gr
gr
1 -1 sc
2609 -820 m
( 90x90)[25 51 51 45 51 51 ] xs
1 -1 sc
gs
gs
2407 900 m
2609 900 l
3 sw
0.502 0.502 0 rgb
st
gr
gr
1 -1 sc
2609 -931 m
( 17x17)[25 51 51 45 51 51 ] xs
1 -1 sc
gr
gs
gs
1 -1 sc
165 -1276 tr
90 ro
/MC3_Arial 91 self 0 0 m
(p.d.f.)[51 25 51 25 25 25 ] xs
1 -1 sc
gr
gr
gs
1 -1 sc
/MC2_Arial 91 self 1626 -2233 m
(v/std\(v\))[45 25 46 25 51 30 45 30 ] xs
1 -1 sc
gr
gr
Save0 restore end
showpage
%%EOF
