%!PS-Adobe-3.0 EPSF-3.0
%%BoundingBox: 0 0 819 569
%%LanguageLevel: 2
%%Creator: OriginLab Corporation
%%Title: (H:\plots\T175_Q608_flatness.eps)
%%CreationDate: Tue Sep 03 13:07:35 2013
%%EndComments

/OriginLab::PSL1 128 dict dup begin def
/Save0 save def
%%BeginResource: procset OriginLab::PSL1
/wd{1 index where{pop pop pop}{bind def}ifelse}bind def
/setcmykcolor{1 sub 4 1 roll 3{3 index add neg dup 0 lt{pop 0}if 3 1 roll}repeat setrgbcolor pop}wd
/selectfont{dup type/arraytype eq{exch findfont exch makefont setfont}{exch findfont exch scalefont setfont}ifelse}wd
/xshow{1 index length 0 le{}{currentpoint exch 3 index length 1 sub 0 exch 1 exch{dup 5 index exch 1 getinterval show 3 index exch get add 2 copy exch moveto}for pop pop}ifelse pop pop}wd
/glyphshow{matrix currentmatrix exch currentfont dup/FontMatrix get concat currentpoint translate
 dup/Metrics get 2 index get 0 4 2 roll gsave/CharProcs get exch 2 copy known not{pop/.notdef}if
 get exec fill grestore moveto setmatrix}wd
/grayimage/image load def/rgbtogray{cvx exec dup length 3 idiv 1 sub 0 exch 1 exch{dup 3 mul dup 3 index exch get 255 div .3 mul exch
 1 add dup 4 index exch get 255 div .59 mul exch 1 add 4 index exch get 255 div .11 mul add add
 255 mul dup 255 gt{255}if round cvi 2 index 3 1 roll put}for dup length 3 idiv 0 exch getinterval}bind def
/colorimage{0 setgray pop pop cvlit/rgbtogray cvx 2 packedarray cvx grayimage}wd
/bd{bind def}bind def/ld{load def}bd/ed{exch def}bd/xd{cvx def}bd
/np/newpath ld/a/arc ld/m/moveto ld/l/lineto ld/c/curveto ld/rm/rmoveto ld/rl/rlineto ld/rc/rcurveto ld/cp/closepath ld/cpt/currentpoint ld
/tr/translate ld/sc/scale ld/ro/rotate ld/t/transform ld/it/itransform ld/dt/dtransform ld/idt/idtransform ld
/mtx/matrix ld/cmtx/currentmatrix ld/dmtx/defaultmatrix ld/smtx/setmatrix ld/catmtx/concatmatrix ld
/sw/setlinewidth ld/scap/setlinecap ld/sj/setlinejoin ld/sm/setmiterlimit ld/sd/setdash ld/rgb/setrgbcolor ld/crgb/currentrgbcolor ld/cmyk/setcmykcolor ld/gs/gsave ld/gr/grestore ld
/st/stroke ld/fi/fill ld/eofi/eofill ld/cl/clip ld/eocl/eoclip ld
/df/definefont ld/ff/findfont ld/sf/setfont ld/scf/scalefont ld/self/selectfont ld/cf/currentfont ld
/s/show ld/xs/xshow ld/gls/glyphshow ld/xgls{cpt 3 1 roll add exch 3 -1 roll gls m}bd
/cd/currentdict ld/i/index ld
/DrawBox{4 2 roll m 1 index 0 rl 0 exch rl neg 0 rl cp}bd
/plus.re { 6 { 3 index } repeat moveto 0 exch rlineto 0 rlineto pop pop neg 0 exch rlineto pop lineto closepath } def
/DrawBcc{4 2 roll m 2 copy 0 lt exch 0 lt xor{dup 0 exch rl exch 0 rl neg 0 exch rl}{exch dup 0 rl exch 0 exch rl neg 0 rl}ifelse cp}bd
/rectline{dup type/arraytype eq{dup length 0 exch 4 exch 4 sub{0 1 3{3 copy add get 4 1 roll pop}for pop 5 1 roll DrawBox}for pop}{DrawBox}ifelse}bd
/rectpath{dup type/arraytype eq{dup length 0 exch 4 exch 4 sub{0 1 3{3 copy add get 4 1 roll pop}for pop 5 1 roll DrawBcc}for pop}{DrawBcc}ifelse}bd
/pathproc{[{/m cvx}{/l cvx}{/c cvx}{/cp cvx}pathforall]cvx}bd
/L1img/image ld/L1idx[{0}
 {dup 7 and 3 1 roll -3 bitshift get exch 7 sub 1 mul bitshift  1 and}bind 1 index dup
 {dup 1 and 3 1 roll -1 bitshift get exch 1 sub 4 mul bitshift 15 and}bind 1 index dup dup
 {get}bind]def
/image{dup type/dicttype eq {dup/ImgCS get 0 get/Indexed eq}{false}ifelse
 {begin Width Height 8 ImageMatrix {rgb_string rgb_lookup
 cd/DataSource get dup type/filetype eq
 {mystring readstring pop}{exec}ifelse
 dup length 0 ne
 {L1idx BitsPerComponent get 0 1 Width 1 sub
 {3 copy exch exec exch 3 mul exch
 3 mul dup 5 index exch get exch 1 add dup 6 index exch get exch 1 add 6 index exch get
 7 index exch 4 index 2 add exch put 6 index exch 3 index 1 add exch put 5 index exch 2 index exch put pop
 }for pop pop pop }{pop pop pop ()}ifelse }false 3 colorimage end} {dup type/dicttype eq
 {{dup mark exch L1img pop pop}stopped{cleartomark begin Width Height BitsPerComponent ImageMatrix
 {cd/DataSource get dup type/filetype eq {mystring readstring pop}{exec}ifelse
 }false 3 colorimage end} if}{L1img}ifelse}ifelse
 }bd
/L1imgmask/imagemask ld/imagemask{dup type/dicttype eq
 {{dup mark exch L1imgmask pop pop}stopped {cleartomark begin Width Height polarityflag ImageMatrix
 {cd/DataSource get dup type/filetype eq {mystring readstring pop}{exec}ifelse
 }L1imgmask end}if}{L1imgmask}ifelse
 }bd
% Gradient function
/GradientStep 1 150 div def
/GradientStartRGB { /R1 exch def /G1 exch def /B1 exch def } def
/GradientEndRGB { /R2 exch def /G2 exch def /B2 exch def
/GradientSteps GradientLength GradientStep div def
/GradientRStep R2 R1 sub GradientSteps div def
/GradientGStep G2 G1 sub GradientSteps div def
/GradientBStep B2 B1 sub GradientSteps div def
} def
/GradientStepRGB { /R1 R1 GradientRStep add def
/G1 G1 GradientGStep add def
/B1 B1 GradientBStep add def
R1 G1 B1 setrgbcolor
} def
%%EndResource
/rectclip{np rectpath clip np}wd
/rectfill{gs np rectpath fi gr}wd
/rectstroke{gs np dup type/arraytype eq{dup length 6 eq}{false}ifelse{1 index type/arraytype eq{exch}{5 1 roll}ifelse rectline concat st}{rectline st}ifelse gr}wd
%%BeginResource: procset OriginLab::Image
/OriginLab::Image 32 dict dup begin
/BinProc{[currentfile mystring /readstring cvx /pop cvx] cvx bind}bd
/HexProc{[currentfile mystring /readhexstring cvx /pop cvx] cvx bind}bd
/Ascii85Proc{currentfile /ASCII85Decode filter}bd
/LZWA85{currentfile /ASCII85Decode filter /LZWDecode filter}bd
/ImgProcArray[/BinProc /HexProc /Ascii85Proc /LZWA85]def
/ImgDict{/ImgDict 16 dict def ImgDict dup begin /ImageType 1 def /MultipleDataSource false def end}bd
/L2Dec{{[1 0]}{[0 1]}ifelse}bd
/BegImg{ /Img_sv save def
 /ImgDir ed ImgProcArray exch get /ImgProc exch ld
 dup /polarityflag ed L2Dec /polarity ed /smoothflag ed
 tr /dx 2 index def /dy 1 index abs def sc
 string /mystring ed /bpc ed /ih ed /iw ed
 }bd
/EndImg {Img_sv restore}bd
/DoXImg{ /rgb_lookup ed /hival ed ImgDict dup begin
 [/Indexed /DeviceRGB hival rgb_lookup] /L1img where{pop/ImgCS ed}{setcolorspace}ifelse
 /rgb_string iw 3 mul string def
 /Width iw def
 /Height ih def
 /Decode [0 1 bpc{2 mul}repeat 1 sub] def
 /ImageMatrix
  ImgDir 0 eq{[iw 0 0 ih 0 0]}if
  ImgDir 1 eq{[iw neg 0 0 ih iw 0]}if
  ImgDir 2 eq{[iw 0 0 ih neg 0 ih]}if
  ImgDir 3 eq{[iw neg 0 0 ih neg iw ih]}if
  def
 /DataSource ImgProc def
 /BitsPerComponent bpc def
 /Interpolate smoothflag def
 end image}bd
/DoImg{ ImgDict dup begin
 [/DeviceRGB] /L1img where{pop/ImgCS ed}{setcolorspace}ifelse
 /rgb_string iw 3 mul string def
 /Width iw def
 /Height ih def
 /Decode [0 1 0 1 0 1] def
 /ImageMatrix
  ImgDir 0 eq{[iw 0 0 ih 0 0]}if
  ImgDir 1 eq{[iw neg 0 0 ih iw 0]}if
  ImgDir 2 eq{[iw 0 0 ih neg 0 ih]}if
  ImgDir 3 eq{[iw neg 0 0 ih neg iw ih]}if
  def
 /DataSource ImgProc def
 /BitsPerComponent 8 def
 /Interpolate smoothflag def
 end image}bd
end def
%%EndResource
%%BeginFont: /MC1_Arial
12 dict begin
/FontInfo 8 dict dup begin
/ItalicAngle 0 def
/UnderlinePosition -217.00 def
/UnderlineThickness 150.00 def
/StrikeoutPosition 530.00 def
/StrikeoutThickness 102.00 def
/isFixedPitch false def
end readonly def
/FontName /MC1_Arial def
/FontType 3 def
/FontMatrix [1 2048 div 0 0 1 2048 div 0 0] def
/FontBBox [-1361 -665 4096 2060] def
/Encoding 256 array def 0 1 255{Encoding exch/.notdef put}for
Encoding 32/s32 put
Encoding 46/s46 put
Encoding 48/s48 put
Encoding 49/s49 put
/BoundingBoxes 5 dict def
BoundingBoxes begin
/s32 [0 -434 569 1854] def
/s46 [0 -434 569 1854] def
/s48 [0 -434 1139 1854] def
/s49 [0 -434 1139 1854] def
end
/Metrics 5 dict def
 Metrics begin
/s32 569 def
/s46 569 def
/s48 1139 def
/s49 1139 def
end
/CharProcs 5 dict def
CharProcs begin
/.notdef {} def
/s46 {
186 0 m
186 205 186 0 186 205 c
391 205 186 205 391 205 c
391 0 391 205 391 0 c
186 0 391 0 186 0 c
closepath } bind def
/s48 {
85 723 m
85 896.33 102.83 1035.83 138.5 1141.5 c
174.17 1247.17 227.17 1328.67 297.5 1386 c
367.83 1443.33 456.33 1472 563 1472 c
641.67 1472 710.67 1456.17 770 1424.5 c
829.33 1392.83 878.33 1347.17 917 1287.5 c
955.67 1227.83 986 1155.17 1008 1069.5 c
1030 983.83 1041 868.33 1041 723 c
1041 551 1023.33 412.17 988 306.5 c
952.67 200.83 899.83 119.17 829.5 61.5 c
759.17 3.83 670.33 -25 563 -25 c
421.67 -25 310.67 25.67 230 127 c
133.33 249 85 447.67 85 723 c
closepath 270 723 m
270 482.33 298.17 322.17 354.5 242.5 c
410.83 162.83 480.33 123 563 123 c
645.67 123 715.17 163 771.5 243 c
827.83 323 856 483 856 723 c
856 964.33 827.83 1124.67 771.5 1204 c
715.17 1283.33 645 1323 561 1323 c
478.33 1323 412.33 1288 363 1218 c
301 1128.67 270 963.67 270 723 c
closepath } bind def
/s49 {
763 0 m
583 0 763 0 583 0 c
583 1147 583 0 583 1147 c
539.67 1105.67 482.83 1064.33 412.5 1023 c
342.17 981.67 279 950.67 223 930 c
223 1104 223 930 223 1104 c
323.67 1151.33 411.67 1208.67 487 1276 c
562.33 1343.33 615.67 1408.67 647 1472 c
763 1472 647 1472 763 1472 c
763 0 763 1472 763 0 c
closepath } bind def
end
/BuildGlyph {
 exch dup /Metrics get 2 index get 0 setcharwidth
/CharProcs get exch 2 copy known not{pop/.notdef}if get exec fill}bind def
/BuildChar {
1 index /Encoding get exch get
1 index /BuildGlyph get exec
} bind def
currentdict end /MC1_Arial exch definefont pop
%%EndFont
%%BeginFont: /MC2_Arial
12 dict begin
/FontInfo 8 dict dup begin
/ItalicAngle 0 def
/UnderlinePosition -217.00 def
/UnderlineThickness 150.00 def
/StrikeoutPosition 530.00 def
/StrikeoutThickness 102.00 def
/isFixedPitch false def
end readonly def
/FontName /MC2_Arial def
/FontType 3 def
/FontMatrix [1 2048 div 0 0 1 2048 div 0 0] def
/FontBBox [-1361 -665 4096 2060] def
/Encoding 256 array def 0 1 255{Encoding exch/.notdef put}for
Encoding 32/s32 put
Encoding 97/s97 put
Encoding 101/s101 put
Encoding 102/s102 put
Encoding 108/s108 put
Encoding 110/s110 put
Encoding 115/s115 put
Encoding 116/s116 put
/BoundingBoxes 9 dict def
BoundingBoxes begin
/s32 [0 -434 569 1854] def
/s97 [0 -434 1139 1854] def
/s101 [0 -434 1139 1854] def
/s102 [0 -434 569 1854] def
/s108 [0 -434 455 1854] def
/s110 [0 -434 1139 1854] def
/s115 [0 -434 1024 1854] def
/s116 [0 -434 569 1854] def
end
/Metrics 9 dict def
 Metrics begin
/s32 569 def
/s97 1139 def
/s101 1139 def
/s102 569 def
/s108 455 def
/s110 1139 def
/s115 1024 def
/s116 569 def
end
/CharProcs 9 dict def
CharProcs begin
/.notdef {} def
/s97 {
828 131 m
761.33 74.33 697.17 34.33 635.5 11 c
573.83 -12.33 507.67 -24 437 -24 c
320.33 -24 230.67 4.5 168 61.5 c
105.33 118.5 74 191.33 74 280 c
74 332 85.83 379.5 109.5 422.5 c
133.17 465.5 164.17 500 202.5 526 c
240.83 552 284 571.67 332 585 c
367.33 594.33 420.67 603.33 492 612 c
637.33 629.33 744.33 650 813 674 c
813.67 698.67 814 714.33 814 721 c
814 794.33 797 846 763 876 c
717 916.67 648.67 937 558 937 c
473.33 937 410.83 922.17 370.5 892.5 c
330.17 862.83 300.33 810.33 281 735 c
105 759 281 735 105 759 c
121 834.33 147.33 895.17 184 941.5 c
220.67 987.83 273.67 1023.5 343 1048.5 c
412.33 1073.5 492.67 1086 584 1086 c
674.67 1086 748.33 1075.33 805 1054 c
861.67 1032.67 903.33 1005.83 930 973.5 c
956.67 941.17 975.33 900.33 986 851 c
992 820.33 995 765 995 685 c
995 445 995 685 995 445 c
995 277.67 998.83 171.83 1006.5 127.5 c
1014.17 83.17 1029.33 40.67 1052 0 c
864 0 1052 0 864 0 c
845.33 37.33 833.33 81 828 131 c
closepath 813 533 m
747.67 506.33 649.67 483.67 519 465 c
445 454.33 392.67 442.33 362 429 c
331.33 415.67 307.67 396.17 291 370.5 c
274.33 344.83 266 316.33 266 285 c
266 237 284.17 197 320.5 165 c
356.83 133 410 117 480 117 c
549.33 117 611 132.17 665 162.5 c
719 192.83 758.67 234.33 784 287 c
803.33 327.67 813 387.67 813 467 c
813 533 813 467 813 533 c
closepath } bind def
/s101 {
862 342 m
1048 319 862 342 1048 319 c
1018.67 210.33 964.33 126 885 66 c
805.67 6 704.33 -24 581 -24 c
425.67 -24 302.5 23.83 211.5 119.5 c
120.5 215.17 75 349.33 75 522 c
75 700.67 121 839.33 213 938 c
305 1036.67 424.33 1086 571 1086 c
713 1086 829 1037.67 919 941 c
1009 844.33 1054 708.33 1054 533 c
1054 522.33 1053.67 506.33 1053 485 c
261 485 1053 485 261 485 c
267.67 368.33 300.67 279 360 217 c
419.33 155 493.33 124 582 124 c
648 124 704.33 141.33 751 176 c
797.67 210.67 834.67 266 862 342 c
closepath 271 633 m
864 633 271 633 864 633 c
856 722.33 833.33 789.33 796 834 c
738.67 903.33 664.33 938 573 938 c
490.33 938 420.83 910.33 364.5 855 c
308.17 799.67 277 725.67 271 633 c
closepath } bind def
/s102 {
178 0 m
178 922 178 0 178 922 c
19 922 178 922 19 922 c
19 1062 19 922 19 1062 c
178 1062 19 1062 178 1062 c
178 1175 178 1062 178 1175 c
178 1246.33 184.33 1299.33 197 1334 c
214.33 1380.67 244.83 1418.5 288.5 1447.5 c
332.17 1476.5 393.33 1491 472 1491 c
522.67 1491 578.67 1485 640 1473 c
613 1316 640 1473 613 1316 c
575.67 1322.67 540.33 1326 507 1326 c
452.33 1326 413.67 1314.33 391 1291 c
368.33 1267.67 357 1224 357 1160 c
357 1062 357 1160 357 1062 c
564 1062 357 1062 564 1062 c
564 922 564 1062 564 922 c
357 922 564 922 357 922 c
357 0 357 922 357 0 c
178 0 357 0 178 0 c
closepath } bind def
/s108 {
131 0 m
131 1466 131 0 131 1466 c
311 1466 131 1466 311 1466 c
311 0 311 1466 311 0 c
131 0 311 0 131 0 c
closepath } bind def
/s110 {
135 0 m
135 1062 135 0 135 1062 c
297 1062 135 1062 297 1062 c
297 911 297 1062 297 911 c
375 1027.67 487.67 1086 635 1086 c
699 1086 757.83 1074.5 811.5 1051.5 c
865.17 1028.5 905.33 998.33 932 961 c
958.67 923.67 977.33 879.33 988 828 c
994.67 794.67 998 736.33 998 653 c
998 0 998 653 998 0 c
818 0 998 0 818 0 c
818 646 818 0 818 646 c
818 719.33 811 774.17 797 810.5 c
783 846.83 758.17 875.83 722.5 897.5 c
686.83 919.17 645 930 597 930 c
520.33 930 454.17 905.67 398.5 857 c
342.83 808.33 315 716 315 580 c
315 0 315 580 315 0 c
135 0 315 0 135 0 c
closepath } bind def
/s115 {
63 317 m
241 345 63 317 241 345 c
251 273.67 278.83 219 324.5 181 c
370.17 143 434 124 516 124 c
598.67 124 660 140.83 700 174.5 c
740 208.17 760 247.67 760 293 c
760 333.67 742.33 365.67 707 389 c
682.33 405 621 425.33 523 450 c
391 483.33 299.5 512.17 248.5 536.5 c
197.5 560.83 158.83 594.5 132.5 637.5 c
106.17 680.5 93 728 93 780 c
93 827.33 103.83 871.17 125.5 911.5 c
147.17 951.83 176.67 985.33 214 1012 c
242 1032.67 280.17 1050.17 328.5 1064.5 c
376.83 1078.83 428.67 1086 484 1086 c
567.33 1086 640.5 1074 703.5 1050 c
766.5 1026 813 993.5 843 952.5 c
873 911.5 893.67 856.67 905 788 c
729 764 905 788 729 764 c
721 818.67 697.83 861.33 659.5 892 c
621.17 922.67 567 938 497 938 c
414.33 938 355.33 924.33 320 897 c
284.67 869.67 267 837.67 267 801 c
267 777.67 274.33 756.67 289 738 c
303.67 718.67 326.67 702.67 358 690 c
376 683.33 429 668 517 644 c
644.33 610 733.17 582.17 783.5 560.5 c
833.83 538.83 873.33 507.33 902 466 c
930.67 424.67 945 373.33 945 312 c
945 252 927.5 195.5 892.5 142.5 c
857.5 89.5 807 48.5 741 19.5 c
675 -9.5 600.33 -24 517 -24 c
379 -24 273.83 4.67 201.5 62 c
129.17 119.33 83 204.33 63 317 c
closepath } bind def
/s116 {
528 161 m
554 2 528 161 554 2 c
503.33 -8.67 458 -14 418 -14 c
352.67 -14 302 -3.67 266 17 c
230 37.67 204.67 64.83 190 98.5 c
175.33 132.17 168 203 168 311 c
168 922 168 311 168 922 c
36 922 168 922 36 922 c
36 1062 36 922 36 1062 c
168 1062 36 1062 168 1062 c
168 1325 168 1062 168 1325 c
347 1433 168 1325 347 1433 c
347 1062 347 1433 347 1062 c
528 1062 347 1062 528 1062 c
528 922 528 1062 528 922 c
347 922 528 922 347 922 c
347 301 347 922 347 301 c
347 249.67 350.17 216.67 356.5 202 c
362.83 187.33 373.17 175.67 387.5 167 c
401.83 158.33 422.33 154 449 154 c
469 154 495.33 156.33 528 161 c
closepath } bind def
end
/BuildGlyph {
 exch dup /Metrics get 2 index get 0 setcharwidth
/CharProcs get exch 2 copy known not{pop/.notdef}if get exec fill}bind def
/BuildChar {
1 index /Encoding get exch get
1 index /BuildGlyph get exec
} bind def
currentdict end /MC2_Arial exch definefont pop
%%EndFont
%%BeginFont: /MC3_Symbol
12 dict begin
/FontInfo 8 dict dup begin
/ItalicAngle 0 def
/UnderlinePosition -223.00 def
/UnderlineThickness 100.00 def
/StrikeoutPosition 530.00 def
/StrikeoutThickness 102.00 def
/isFixedPitch false def
end readonly def
/FontName /MC3_Symbol def
/FontType 3 def
/FontMatrix [1 2048 div 0 0 1 2048 div 0 0] def
/FontBBox [-1 -450 2279 2059] def
/Encoding 256 array def 0 1 255{Encoding exch/.notdef put}for
Encoding 32/s32 put
/BoundingBoxes 3 dict def
BoundingBoxes begin
/s32 [0 -450 512 2059] def
/s61556 [0 -450 0 2059] def
end
/Metrics 3 dict def
 Metrics begin
/s32 512 def
/s61556 0 def
end
/CharProcs 3 dict def
CharProcs begin
/.notdef {} def
/s61556 {
813 916 m
813 769 813 916 813 769 c
501 769 813 769 501 769 c
478.33 549.67 467 399.33 467 318 c
467 253.33 479.17 206.5 503.5 177.5 c
527.83 148.5 558.33 134 595 134 c
622.33 134 646 143.33 666 162 c
686 180.67 700.67 212.67 710 258 c
745 258 710 258 745 258 c
733.67 148.67 709.33 73.17 672 31.5 c
634.67 -10.17 591 -31 541 -31 c
488.33 -31 444.33 -7.17 409 40.5 c
373.67 88.17 356 173.33 356 296 c
356 392.67 368 550.33 392 769 c
298 769 392 769 298 769 c
244 769 201.67 759.17 171 739.5 c
140.33 719.83 110 682.67 80 628 c
43 628 80 628 43 628 c
91 756 134 836 172 868 c
210 900 264 916 334 916 c
813 916 334 916 813 916 c
closepath } bind def
end
/BuildGlyph {
 exch dup /Metrics get 2 index get 0 setcharwidth
/CharProcs get exch 2 copy known not{pop/.notdef}if get exec fill}bind def
/BuildChar {
1 index /Encoding get exch get
1 index /BuildGlyph get exec
} bind def
currentdict end /MC3_Symbol exch definefont pop
%%EndFont
/clipproc{clippath{[{/m cvx}{/l cvx}{/c cvx}{/cp cvx}pathforall}stopped
{cleartomark[pathbbox exch 3 i sub exch 2 i sub/rectpath cvx}if]np}bd
/iclmtx mtx cmtx def/iclpath clipproc xd/clinit{pathproc initclip np iclpath cl np exec}bd
/clmove{pathproc 3 1 roll clippath pathproc 2 i neg 2 i neg tr initclip np exec cl tr np exec}bd
/clrect[gs np iclpath{pathbbox}stopped{0 0 818.87 568.32 }if gr]def
/cloper{mtx cmtx iclmtx smtx exch exec smtx}bd
/cland{{exch cvx exec}cloper}bd
/clcopy{{exch clinit cvx exec}cloper}bd
/cldiff{{exch pathbbox 4 -1 roll clrect 0 get 2 copy gt{exch}if pop 4 1 roll
 3 -1 roll clrect 1 get 2 copy gt{exch}if pop 3 1 roll
 2 -1 roll clrect 2 get 2 copy lt{exch}if pop 2 1 roll
 1 -1 roll clrect 3 get 2 copy lt{exch}if pop 1 1 roll
 exch 3 i sub exch 2 i sub rectpath cvx exec}cloper}bd
/icl{{clinit}cloper}bd
0.240117 0.240188 sc

/initmtx mtx cmtx def
[0.999508 -0 0 -0.999213 0 2366.14] concat
gs
gs
1 -1 sc
/MC1_Arial 75 self 536 -2091 m
(0.01)[42 21 42 42 ] xs
1 -1 sc
gr
gs
1 -1 sc
/MC1_Arial 75 self 1569 -2091 m
(0.1)[42 21 42 ] xs
1 -1 sc
gr
gs
1 -1 sc
/MC1_Arial 75 self 2612 -2091 m
(1)[42 ] xs
1 -1 sc
gr
gs
1 -1 sc
/MC1_Arial 75 self 511 -1995 m
(1)[42 ] xs
1 -1 sc
gr
gs
1 -1 sc
/MC1_Arial 75 self 469 -1692 m
(10)[42 42 ] xs
1 -1 sc
gr
gs
1 -1 sc
/MC1_Arial 75 self 427 -1388 m
(100)[42 42 42 ] xs
1 -1 sc
gr
gs
1 -1 sc
/MC1_Arial 75 self 385 -1085 m
(1000)[42 42 42 42 ] xs
1 -1 sc
gr
gs
1 -1 sc
/MC1_Arial 75 self 343 -781 m
(10000)[42 42 42 42 42 ] xs
1 -1 sc
gr
gs
1 -1 sc
/MC1_Arial 75 self 301 -478 m
(100000)[42 42 42 42 42 42 ] xs
1 -1 sc
gr
610 2009 m
610 1975 l
7 sw
1 sj
1 scap
st
915 1992 m
915 1975 l
st
1093 1992 m
1093 1975 l
st
1219 1992 m
1219 1975 l
st
1317 1992 m
1317 1975 l
st
1397 1992 m
1397 1975 l
st
1465 1992 m
1465 1975 l
st
1524 1992 m
1524 1975 l
st
1575 1992 m
1575 1975 l
st
1622 2009 m
1622 1975 l
st
1926 1992 m
1926 1975 l
st
2104 1992 m
2104 1975 l
st
2231 1992 m
2231 1975 l
st
2329 1992 m
2329 1975 l
st
2409 1992 m
2409 1975 l
st
2477 1992 m
2477 1975 l
st
2535 1992 m
2535 1975 l
st
2587 1992 m
2587 1975 l
st
2633 2009 m
2633 1975 l
st
2938 1992 m
2938 1975 l
st
610 1975 m
2938 1975 l
st
576 1975 m
610 1975 l
st
593 1884 m
610 1884 l
st
593 1830 m
610 1830 l
st
593 1792 m
610 1792 l
st
593 1763 m
610 1763 l
st
593 1739 m
610 1739 l
st
593 1719 m
610 1719 l
st
593 1701 m
610 1701 l
st
593 1685 m
610 1685 l
st
576 1672 m
610 1672 l
st
593 1580 m
610 1580 l
st
593 1527 m
610 1527 l
st
593 1489 m
610 1489 l
st
593 1459 m
610 1459 l
st
593 1435 m
610 1435 l
st
593 1415 m
610 1415 l
st
593 1397 m
610 1397 l
st
593 1382 m
610 1382 l
st
576 1368 m
610 1368 l
st
593 1277 m
610 1277 l
st
593 1223 m
610 1223 l
st
593 1185 m
610 1185 l
st
593 1156 m
610 1156 l
st
593 1132 m
610 1132 l
st
593 1112 m
610 1112 l
st
593 1094 m
610 1094 l
st
593 1079 m
610 1079 l
st
576 1065 m
610 1065 l
st
593 973 m
610 973 l
st
593 920 m
610 920 l
st
593 882 m
610 882 l
st
593 853 m
610 853 l
st
593 828 m
610 828 l
st
593 808 m
610 808 l
st
593 791 m
610 791 l
st
593 775 m
610 775 l
st
576 761 m
610 761 l
st
593 670 m
610 670 l
st
593 616 m
610 616 l
st
593 578 m
610 578 l
st
593 549 m
610 549 l
st
593 525 m
610 525 l
st
593 505 m
610 505 l
st
593 487 m
610 487 l
st
593 472 m
610 472 l
st
576 458 m
610 458 l
st
593 366 m
610 366 l
st
593 313 m
610 313 l
st
593 275 m
610 275 l
st
610 1975 m
610 275 l
st
gs
pathproc 610 275 2329 1701 np rectpath
/eocl cland
np exec
833 418 36 36 rectfill
610 275 m
3 sw
833 418 36 36 rectstroke
880 439 36 36 rectfill
880 439 36 36 rectstroke
931 403 36 36 rectfill
931 403 36 36 rectstroke
990 799 36 36 rectfill
990 799 36 36 rectstroke
1058 841 36 36 rectfill
1058 841 36 36 rectstroke
1138 874 36 36 rectfill
1138 874 36 36 rectstroke
1184 839 36 36 rectfill
1184 839 36 36 rectstroke
1236 828 36 36 rectfill
1236 828 36 36 rectstroke
1295 1102 36 36 rectfill
1295 1102 36 36 rectstroke
1327 1086 36 36 rectfill
1327 1086 36 36 rectstroke
1362 1196 36 36 rectfill
1362 1196 36 36 rectstroke
1401 1231 36 36 rectfill
1401 1231 36 36 rectstroke
1442 1220 36 36 rectfill
1442 1220 36 36 rectstroke
1541 1359 36 36 rectfill
1541 1359 36 36 rectstroke
1667 1616 36 36 rectfill
1667 1616 36 36 rectstroke
1845 1721 36 36 rectfill
1845 1721 36 36 rectstroke
2374 1806 36 36 rectfill
2374 1806 36 36 rectstroke
2624 1807 36 36 rectfill
2624 1807 36 36 rectstroke
gr
gs
gs
1 -1 sc
239 -1342 tr
90 ro
/MC2_Arial 91 self 0 0 m
(flatness)[25 20 51 25 51 51 46 46 ] xs
1 -1 sc
gr
gr
gs
1 -1 sc
/MC3_Symbol 91 self 1755 -2243 m
/s61556 38 xgls
1 -1 sc
gr
574 1831 m
2997 1831 l
0 0 1 rgb
st
gr
Save0 restore end
showpage
%%EOF
